<?xml version="1.0" encoding="utf-8"?>
<!-- Generator: Adobe Illustrator 24.1.0, SVG Export Plug-In . SVG Version: 6.00 Build 0)  -->
<svg version="1.1" xmlns="http://www.w3.org/2000/svg" xmlns:xlink="http://www.w3.org/1999/xlink" x="0px" y="0px"
	 viewBox="0 0 540 270" enable-background="new 0 0 540 270" xml:space="preserve">
<g id="beschriftungen">
	<g>
		<path d="M81.036,26.249c-0.512,0.256-1.537,0.512-2.849,0.512c-3.041,0-5.33-1.921-5.33-5.458c0-3.377,2.289-5.666,5.634-5.666
			c1.345,0,2.193,0.288,2.561,0.48l-0.336,1.137c-0.528-0.256-1.281-0.448-2.177-0.448c-2.529,0-4.209,1.617-4.209,4.45
			c0,2.641,1.521,4.338,4.146,4.338c0.849,0,1.713-0.176,2.273-0.448L81.036,26.249z"/>
		<path d="M86.906,26.601l-0.112-0.977h-0.048c-0.432,0.608-1.265,1.153-2.369,1.153c-1.569,0-2.369-1.104-2.369-2.225
			c0-1.873,1.665-2.897,4.658-2.881v-0.16c0-0.641-0.176-1.793-1.761-1.793c-0.72,0-1.473,0.224-2.017,0.576l-0.32-0.928
			c0.64-0.416,1.568-0.688,2.545-0.688c2.369,0,2.945,1.617,2.945,3.169v2.897c0,0.672,0.032,1.329,0.128,1.857H86.906z
			 M86.698,22.647c-1.537-0.032-3.281,0.24-3.281,1.745c0,0.913,0.608,1.345,1.329,1.345c1.008,0,1.648-0.64,1.873-1.296
			c0.048-0.145,0.08-0.304,0.08-0.448V22.647z"/>
		<path d="M90.329,20.951c0-0.8-0.016-1.457-0.064-2.097h1.232l0.064,1.249h0.048c0.432-0.736,1.152-1.425,2.433-1.425
			c1.057,0,1.857,0.641,2.193,1.553h0.032c0.24-0.432,0.544-0.768,0.864-1.008c0.464-0.352,0.977-0.544,1.713-0.544
			c1.024,0,2.545,0.672,2.545,3.361v4.562h-1.376v-4.386c0-1.489-0.544-2.385-1.681-2.385c-0.8,0-1.425,0.592-1.665,1.28
			c-0.064,0.192-0.112,0.448-0.112,0.704v4.786h-1.376v-4.642c0-1.232-0.544-2.128-1.617-2.128c-0.88,0-1.521,0.704-1.745,1.408
			c-0.08,0.208-0.112,0.448-0.112,0.688v4.674h-1.376V20.951z"/>
		<path d="M104.456,22.983c0.032,1.905,1.249,2.689,2.657,2.689c1.008,0,1.617-0.176,2.145-0.4l0.24,1.008
			c-0.496,0.224-1.344,0.48-2.577,0.48c-2.385,0-3.81-1.569-3.81-3.906s1.376-4.178,3.633-4.178c2.529,0,3.201,2.225,3.201,3.649
			c0,0.288-0.032,0.512-0.048,0.656H104.456z M108.586,21.975c0.016-0.896-0.368-2.289-1.953-2.289
			c-1.425,0-2.049,1.313-2.161,2.289H108.586z"/>
		<path d="M111.688,21.271c0-0.913-0.016-1.697-0.064-2.417h1.232l0.048,1.521h0.064c0.352-1.041,1.2-1.697,2.145-1.697
			c0.16,0,0.272,0.016,0.4,0.048v1.328c-0.144-0.032-0.288-0.048-0.48-0.048c-0.992,0-1.697,0.752-1.889,1.809
			c-0.032,0.192-0.064,0.417-0.064,0.656v4.13h-1.393V21.271z"/>
		<path d="M121.13,26.601l-0.112-0.977h-0.048c-0.432,0.608-1.265,1.153-2.369,1.153c-1.569,0-2.369-1.104-2.369-2.225
			c0-1.873,1.665-2.897,4.658-2.881v-0.16c0-0.641-0.176-1.793-1.761-1.793c-0.72,0-1.473,0.224-2.017,0.576l-0.32-0.928
			c0.64-0.416,1.568-0.688,2.545-0.688c2.369,0,2.945,1.617,2.945,3.169v2.897c0,0.672,0.032,1.329,0.128,1.857H121.13z
			 M120.922,22.647c-1.537-0.032-3.281,0.24-3.281,1.745c0,0.913,0.608,1.345,1.329,1.345c1.008,0,1.648-0.64,1.873-1.296
			c0.048-0.145,0.08-0.304,0.08-0.448V22.647z"/>
		<path d="M133.467,26.313c-0.368,0.192-1.185,0.448-2.225,0.448c-2.337,0-3.857-1.585-3.857-3.954c0-2.385,1.632-4.114,4.162-4.114
			c0.832,0,1.568,0.208,1.953,0.4l-0.32,1.088c-0.336-0.192-0.865-0.368-1.633-0.368c-1.777,0-2.737,1.313-2.737,2.929
			c0,1.792,1.152,2.897,2.689,2.897c0.801,0,1.329-0.208,1.729-0.384L133.467,26.313z"/>
		<path d="M142.027,22.664c0,2.865-1.985,4.114-3.857,4.114c-2.097,0-3.713-1.537-3.713-3.986c0-2.593,1.696-4.114,3.841-4.114
			C140.522,18.678,142.027,20.294,142.027,22.664z M135.88,22.744c0,1.697,0.977,2.977,2.353,2.977c1.345,0,2.353-1.265,2.353-3.009
			c0-1.313-0.656-2.977-2.321-2.977C136.6,19.734,135.88,21.271,135.88,22.744z"/>
		<path d="M143.8,20.951c0-0.8-0.016-1.457-0.064-2.097h1.249l0.08,1.28h0.032c0.384-0.736,1.281-1.457,2.561-1.457
			c1.073,0,2.737,0.641,2.737,3.297v4.626h-1.409v-4.466c0-1.249-0.464-2.289-1.792-2.289c-0.929,0-1.649,0.656-1.889,1.441
			c-0.064,0.176-0.096,0.416-0.096,0.656v4.658H143.8V20.951z"/>
		<path d="M152.488,25.161c0.416,0.272,1.152,0.56,1.856,0.56c1.024,0,1.505-0.512,1.505-1.152c0-0.672-0.4-1.041-1.441-1.425
			c-1.393-0.496-2.049-1.264-2.049-2.193c0-1.249,1.009-2.273,2.673-2.273c0.784,0,1.473,0.224,1.905,0.48l-0.352,1.024
			c-0.304-0.192-0.865-0.448-1.585-0.448c-0.832,0-1.296,0.48-1.296,1.056c0,0.641,0.464,0.929,1.473,1.313
			c1.345,0.512,2.033,1.185,2.033,2.337c0,1.36-1.056,2.321-2.897,2.321c-0.849,0-1.633-0.208-2.177-0.528L152.488,25.161z"/>
		<path d="M160.713,16.629v2.225h2.017v1.072h-2.017v4.178c0,0.96,0.272,1.505,1.056,1.505c0.368,0,0.641-0.048,0.816-0.096
			l0.064,1.056c-0.272,0.112-0.704,0.192-1.249,0.192c-0.656,0-1.184-0.208-1.521-0.592c-0.4-0.416-0.544-1.104-0.544-2.017v-4.226
			h-1.201v-1.072h1.201v-1.857L160.713,16.629z"/>
		<path d="M168.601,26.601l-0.112-0.977h-0.048c-0.432,0.608-1.265,1.153-2.369,1.153c-1.569,0-2.369-1.104-2.369-2.225
			c0-1.873,1.665-2.897,4.658-2.881v-0.16c0-0.641-0.176-1.793-1.761-1.793c-0.72,0-1.473,0.224-2.017,0.576l-0.32-0.928
			c0.64-0.416,1.568-0.688,2.545-0.688c2.369,0,2.945,1.617,2.945,3.169v2.897c0,0.672,0.032,1.329,0.128,1.857H168.601z
			 M168.393,22.647c-1.537-0.032-3.281,0.24-3.281,1.745c0,0.913,0.608,1.345,1.329,1.345c1.008,0,1.648-0.64,1.873-1.296
			c0.048-0.145,0.08-0.304,0.08-0.448V22.647z"/>
		<path d="M172.024,20.951c0-0.8-0.016-1.457-0.064-2.097h1.249l0.08,1.28h0.032c0.384-0.736,1.281-1.457,2.561-1.457
			c1.073,0,2.737,0.641,2.737,3.297v4.626h-1.409v-4.466c0-1.249-0.464-2.289-1.792-2.289c-0.929,0-1.649,0.656-1.889,1.441
			c-0.064,0.176-0.096,0.416-0.096,0.656v4.658h-1.409V20.951z"/>
		<path d="M182.537,16.629v2.225h2.017v1.072h-2.017v4.178c0,0.96,0.272,1.505,1.056,1.505c0.368,0,0.641-0.048,0.816-0.096
			l0.064,1.056c-0.272,0.112-0.704,0.192-1.249,0.192c-0.656,0-1.184-0.208-1.521-0.592c-0.4-0.416-0.544-1.104-0.544-2.017v-4.226
			h-1.201v-1.072h1.201v-1.857L182.537,16.629z"/>
		<path d="M127.37,45.497c-0.4,0.192-1.201,0.464-2.241,0.464c-2.001,0-2.978-1.345-2.978-2.993c0-2.641,1.953-5.074,4.738-5.074
			c0.72,0,1.376,0.208,1.617,0.336l-0.384,1.057c-0.304-0.144-0.736-0.288-1.313-0.288c-2.017,0-3.281,1.985-3.281,3.81
			c0,1.249,0.656,2.065,1.92,2.065c0.785,0,1.393-0.24,1.793-0.432L127.37,45.497z"/>
		<path d="M128.824,45.801l2.145-11.365h1.329l-1.36,7.123h0.032c0.24-0.272,0.528-0.56,0.72-0.784l2.737-2.721h1.633l-3.377,3.185
			l2.321,4.562h-1.473l-1.856-3.826l-0.977,0.88l-0.56,2.945H128.824z"/>
	</g>
	<path fill-rule="evenodd" clip-rule="evenodd" fill="none" stroke="#999999" stroke-width="0.5" stroke-miterlimit="10" d="
		M190.463,22.601c28.185,6.635,42.395,18.897,50.11,28.483c13.769,17.109,12.283,32.448,28.484,54.857
		c10.726,14.837,23.004,24.195,31.121,29.538"/>
	<path fill-rule="evenodd" clip-rule="evenodd" fill="none" stroke="#999999" stroke-width="0.5" stroke-miterlimit="10" d="
		M198.592,167.74c-10.621-0.527-26.437-6.242-32.639-14.198c-6.202-7.956-16.224-12.44-24.664-12.703"/>
	<path fill-rule="evenodd" clip-rule="evenodd" fill="none" stroke="#999999" stroke-width="0.5" stroke-miterlimit="10" d="
		M424.918,85.82c9.325-0.283,11.171-3.184,13.017-5.557c1.846-2.374,6.066-3.692,11.604-3.692"/>
	<g>
		<path d="M455.325,71.716v10.789h-1.393V71.716H455.325z"/>
		<path d="M457.869,76.854c0-0.8-0.017-1.457-0.064-2.097h1.232l0.064,1.249h0.048c0.433-0.736,1.152-1.425,2.433-1.425
			c1.057,0,1.857,0.641,2.193,1.553h0.032c0.24-0.432,0.544-0.768,0.864-1.008c0.464-0.352,0.977-0.544,1.713-0.544
			c1.024,0,2.545,0.672,2.545,3.361v4.562h-1.377v-4.386c0-1.489-0.544-2.385-1.681-2.385c-0.8,0-1.425,0.592-1.665,1.28
			c-0.063,0.192-0.111,0.448-0.111,0.704v4.786h-1.377v-4.642c0-1.232-0.544-2.128-1.616-2.128c-0.881,0-1.521,0.704-1.745,1.408
			c-0.08,0.208-0.112,0.448-0.112,0.688v4.674h-1.376V76.854z"/>
		<path d="M475.502,82.505l-0.111-0.977h-0.048c-0.433,0.608-1.265,1.153-2.369,1.153c-1.569,0-2.369-1.104-2.369-2.225
			c0-1.873,1.665-2.897,4.658-2.881v-0.16c0-0.641-0.177-1.793-1.761-1.793c-0.721,0-1.473,0.224-2.018,0.576l-0.319-0.928
			c0.64-0.416,1.568-0.688,2.545-0.688c2.369,0,2.945,1.617,2.945,3.169v2.897c0,0.672,0.031,1.329,0.128,1.857H475.502z
			 M475.294,78.551c-1.536-0.032-3.281,0.24-3.281,1.745c0,0.913,0.608,1.345,1.329,1.345c1.008,0,1.648-0.64,1.872-1.296
			c0.049-0.145,0.08-0.304,0.08-0.448V78.551z"/>
		<path d="M485.6,74.758c-0.032,0.56-0.064,1.185-0.064,2.129v4.498c0,1.777-0.353,2.865-1.104,3.538
			c-0.752,0.704-1.841,0.928-2.817,0.928c-0.928,0-1.952-0.224-2.577-0.64l0.353-1.072c0.513,0.32,1.313,0.608,2.273,0.608
			c1.44,0,2.496-0.752,2.496-2.705v-0.864h-0.031c-0.433,0.72-1.265,1.296-2.465,1.296c-1.921,0-3.298-1.632-3.298-3.777
			c0-2.625,1.713-4.114,3.489-4.114c1.345,0,2.081,0.705,2.417,1.345h0.032l0.064-1.168H485.6z M484.143,77.815
			c0-0.24-0.016-0.448-0.08-0.64c-0.256-0.816-0.944-1.489-1.969-1.489c-1.345,0-2.305,1.137-2.305,2.929
			c0,1.521,0.769,2.785,2.289,2.785c0.864,0,1.648-0.544,1.952-1.44c0.08-0.24,0.112-0.512,0.112-0.752V77.815z"/>
		<path d="M488.653,78.887c0.032,1.905,1.248,2.689,2.657,2.689c1.008,0,1.616-0.176,2.145-0.4l0.24,1.008
			c-0.496,0.224-1.345,0.48-2.577,0.48c-2.385,0-3.81-1.569-3.81-3.906s1.377-4.178,3.634-4.178c2.528,0,3.201,2.225,3.201,3.649
			c0,0.288-0.032,0.512-0.048,0.656H488.653z M492.783,77.879c0.016-0.896-0.368-2.289-1.953-2.289
			c-1.425,0-2.049,1.313-2.161,2.289H492.783z"/>
		<path d="M499.276,77.287c0-0.992-0.032-1.792-0.064-2.529h1.265l0.064,1.329h0.031c0.576-0.944,1.489-1.505,2.754-1.505
			c1.872,0,3.281,1.585,3.281,3.938c0,2.785-1.697,4.162-3.521,4.162c-1.024,0-1.921-0.448-2.385-1.217h-0.032v4.21h-1.393V77.287z
			 M500.669,79.352c0,0.208,0.032,0.4,0.063,0.576c0.257,0.977,1.104,1.649,2.113,1.649c1.488,0,2.353-1.217,2.353-2.993
			c0-1.553-0.816-2.881-2.305-2.881c-0.96,0-1.856,0.688-2.129,1.745c-0.048,0.176-0.096,0.384-0.096,0.576V79.352z"/>
		<path d="M508.38,71.14h1.409v11.365h-1.409V71.14z"/>
		<path d="M516.445,82.505l-0.111-0.977h-0.048c-0.433,0.608-1.265,1.153-2.369,1.153c-1.569,0-2.369-1.104-2.369-2.225
			c0-1.873,1.665-2.897,4.658-2.881v-0.16c0-0.641-0.177-1.793-1.761-1.793c-0.721,0-1.473,0.224-2.018,0.576l-0.319-0.928
			c0.64-0.416,1.568-0.688,2.545-0.688c2.369,0,2.945,1.617,2.945,3.169v2.897c0,0.672,0.031,1.329,0.128,1.857H516.445z
			 M516.237,78.551c-1.536-0.032-3.281,0.24-3.281,1.745c0,0.913,0.608,1.345,1.329,1.345c1.008,0,1.648-0.64,1.872-1.296
			c0.049-0.145,0.08-0.304,0.08-0.448V78.551z"/>
		<path d="M519.868,76.854c0-0.8-0.017-1.457-0.064-2.097h1.249l0.08,1.28h0.031c0.385-0.736,1.281-1.457,2.562-1.457
			c1.072,0,2.737,0.641,2.737,3.297v4.626h-1.409v-4.466c0-1.249-0.464-2.289-1.792-2.289c-0.929,0-1.649,0.656-1.89,1.441
			c-0.063,0.176-0.096,0.416-0.096,0.656v4.658h-1.408V76.854z"/>
		<path d="M529.532,78.887c0.032,1.905,1.248,2.689,2.657,2.689c1.008,0,1.616-0.176,2.145-0.4l0.24,1.008
			c-0.496,0.224-1.345,0.48-2.577,0.48c-2.385,0-3.81-1.569-3.81-3.906s1.377-4.178,3.634-4.178c2.528,0,3.201,2.225,3.201,3.649
			c0,0.288-0.032,0.512-0.048,0.656H529.532z M533.662,77.879c0.016-0.896-0.368-2.289-1.953-2.289
			c-1.425,0-2.049,1.313-2.161,2.289H533.662z"/>
		<path d="M459.727,90.597c-1.169,1.568-2.017,3.649-2.017,6.546c0,2.849,0.88,4.898,2.017,6.499h-1.104
			c-1.009-1.329-2.097-3.377-2.097-6.499c0.016-3.153,1.088-5.202,2.097-6.546H459.727z"/>
		<path d="M461.213,90.34h1.409v4.834h0.031c0.225-0.4,0.576-0.752,1.009-0.992c0.416-0.24,0.912-0.4,1.44-0.4
			c1.041,0,2.705,0.641,2.705,3.313v4.61H466.4v-4.45c0-1.249-0.465-2.305-1.793-2.305c-0.912,0-1.633,0.641-1.889,1.409
			c-0.08,0.192-0.096,0.4-0.096,0.672v4.674h-1.409V90.34z"/>
		<path d="M470.877,98.087c0.032,1.905,1.249,2.689,2.657,2.689c1.009,0,1.617-0.176,2.146-0.4l0.239,1.008
			c-0.496,0.224-1.344,0.48-2.576,0.48c-2.386,0-3.81-1.569-3.81-3.906s1.376-4.178,3.633-4.178c2.529,0,3.201,2.225,3.201,3.649
			c0,0.288-0.031,0.512-0.048,0.656H470.877z M475.007,97.079c0.017-0.896-0.368-2.289-1.952-2.289
			c-1.425,0-2.049,1.313-2.161,2.289H475.007z"/>
		<path d="M479.678,91.781c0.016,0.48-0.336,0.864-0.896,0.864c-0.496,0-0.849-0.384-0.849-0.864c0-0.497,0.368-0.88,0.881-0.88
			C479.342,90.901,479.678,91.285,479.678,91.781z M478.109,101.705v-7.747h1.408v7.747H478.109z"/>
		<path d="M488.527,93.958c-0.032,0.56-0.063,1.185-0.063,2.129v4.498c0,1.777-0.353,2.865-1.104,3.538
			c-0.753,0.704-1.841,0.928-2.817,0.928c-0.929,0-1.953-0.224-2.577-0.64l0.353-1.072c0.512,0.32,1.313,0.608,2.272,0.608
			c1.44,0,2.497-0.752,2.497-2.705v-0.864h-0.032c-0.432,0.72-1.265,1.296-2.465,1.296c-1.921,0-3.297-1.632-3.297-3.777
			c0-2.625,1.712-4.114,3.489-4.114c1.345,0,2.081,0.705,2.417,1.345h0.032l0.063-1.168H488.527z M487.071,97.015
			c0-0.24-0.017-0.448-0.08-0.64c-0.257-0.816-0.944-1.489-1.969-1.489c-1.345,0-2.306,1.137-2.306,2.929
			c0,1.521,0.769,2.785,2.289,2.785c0.864,0,1.648-0.544,1.953-1.44c0.08-0.24,0.112-0.512,0.112-0.752V97.015z"/>
		<path d="M490.797,90.34h1.408v4.834h0.032c0.224-0.4,0.576-0.752,1.009-0.992c0.416-0.24,0.912-0.4,1.44-0.4
			c1.04,0,2.705,0.641,2.705,3.313v4.61h-1.409v-4.45c0-1.249-0.464-2.305-1.792-2.305c-0.913,0-1.633,0.641-1.89,1.409
			c-0.079,0.192-0.096,0.4-0.096,0.672v4.674h-1.408V90.34z"/>
		<path d="M501.31,91.733v2.225h2.017v1.072h-2.017v4.178c0,0.96,0.271,1.505,1.056,1.505c0.368,0,0.641-0.048,0.816-0.096
			l0.064,1.056c-0.272,0.112-0.704,0.192-1.249,0.192c-0.656,0-1.184-0.208-1.521-0.592c-0.399-0.416-0.544-1.104-0.544-2.017V95.03
			h-1.2v-1.072h1.2v-1.857L501.31,91.733z"/>
		<path d="M507.773,96.311v-0.96h8.259v0.96H507.773z M507.773,99.448v-0.96h8.259v0.96H507.773z"/>
		<path d="M523.837,92.613h-0.031l-1.809,0.977l-0.272-1.072l2.272-1.217h1.201v10.404h-1.361V92.613z"/>
		<path d="M528.588,103.642c1.136-1.585,2.017-3.666,2.017-6.547c0-2.865-0.864-4.914-2.017-6.499h1.088
			c1.024,1.313,2.097,3.361,2.097,6.515c0,3.137-1.072,5.17-2.097,6.531H528.588z"/>
	</g>
	<g>
		<path d="M203.082,162.174h5.811v1.168h-4.418v3.585h4.082v1.153h-4.082v4.882h-1.393V162.174z"/>
		<path d="M211.979,163.039c0.016,0.48-0.336,0.864-0.896,0.864c-0.496,0-0.849-0.384-0.849-0.864c0-0.497,0.368-0.88,0.88-0.88
			C211.642,162.158,211.979,162.542,211.979,163.039z M210.41,172.962v-7.747h1.409v7.747H210.41z"/>
		<path d="M214.938,169.345c0.032,1.905,1.249,2.689,2.657,2.689c1.008,0,1.617-0.176,2.145-0.4l0.24,1.008
			c-0.496,0.224-1.344,0.48-2.577,0.48c-2.385,0-3.81-1.569-3.81-3.906s1.376-4.178,3.633-4.178c2.529,0,3.201,2.225,3.201,3.649
			c0,0.288-0.032,0.512-0.048,0.656H214.938z M219.068,168.336c0.016-0.896-0.368-2.289-1.953-2.289
			c-1.425,0-2.049,1.313-2.161,2.289H219.068z"/>
		<path d="M222.17,161.598h1.409v11.365h-1.409V161.598z"/>
		<path d="M232.637,161.598v9.364c0,0.688,0.016,1.473,0.064,2.001h-1.265l-0.064-1.345h-0.032
			c-0.432,0.865-1.376,1.521-2.641,1.521c-1.873,0-3.313-1.585-3.313-3.938c-0.016-2.577,1.584-4.162,3.473-4.162
			c1.185,0,1.985,0.561,2.337,1.185h0.032v-4.626H232.637z M231.228,168.369c0-0.176-0.016-0.417-0.064-0.592
			c-0.208-0.896-0.977-1.633-2.033-1.633c-1.457,0-2.321,1.281-2.321,2.993c0,1.569,0.769,2.865,2.289,2.865
			c0.944,0,1.809-0.624,2.065-1.681c0.048-0.192,0.064-0.384,0.064-0.608V168.369z"/>
		<path d="M245.372,169.025c0,2.865-1.985,4.114-3.857,4.114c-2.097,0-3.713-1.537-3.713-3.986c0-2.593,1.697-4.114,3.841-4.114
			C243.868,165.039,245.372,166.656,245.372,169.025z M239.226,169.105c0,1.697,0.977,2.977,2.353,2.977
			c1.345,0,2.353-1.265,2.353-3.009c0-1.313-0.656-2.977-2.321-2.977C239.946,166.096,239.226,167.632,239.226,169.105z"/>
		<path d="M247.289,172.962v-6.675h-1.088v-1.072h1.088v-0.368c0-1.088,0.24-2.081,0.896-2.705c0.528-0.512,1.232-0.72,1.889-0.72
			c0.496,0,0.928,0.112,1.201,0.224l-0.192,1.088c-0.208-0.096-0.496-0.176-0.896-0.176c-1.2,0-1.504,1.057-1.504,2.241v0.416h1.873
			v1.072h-1.873v6.675H247.289z"/>
		<path d="M255.754,165.215l1.52,4.354c0.256,0.705,0.464,1.345,0.624,1.985h0.048c0.176-0.64,0.4-1.28,0.656-1.985l1.504-4.354
			h1.473l-3.041,7.747h-1.345l-2.945-7.747H255.754z"/>
		<path d="M264.474,163.039c0.016,0.48-0.336,0.864-0.896,0.864c-0.496,0-0.849-0.384-0.849-0.864c0-0.497,0.368-0.88,0.88-0.88
			C264.137,162.158,264.474,162.542,264.474,163.039z M262.905,172.962v-7.747h1.409v7.747H262.905z"/>
		<path d="M267.433,169.345c0.032,1.905,1.249,2.689,2.657,2.689c1.008,0,1.617-0.176,2.145-0.4l0.24,1.008
			c-0.496,0.224-1.344,0.48-2.577,0.48c-2.385,0-3.81-1.569-3.81-3.906s1.376-4.178,3.633-4.178c2.529,0,3.201,2.225,3.201,3.649
			c0,0.288-0.032,0.512-0.048,0.656H267.433z M271.563,168.336c0.016-0.896-0.368-2.289-1.953-2.289
			c-1.425,0-2.049,1.313-2.161,2.289H271.563z"/>
		<path d="M275.225,165.215l1.024,3.938c0.224,0.864,0.432,1.665,0.576,2.465h0.048c0.176-0.784,0.432-1.617,0.688-2.449
			l1.265-3.954h1.185l1.201,3.874c0.288,0.928,0.512,1.745,0.688,2.529h0.048c0.128-0.784,0.336-1.601,0.592-2.513l1.104-3.89h1.393
			l-2.497,7.747h-1.28l-1.185-3.697c-0.272-0.865-0.496-1.633-0.688-2.545h-0.032c-0.192,0.929-0.432,1.729-0.704,2.561
			l-1.249,3.682h-1.281l-2.337-7.747H275.225z"/>
	</g>
</g>
<g id="Ebene_1">
	<path d="M55.741,120.737l-10.82,6.22v-2.007c0-3.566-2.891-6.456-6.456-6.456H12.129c-3.566,0-6.456,2.891-6.456,6.456v20.101
		c0,3.566,2.891,6.456,6.456,6.456h26.336c3.566,0,6.456-2.891,6.456-6.456v-2.007l10.82,6.22c2.05,1.178,3.734,0.21,3.734-2.152
		V122.9C59.475,120.527,57.796,119.559,55.741,120.737z"/>
	<path fill="none" stroke="#999999" stroke-miterlimit="10" d="M399.468,135.468c0-13.807,11.193-25,25-25"/>
	<circle fill="#999999" cx="414.468" cy="125.468" r="1.5"/>
	<path fill="#F2F2F2" d="M137.307,110.4l-70.692,25.069l70.692,25.069c2.781-7.841,4.308-16.275,4.308-25.069
		S140.088,118.24,137.307,110.4z"/>
	<path fill="none" stroke="#999999" stroke-miterlimit="10" d="M137.307,160.537c2.781-7.841,4.308-16.275,4.308-25.069
		s-1.527-17.228-4.308-25.069"/>
	<g>
		<g>
			
				<line fill="none" stroke="#000000" stroke-width="0.5" stroke-miterlimit="10" x1="66.615" y1="135.468" x2="69.443" y2="136.471"/>
			
				<line fill="none" stroke="#000000" stroke-width="0.5" stroke-miterlimit="10" stroke-dasharray="5.9315,5.9315" x1="75.033" y1="138.453" x2="418.845" y2="260.375"/>
			
				<line fill="none" stroke="#000000" stroke-width="0.5" stroke-miterlimit="10" x1="421.64" y1="261.366" x2="424.468" y2="262.369"/>
		</g>
	</g>
	<g>
		<g>
			
				<line fill="none" stroke="#000000" stroke-width="0.5" stroke-miterlimit="10" x1="66.615" y1="135.468" x2="69.443" y2="134.466"/>
			
				<line fill="none" stroke="#000000" stroke-width="0.5" stroke-miterlimit="10" stroke-dasharray="5.9315,5.9315" x1="75.033" y1="132.483" x2="418.845" y2="10.561"/>
			<line fill="none" stroke="#000000" stroke-width="0.5" stroke-miterlimit="10" x1="421.64" y1="9.57" x2="424.468" y2="8.568"/>
		</g>
	</g>
	<g>
		<g>
			
				<line fill="none" stroke="#000000" stroke-width="2" stroke-miterlimit="10" x1="418.523" y1="135.468" x2="66.615" y2="135.468"/>
			<g>
				<polygon points="417.355,131.479 424.263,135.468 417.355,139.457 				"/>
			</g>
			<g>
				<ellipse transform="matrix(0.9239 -0.3827 0.3827 0.9239 -46.7708 35.8045)" cx="66.615" cy="135.468" rx="3.008" ry="3.008"/>
			</g>
		</g>
	</g>
	
		<line fill="none" stroke="#000000" stroke-width="2" stroke-linecap="round" stroke-miterlimit="10" x1="424.468" y1="8.568" x2="424.468" y2="262.369"/>
	<g>
		<path d="M134.976,149.955c-0.558,0.484-1.114,0.727-1.672,0.727c-0.797,0-1.276-0.729-1.438-2.188h-0.086
			c-0.714,1.458-1.589,2.188-2.625,2.188c-0.776,0-1.38-0.32-1.813-0.961s-0.648-1.555-0.648-2.742c0-1.224,0.31-2.2,0.93-2.93
			c0.62-0.729,1.37-1.094,2.25-1.094c0.656,0,1.171,0.156,1.543,0.469s0.694,0.836,0.965,1.57h0.117l0.547-1.906h1.281v0.383
			c-0.375,0.578-0.875,1.648-1.5,3.211c0.109,1.052,0.237,1.844,0.383,2.375s0.38,0.797,0.703,0.797c0.214,0,0.466-0.12,0.758-0.359
			L134.976,149.955z M131.741,146.783c-0.141-1.172-0.348-2-0.621-2.484s-0.668-0.727-1.184-0.727c-0.552,0-0.992,0.301-1.32,0.902
			s-0.492,1.402-0.492,2.402c0,1.922,0.477,2.883,1.43,2.883C130.569,149.759,131.299,148.767,131.741,146.783z"/>
	</g>
</g>
</svg>
