<?xml version="1.0" encoding="UTF-8"?><svg xmlns="http://www.w3.org/2000/svg" xmlns:xlink="http://www.w3.org/1999/xlink" fill-opacity="1" color-rendering="auto" color-interpolation="auto" text-rendering="auto" stroke="black" stroke-linecap="square" stroke-miterlimit="10" shape-rendering="auto" stroke-opacity="1" fill="black" stroke-dasharray="none" font-weight="normal" stroke-width="1" viewBox="0 0 1186 844" font-family="'Dialog'" font-style="normal" stroke-linejoin="miter" font-size="12px" stroke-dashoffset="0" image-rendering="auto">
  <!--Generated by ySVG 2.5-->
  <defs id="genericDefs"/>
  <g>
    <defs id="defs1">
      <clipPath clipPathUnits="userSpaceOnUse" id="clipPath1">
        <path d="M0 0 L1186 0 L1186 844 L0 844 L0 0 Z"/>
      </clipPath>
      <clipPath clipPathUnits="userSpaceOnUse" id="clipPath2">
        <path d="M417 346 L1603 346 L1603 1190 L417 1190 L417 346 Z"/>
      </clipPath>
      <clipPath clipPathUnits="userSpaceOnUse" id="clipPath3">
        <path d="M417 913.6503 L417 1190 L1603 1190 L1603 913.6503 Z"/>
      </clipPath>
      <clipPath clipPathUnits="userSpaceOnUse" id="clipPath4">
        <path d="M417 346 L417 913.6503 L1603 913.6503 L1603 346 Z"/>
      </clipPath>
      <clipPath clipPathUnits="userSpaceOnUse" id="clipPath5">
        <path d="M417 1086.9779 L417 1190 L1603 1190 L1603 1086.9779 Z"/>
      </clipPath>
      <clipPath clipPathUnits="userSpaceOnUse" id="clipPath6">
        <path d="M417 346 L417 1086.9779 L1603 1086.9779 L1603 346 Z"/>
      </clipPath>
      <clipPath clipPathUnits="userSpaceOnUse" id="clipPath7">
        <path d="M417 565.1555 L417 1190 L1603 1190 L1603 565.1555 Z"/>
      </clipPath>
      <clipPath clipPathUnits="userSpaceOnUse" id="clipPath8">
        <path d="M417 346 L417 565.1555 L1603 565.1555 L1603 346 Z"/>
      </clipPath>
      <clipPath clipPathUnits="userSpaceOnUse" id="clipPath9">
        <path d="M417 570.6555 L417 1190 L1603 1190 L1603 570.6555 Z"/>
      </clipPath>
      <clipPath clipPathUnits="userSpaceOnUse" id="clipPath10">
        <path d="M417 346 L417 570.6555 L1603 570.6555 L1603 346 Z"/>
      </clipPath>
      <clipPath clipPathUnits="userSpaceOnUse" id="clipPath11">
        <path d="M417 388.1581 L417 1190 L1603 1190 L1603 388.1581 Z"/>
      </clipPath>
      <clipPath clipPathUnits="userSpaceOnUse" id="clipPath12">
        <path d="M417 346 L417 388.1581 L1603 388.1581 L1603 346 Z"/>
      </clipPath>
      <clipPath clipPathUnits="userSpaceOnUse" id="clipPath13">
        <path d="M417 399.1581 L417 1190 L1603 1190 L1603 399.1581 Z"/>
      </clipPath>
      <clipPath clipPathUnits="userSpaceOnUse" id="clipPath14">
        <path d="M417 346 L417 399.1581 L1603 399.1581 L1603 346 Z"/>
      </clipPath>
      <clipPath clipPathUnits="userSpaceOnUse" id="clipPath15">
        <path d="M417 750.9029 L417 1190 L1603 1190 L1603 750.9029 Z"/>
      </clipPath>
      <clipPath clipPathUnits="userSpaceOnUse" id="clipPath16">
        <path d="M417 346 L417 750.9029 L1603 750.9029 L1603 346 Z"/>
      </clipPath>
      <clipPath clipPathUnits="userSpaceOnUse" id="clipPath17">
        <path d="M417 741.5913 L417 1190 L1603 1190 L1603 741.5913 Z"/>
      </clipPath>
      <clipPath clipPathUnits="userSpaceOnUse" id="clipPath18">
        <path d="M417 346 L417 741.5913 L1603 741.5913 L1603 346 Z"/>
      </clipPath>
    </defs>
    <g fill="rgb(255,255,204)" text-rendering="geometricPrecision" shape-rendering="geometricPrecision" transform="matrix(1,0,0,1,-417,-346)" stroke="rgb(255,255,204)">
      <rect x="432.2875" width="203.925" height="113.75" y="517.0793" clip-path="url(#clipPath2)" stroke="none"/>
    </g>
    <g stroke-linecap="butt" transform="matrix(1,0,0,1,-417,-346)" fill="rgb(255,204,0)" text-rendering="geometricPrecision" shape-rendering="geometricPrecision" stroke="rgb(255,204,0)" stroke-miterlimit="1.45">
      <rect fill="none" x="432.2875" width="203.925" height="113.75" y="517.0793" clip-path="url(#clipPath2)"/>
      <text x="438.2875" y="535.1438" clip-path="url(#clipPath2)" fill="rgb(102,102,102)" font-family="sans-serif" stroke="none" xml:space="preserve">objects.graphml</text>
    </g>
    <g fill="white" text-rendering="geometricPrecision" shape-rendering="geometricPrecision" transform="matrix(1,0,0,1,-417,-346)" stroke="white">
      <rect x="764.125" y="886.9491" clip-path="url(#clipPath3)" width="151" rx="4" ry="4" height="60" stroke="none"/>
      <rect x="764.125" y="886.9491" clip-path="url(#clipPath4)" fill="rgb(229,229,229)" width="151" rx="4" ry="4" height="60" stroke="none"/>
    </g>
    <g text-rendering="geometricPrecision" stroke-miterlimit="1.45" shape-rendering="geometricPrecision" transform="matrix(1,0,0,1,-417,-346)" stroke-linecap="butt">
      <rect x="764.125" y="886.9491" clip-path="url(#clipPath2)" fill="none" width="151" rx="4" ry="4" height="60"/>
      <line y2="913.6503" fill="none" x1="764.125" clip-path="url(#clipPath2)" x2="915.125" y1="913.6503"/>
      <text x="811.6025" y="905.0136" clip-path="url(#clipPath2)" font-family="sans-serif" stroke="none" font-weight="bold" xml:space="preserve">E53 Place</text>
      <text x="834.9551" xml:space="preserve" y="935.0136" clip-path="url(#clipPath2)" font-family="sans-serif" stroke="none">id</text>
    </g>
    <g fill="white" text-rendering="geometricPrecision" shape-rendering="geometricPrecision" transform="matrix(1,0,0,1,-417,-346)" stroke="white">
      <rect x="764.125" y="1060.2767" clip-path="url(#clipPath5)" width="151" rx="4" ry="4" height="114" stroke="none"/>
      <rect x="764.125" y="1060.2767" clip-path="url(#clipPath6)" fill="rgb(229,229,229)" width="151" rx="4" ry="4" height="114" stroke="none"/>
    </g>
    <g text-rendering="geometricPrecision" stroke-miterlimit="1.45" shape-rendering="geometricPrecision" transform="matrix(1,0,0,1,-417,-346)" stroke-linecap="butt">
      <rect x="764.125" y="1060.2767" clip-path="url(#clipPath2)" fill="none" width="151" rx="4" ry="4" height="114"/>
      <line y2="1086.9779" fill="none" x1="764.125" clip-path="url(#clipPath2)" x2="915.125" y1="1086.9779"/>
      <text x="782.5928" y="1078.3412" clip-path="url(#clipPath2)" font-family="sans-serif" stroke="none" font-weight="bold" xml:space="preserve">E94 Space Primitive</text>
      <text x="834.9551" xml:space="preserve" y="1105.9388" clip-path="url(#clipPath2)" font-family="sans-serif" stroke="none">id</text>
      <text x="820.2773" xml:space="preserve" y="1120.64" clip-path="url(#clipPath2)" font-family="sans-serif" stroke="none">latitude</text>
      <text x="815.2705" xml:space="preserve" y="1135.3412" clip-path="url(#clipPath2)" font-family="sans-serif" stroke="none">longitude</text>
      <text x="820.2773" xml:space="preserve" y="1150.0424" clip-path="url(#clipPath2)" font-family="sans-serif" stroke="none">altitude</text>
      <text x="818.9443" xml:space="preserve" y="1164.7435" clip-path="url(#clipPath2)" font-family="sans-serif" stroke="none">position</text>
    </g>
    <g fill="white" text-rendering="geometricPrecision" shape-rendering="geometricPrecision" transform="matrix(1,0,0,1,-417,-346)" stroke="white">
      <rect x="458.75" y="886.9491" clip-path="url(#clipPath3)" width="151" rx="4" ry="4" height="60" stroke="none"/>
      <rect x="458.75" y="886.9491" clip-path="url(#clipPath4)" fill="rgb(229,229,229)" width="151" rx="4" ry="4" height="60" stroke="none"/>
    </g>
    <g text-rendering="geometricPrecision" stroke-miterlimit="1.45" shape-rendering="geometricPrecision" transform="matrix(1,0,0,1,-417,-346)" stroke-linecap="butt">
      <rect x="458.75" y="886.9491" clip-path="url(#clipPath2)" fill="none" width="151" rx="4" ry="4" height="60"/>
      <line y2="913.6503" fill="none" x1="458.75" clip-path="url(#clipPath2)" x2="609.75" y1="913.6503"/>
      <text x="506.2275" y="905.0136" clip-path="url(#clipPath2)" font-family="sans-serif" stroke="none" font-weight="bold" xml:space="preserve">E53 Place</text>
      <text x="500.3037" xml:space="preserve" y="935.0136" clip-path="url(#clipPath2)" font-family="sans-serif" stroke="none">id: "dresden"</text>
    </g>
    <g fill="white" text-rendering="geometricPrecision" shape-rendering="geometricPrecision" transform="matrix(1,0,0,1,-417,-346)" stroke="white">
      <rect x="458.75" y="1060.2767" clip-path="url(#clipPath5)" width="151" rx="4" ry="4" height="99" stroke="none"/>
      <rect x="458.75" y="1060.2767" clip-path="url(#clipPath6)" fill="rgb(229,229,229)" width="151" rx="4" ry="4" height="99" stroke="none"/>
    </g>
    <g text-rendering="geometricPrecision" stroke-miterlimit="1.45" shape-rendering="geometricPrecision" transform="matrix(1,0,0,1,-417,-346)" stroke-linecap="butt">
      <rect x="458.75" y="1060.2767" clip-path="url(#clipPath2)" fill="none" width="151" rx="4" ry="4" height="99"/>
      <line y2="1086.9779" fill="none" x1="458.75" clip-path="url(#clipPath2)" x2="609.75" y1="1086.9779"/>
      <text x="477.2178" y="1078.3412" clip-path="url(#clipPath2)" font-family="sans-serif" stroke="none" font-weight="bold" xml:space="preserve">E94 Space Primitive</text>
      <text x="529.5801" xml:space="preserve" y="1105.7894" clip-path="url(#clipPath2)" font-family="sans-serif" stroke="none">id</text>
      <text x="514.9023" xml:space="preserve" y="1120.4906" clip-path="url(#clipPath2)" font-family="sans-serif" stroke="none">latitude</text>
      <text x="509.8955" xml:space="preserve" y="1135.1918" clip-path="url(#clipPath2)" font-family="sans-serif" stroke="none">longitude</text>
      <text x="514.9023" xml:space="preserve" y="1149.8929" clip-path="url(#clipPath2)" font-family="sans-serif" stroke="none">altitude</text>
    </g>
    <g fill="white" text-rendering="geometricPrecision" shape-rendering="geometricPrecision" transform="matrix(1,0,0,1,-417,-346)" stroke="white">
      <rect x="764.125" y="538.4543" clip-path="url(#clipPath7)" width="151" rx="4" ry="4" height="71" stroke="none"/>
      <rect x="764.125" y="538.4543" clip-path="url(#clipPath8)" fill="rgb(229,229,229)" width="151" rx="4" ry="4" height="71" stroke="none"/>
    </g>
    <g text-rendering="geometricPrecision" stroke-miterlimit="1.45" shape-rendering="geometricPrecision" transform="matrix(1,0,0,1,-417,-346)" stroke-linecap="butt">
      <rect x="764.125" y="538.4543" clip-path="url(#clipPath2)" fill="none" width="151" rx="4" ry="4" height="71"/>
      <line y2="565.1555" fill="none" x1="764.125" clip-path="url(#clipPath2)" x2="915.125" y1="565.1555"/>
      <text x="773.9473" y="556.5188" clip-path="url(#clipPath2)" font-family="sans-serif" stroke="none" font-weight="bold" xml:space="preserve">E73 Information Object</text>
      <text x="834.9551" xml:space="preserve" y="584.6682" clip-path="url(#clipPath2)" font-family="sans-serif" stroke="none">id</text>
      <text x="819.6182" xml:space="preserve" y="599.3694" clip-path="url(#clipPath2)" font-family="sans-serif" stroke="none">camera</text>
    </g>
    <g fill="white" text-rendering="geometricPrecision" shape-rendering="geometricPrecision" transform="matrix(1,0,0,1,-417,-346)" stroke="white">
      <rect x="458.75" y="543.9543" clip-path="url(#clipPath9)" width="151" rx="4" ry="4" height="60" stroke="none"/>
      <rect x="458.75" y="543.9543" clip-path="url(#clipPath10)" fill="rgb(229,229,229)" width="151" rx="4" ry="4" height="60" stroke="none"/>
    </g>
    <g text-rendering="geometricPrecision" stroke-miterlimit="1.45" shape-rendering="geometricPrecision" transform="matrix(1,0,0,1,-417,-346)" stroke-linecap="butt">
      <rect x="458.75" y="543.9543" clip-path="url(#clipPath2)" fill="none" width="151" rx="4" ry="4" height="60"/>
      <line y2="570.6555" fill="none" x1="458.75" clip-path="url(#clipPath2)" x2="609.75" y1="570.6555"/>
      <text x="472.2344" y="562.0188" clip-path="url(#clipPath2)" font-family="sans-serif" stroke="none" font-weight="bold" xml:space="preserve">E22 Man-Made Object</text>
      <text x="529.5801" xml:space="preserve" y="592.0188" clip-path="url(#clipPath2)" font-family="sans-serif" stroke="none">id</text>
    </g>
    <g fill="white" text-rendering="geometricPrecision" shape-rendering="geometricPrecision" transform="matrix(1,0,0,1,-417,-346)" stroke="white">
      <rect x="764.125" y="361.4569" clip-path="url(#clipPath11)" width="151" rx="4" ry="4" height="71" stroke="none"/>
      <rect x="764.125" y="361.4569" clip-path="url(#clipPath12)" fill="rgb(229,229,229)" width="151" rx="4" ry="4" height="71" stroke="none"/>
    </g>
    <g text-rendering="geometricPrecision" stroke-miterlimit="1.45" shape-rendering="geometricPrecision" transform="matrix(1,0,0,1,-417,-346)" stroke-linecap="butt">
      <rect x="764.125" y="361.4569" clip-path="url(#clipPath2)" fill="none" width="151" rx="4" ry="4" height="71"/>
      <line y2="388.1581" fill="none" x1="764.125" clip-path="url(#clipPath2)" x2="915.125" y1="388.1581"/>
      <text x="814.9482" y="379.5214" clip-path="url(#clipPath2)" font-family="sans-serif" stroke="none" font-weight="bold" xml:space="preserve">E35 Title</text>
      <text x="834.9551" xml:space="preserve" y="407.6708" clip-path="url(#clipPath2)" font-family="sans-serif" stroke="none">id</text>
      <text x="825.2812" xml:space="preserve" y="422.372" clip-path="url(#clipPath2)" font-family="sans-serif" stroke="none">value</text>
    </g>
    <g fill="white" text-rendering="geometricPrecision" shape-rendering="geometricPrecision" transform="matrix(1,0,0,1,-417,-346)" stroke="white">
      <rect x="458.75" y="372.4569" clip-path="url(#clipPath13)" width="151" rx="4" ry="4" height="60" stroke="none"/>
      <rect x="458.75" y="372.4569" clip-path="url(#clipPath14)" fill="rgb(229,229,229)" width="151" rx="4" ry="4" height="60" stroke="none"/>
    </g>
    <g text-rendering="geometricPrecision" stroke-miterlimit="1.45" shape-rendering="geometricPrecision" transform="matrix(1,0,0,1,-417,-346)" stroke-linecap="butt">
      <rect x="458.75" y="372.4569" clip-path="url(#clipPath2)" fill="none" width="151" rx="4" ry="4" height="60"/>
      <line y2="399.1581" fill="none" x1="458.75" clip-path="url(#clipPath2)" x2="609.75" y1="399.1581"/>
      <text x="507.9033" y="390.5214" clip-path="url(#clipPath2)" font-family="sans-serif" stroke="none" font-weight="bold" xml:space="preserve">E55 Type</text>
      <text x="513.9795" xml:space="preserve" y="420.5214" clip-path="url(#clipPath2)" font-family="sans-serif" stroke="none">id: "poi"</text>
    </g>
    <g fill="white" text-rendering="geometricPrecision" shape-rendering="geometricPrecision" transform="matrix(1,0,0,1,-417,-346)" stroke="white">
      <rect x="1090.75" y="361.4569" clip-path="url(#clipPath11)" width="151" rx="4" ry="4" height="71" stroke="none"/>
      <rect x="1090.75" y="361.4569" clip-path="url(#clipPath12)" fill="rgb(229,229,229)" width="151" rx="4" ry="4" height="71" stroke="none"/>
    </g>
    <g text-rendering="geometricPrecision" stroke-miterlimit="1.45" shape-rendering="geometricPrecision" transform="matrix(1,0,0,1,-417,-346)" stroke-linecap="butt">
      <rect x="1090.75" y="361.4569" clip-path="url(#clipPath2)" fill="none" width="151" rx="4" ry="4" height="71"/>
      <line y2="388.1581" fill="none" x1="1090.75" clip-path="url(#clipPath2)" x2="1241.75" y1="388.1581"/>
      <text x="1136.5752" y="379.5214" clip-path="url(#clipPath2)" font-family="sans-serif" stroke="none" font-weight="bold" xml:space="preserve">E62 String</text>
      <text x="1161.5801" xml:space="preserve" y="407.6708" clip-path="url(#clipPath2)" font-family="sans-serif" stroke="none">id</text>
      <text x="1151.9062" xml:space="preserve" y="422.372" clip-path="url(#clipPath2)" font-family="sans-serif" stroke="none">value</text>
    </g>
    <g fill="white" text-rendering="geometricPrecision" shape-rendering="geometricPrecision" transform="matrix(1,0,0,1,-417,-346)" stroke="white">
      <rect x="1436.75" y="538.4543" clip-path="url(#clipPath7)" width="151" rx="4" ry="4" height="71" stroke="none"/>
      <rect x="1436.75" y="538.4543" clip-path="url(#clipPath8)" fill="rgb(229,229,229)" width="151" rx="4" ry="4" height="71" stroke="none"/>
    </g>
    <g text-rendering="geometricPrecision" stroke-miterlimit="1.45" shape-rendering="geometricPrecision" transform="matrix(1,0,0,1,-417,-346)" stroke-linecap="butt">
      <rect x="1436.75" y="538.4543" clip-path="url(#clipPath2)" fill="none" width="151" rx="4" ry="4" height="71"/>
      <line y2="565.1555" fill="none" x1="1436.75" clip-path="url(#clipPath2)" x2="1587.75" y1="565.1555"/>
      <text x="1498.9199" y="556.5188" clip-path="url(#clipPath2)" font-family="sans-serif" stroke="none" font-weight="bold" xml:space="preserve">Tour</text>
      <text x="1507.5801" xml:space="preserve" y="584.6682" clip-path="url(#clipPath2)" font-family="sans-serif" stroke="none">id</text>
      <text x="1502.9131" xml:space="preserve" y="599.3694" clip-path="url(#clipPath2)" font-family="sans-serif" stroke="none">title</text>
    </g>
    <g fill="white" text-rendering="geometricPrecision" shape-rendering="geometricPrecision" transform="matrix(1,0,0,1,-417,-346)" stroke="white">
      <rect x="764.125" y="724.2017" clip-path="url(#clipPath15)" width="151" rx="4" ry="4" height="60" stroke="none"/>
      <rect x="764.125" y="724.2017" clip-path="url(#clipPath16)" fill="rgb(229,229,229)" width="151" rx="4" ry="4" height="60" stroke="none"/>
    </g>
    <g text-rendering="geometricPrecision" stroke-miterlimit="1.45" shape-rendering="geometricPrecision" transform="matrix(1,0,0,1,-417,-346)" stroke-linecap="butt">
      <rect x="764.125" y="724.2017" clip-path="url(#clipPath2)" fill="none" width="151" rx="4" ry="4" height="60"/>
      <line y2="750.9029" fill="none" x1="764.125" clip-path="url(#clipPath2)" x2="915.125" y1="750.9029"/>
      <text x="773.9297" y="742.2662" clip-path="url(#clipPath2)" font-family="sans-serif" stroke="none" font-weight="bold" xml:space="preserve">E92 Spacetime Volume</text>
      <text x="834.9551" xml:space="preserve" y="772.2662" clip-path="url(#clipPath2)" font-family="sans-serif" stroke="none">id</text>
    </g>
    <g fill="white" text-rendering="geometricPrecision" shape-rendering="geometricPrecision" transform="matrix(1,0,0,1,-417,-346)" stroke="white">
      <rect x="1090.75" y="724.2017" clip-path="url(#clipPath15)" width="151" rx="4" ry="4" height="60" stroke="none"/>
      <rect x="1090.75" y="724.2017" clip-path="url(#clipPath16)" fill="rgb(229,229,229)" width="151" rx="4" ry="4" height="60" stroke="none"/>
    </g>
    <g text-rendering="geometricPrecision" stroke-miterlimit="1.45" shape-rendering="geometricPrecision" transform="matrix(1,0,0,1,-417,-346)" stroke-linecap="butt">
      <rect x="1090.75" y="724.2017" clip-path="url(#clipPath2)" fill="none" width="151" rx="4" ry="4" height="60"/>
      <line y2="750.9029" fill="none" x1="1090.75" clip-path="url(#clipPath2)" x2="1241.75" y1="750.9029"/>
      <text x="1123.2363" y="742.2662" clip-path="url(#clipPath2)" font-family="sans-serif" stroke="none" font-weight="bold" xml:space="preserve">E52 Time-Span</text>
      <text x="1161.5801" xml:space="preserve" y="772.2662" clip-path="url(#clipPath2)" font-family="sans-serif" stroke="none">id</text>
    </g>
    <g fill="white" text-rendering="geometricPrecision" shape-rendering="geometricPrecision" transform="matrix(1,0,0,1,-417,-346)" stroke="white">
      <rect x="1436.75" y="714.8901" clip-path="url(#clipPath17)" width="151" rx="4" ry="4" height="78.6232" stroke="none"/>
      <rect x="1436.75" y="714.8901" clip-path="url(#clipPath18)" fill="rgb(229,229,229)" width="151" rx="4" ry="4" height="78.6232" stroke="none"/>
    </g>
    <g text-rendering="geometricPrecision" stroke-miterlimit="1.45" shape-rendering="geometricPrecision" transform="matrix(1,0,0,1,-417,-346)" stroke-linecap="butt">
      <rect x="1436.75" y="714.8901" clip-path="url(#clipPath2)" fill="none" width="151" rx="4" ry="4" height="78.6232"/>
      <line y2="741.5913" fill="none" x1="1436.75" clip-path="url(#clipPath2)" x2="1587.75" y1="741.5913"/>
      <text x="1458.8916" y="732.9546" clip-path="url(#clipPath2)" font-family="sans-serif" stroke="none" font-weight="bold" xml:space="preserve">E61 Time Primitive</text>
      <text x="1507.5801" xml:space="preserve" y="759.6558" clip-path="url(#clipPath2)" font-family="sans-serif" stroke="none">id</text>
      <text x="1500.25" xml:space="preserve" y="774.3569" clip-path="url(#clipPath2)" font-family="sans-serif" stroke="none">from</text>
      <text x="1507.2461" xml:space="preserve" y="789.0581" clip-path="url(#clipPath2)" font-family="sans-serif" stroke="none">to</text>
    </g>
    <g text-rendering="geometricPrecision" stroke-miterlimit="1.45" shape-rendering="geometricPrecision" transform="matrix(1,0,0,1,-417,-346)" stroke-linecap="butt">
      <path fill="none" d="M839.625 946.9298 L839.625 1052.2588" clip-path="url(#clipPath2)"/>
      <path d="M839.625 1060.2588 L844.625 1048.2588 L839.625 1051.2588 L834.625 1048.2588 Z" clip-path="url(#clipPath2)" stroke="none"/>
      <text x="844.2461" xml:space="preserve" y="1008.3268" clip-path="url(#clipPath2)" font-family="sans-serif" stroke="none">P168 place is defined by</text>
      <path fill="none" d="M764.1386 916.9492 L617.7664 916.9492" clip-path="url(#clipPath2)"/>
      <path d="M609.7664 916.9492 L621.7664 921.9492 L618.7664 916.9492 L621.7664 911.9492 Z" clip-path="url(#clipPath2)" stroke="none"/>
      <rect x="644.918" y="907.5985" clip-path="url(#clipPath2)" fill="white" width="84.0391" height="18.7012" stroke="none"/>
      <text x="646.918" xml:space="preserve" y="921.663" clip-path="url(#clipPath2)" font-family="sans-serif" stroke="none">P89 falls within</text>
      <path fill="none" d="M534.25 946.9372 L534.25 1052.2808" clip-path="url(#clipPath2)"/>
      <path d="M534.25 1060.2808 L539.25 1048.2808 L534.25 1051.2808 L529.25 1048.2808 Z" clip-path="url(#clipPath2)" stroke="none"/>
      <text x="536.7634" xml:space="preserve" y="1008.3268" clip-path="url(#clipPath2)" font-family="sans-serif" stroke="none">P168 place is defined by</text>
      <path fill="none" stroke-dasharray="6,2" d="M764.1386 573.9543 L617.7664 573.9543" clip-path="url(#clipPath2)"/>
      <path stroke-dasharray="6,2" d="M609.7664 573.9543 L621.7664 578.9543 L618.7664 573.9543 L621.7664 568.9543 Z" clip-path="url(#clipPath2)" stroke="none"/>
      <rect x="650.5869" y="564.6037" clip-path="url(#clipPath2)" fill="white" width="72.7012" stroke-dasharray="6,2" height="18.7012" stroke="none"/>
      <text x="652.5869" xml:space="preserve" y="578.6682" clip-path="url(#clipPath2)" font-family="sans-serif" stroke="none">P67 refers to</text>
      <path fill="none" d="M839.625 538.4771 L839.625 440.4406" clip-path="url(#clipPath2)"/>
      <path d="M839.625 432.4406 L834.625 444.4406 L839.625 441.4406 L844.625 444.4406 Z" clip-path="url(#clipPath2)" stroke="none"/>
      <text x="843.0674" xml:space="preserve" y="476.1659" clip-path="url(#clipPath2)" font-family="sans-serif" stroke="none">P102 has title</text>
      <path fill="none" d="M798.7218 538.4211 L798.7218 502.8 L798.0968 498.425 L796.2218 495.3 L793.0968 493.425 L788.7218 492.8 L544.25 492.8 L539.875 492.175 L536.75 490.3 L534.875 487.175 L534.25 482.8 L534.25 440.4978" clip-path="url(#clipPath2)"/>
      <path d="M534.25 432.4978 L529.25 444.4978 L534.25 441.4978 L539.25 444.4978 Z" clip-path="url(#clipPath2)" stroke="none"/>
      <rect x="632.7984" y="483.4494" clip-path="url(#clipPath2)" fill="white" width="67.375" height="18.7012" stroke="none"/>
      <text x="634.7984" xml:space="preserve" y="497.5139" clip-path="url(#clipPath2)" font-family="sans-serif" stroke="none">P2 has type</text>
      <path fill="none" d="M881.275 538.4673 L881.275 521.8 L881.9 517.425 L883.775 514.3 L886.9 512.425 L891.275 511.8 L1156.25 511.8 L1160.625 511.175 L1163.75 509.3 L1165.625 506.175 L1166.25 501.8 L1166.25 440.4809" clip-path="url(#clipPath2)"/>
      <path d="M1166.25 432.4809 L1161.25 444.4809 L1166.25 441.4809 L1171.25 444.4809 Z" clip-path="url(#clipPath2)" stroke="none"/>
      <rect x="989.7381" y="502.4494" clip-path="url(#clipPath2)" fill="white" width="68.0488" height="18.7012" stroke="none"/>
      <text x="991.7381" xml:space="preserve" y="516.5139" clip-path="url(#clipPath2)" font-family="sans-serif" stroke="none">P3 has note</text>
      <path fill="none" stroke-dasharray="6,2" d="M1436.7521 573.9543 L923.1041 573.9543" clip-path="url(#clipPath2)"/>
      <path stroke-dasharray="6,2" d="M915.1041 573.9543 L927.1041 578.9543 L924.1041 573.9543 L927.1041 568.9543 Z" clip-path="url(#clipPath2)" stroke="none"/>
      <rect x="1275" y="557.2532" clip-path="url(#clipPath2)" fill="white" width="48.6953" stroke-dasharray="6,2" height="33.4023" stroke="none"/>
      <text x="1277" xml:space="preserve" y="571.3176" clip-path="url(#clipPath2)" font-family="sans-serif" stroke="none">contains</text>
      <text x="1282.0068" xml:space="preserve" y="586.0188" clip-path="url(#clipPath2)" font-family="sans-serif" stroke="none">[order]</text>
      <path fill="none" d="M839.625 609.4669 L839.625 716.2018" clip-path="url(#clipPath2)"/>
      <path d="M839.625 724.2018 L844.625 712.2018 L839.625 715.2018 L834.625 712.2018 Z" clip-path="url(#clipPath2)" stroke="none"/>
      <text x="843.832" xml:space="preserve" y="671.5419" clip-path="url(#clipPath2)" font-family="sans-serif" stroke="none">P67 refers to</text>
      <path fill="none" d="M839.625 784.2003 L839.625 878.9705" clip-path="url(#clipPath2)"/>
      <path d="M839.625 886.9705 L844.625 874.9705 L839.625 877.9705 L834.625 874.9705 Z" clip-path="url(#clipPath2)" stroke="none"/>
      <text x="842.1596" xml:space="preserve" y="832.9387" clip-path="url(#clipPath2)" font-family="sans-serif" stroke="none">P161 has spatial</text>
      <text x="860.5082" xml:space="preserve" y="847.6399" clip-path="url(#clipPath2)" font-family="sans-serif" stroke="none">projection</text>
      <path fill="none" stroke-dasharray="6,2" d="M915.1012 754.2017 L1082.7399 754.2017" clip-path="url(#clipPath2)"/>
      <path stroke-dasharray="6,2" d="M1090.7399 754.2017 L1078.7399 749.2017 L1081.7399 754.2017 L1078.7399 759.2017 Z" clip-path="url(#clipPath2)" stroke="none"/>
      <rect x="950.5732" y="737.5006" clip-path="url(#clipPath2)" fill="white" width="104.7285" stroke-dasharray="6,2" height="33.4023" stroke="none"/>
      <text x="952.5732" xml:space="preserve" y="751.565" clip-path="url(#clipPath2)" font-family="sans-serif" stroke="none">P160 has temporal</text>
      <text x="976.9219" xml:space="preserve" y="766.2662" clip-path="url(#clipPath2)" font-family="sans-serif" stroke="none">projection</text>
      <path fill="none" stroke-dasharray="6,2" d="M1241.7263 754.2017 L1428.7266 754.2017" clip-path="url(#clipPath2)"/>
      <path stroke-dasharray="6,2" d="M1436.7266 754.2017 L1424.7266 749.2017 L1427.7266 754.2017 L1424.7266 759.2017 Z" clip-path="url(#clipPath2)" stroke="none"/>
      <rect x="1303.5645" y="737.5006" clip-path="url(#clipPath2)" fill="white" width="71.3711" stroke-dasharray="6,2" height="33.4023" stroke="none"/>
      <text x="1305.5645" xml:space="preserve" y="751.565" clip-path="url(#clipPath2)" font-family="sans-serif" stroke="none">P82 at some</text>
      <text x="1310.9082" xml:space="preserve" y="766.2662" clip-path="url(#clipPath2)" font-family="sans-serif" stroke="none">time within</text>
    </g>
  </g>
</svg>
