<?xml version="1.0" encoding="utf-8"?>
<!-- Generator: Adobe Illustrator 24.1.0, SVG Export Plug-In . SVG Version: 6.00 Build 0)  -->
<svg version="1.1" id="Ebene_1" xmlns="http://www.w3.org/2000/svg" xmlns:xlink="http://www.w3.org/1999/xlink" x="0px" y="0px"
	 viewBox="0 0 850 445" style="enable-background:new 0 0 850 445;" xml:space="preserve">
<style type="text/css">
	.st0{fill:none;stroke:#999999;stroke-width:0.5;stroke-miterlimit:10;}
	.st1{fill:url(#SVGID_1_);}
	.st2{fill:url(#SVGID_2_);}
	.st3{fill:url(#SVGID_3_);}
	.st4{fill:none;stroke:#999999;stroke-miterlimit:10;}
	.st5{fill:#999999;}
	.st6{display:none;}
	.st7{display:inline;fill:none;stroke:#999999;stroke-width:0.5;stroke-miterlimit:10;}
	.st8{display:inline;}
	.st9{display:none;fill:#B3B3B3;stroke:#000000;stroke-miterlimit:10;}
	.st10{enable-background:new    ;}
	.st11{fill:#8A8A8A;}
	.st12{clip-path:url(#SVGID_5_);enable-background:new    ;}
	.st13{fill:#737373;}
	.st14{fill:#747474;}
	.st15{fill:#757575;}
	.st16{fill:#767676;}
	.st17{fill:#777777;}
	.st18{fill:#787878;}
	.st19{fill:#797979;}
	.st20{fill:#7A7A7A;}
	.st21{fill:#7B7B7B;}
	.st22{fill:#7C7C7C;}
	.st23{fill:#7D7D7D;}
	.st24{fill:#7E7E7E;}
	.st25{fill:#7F7F7F;}
	.st26{fill:#808080;}
	.st27{fill:#818181;}
	.st28{fill:#828282;}
	.st29{fill:#838383;}
	.st30{fill:#848484;}
	.st31{fill:#858585;}
	.st32{fill:#868686;}
	.st33{fill:#878787;}
	.st34{fill:#888888;}
	.st35{fill:#898989;}
	.st36{fill:#8B8B8B;}
	.st37{fill:#8C8C8C;}
	.st38{fill:#8D8D8D;}
	.st39{fill:#8E8E8E;}
	.st40{fill:#8F8F8F;}
	.st41{fill:#909090;}
	.st42{fill:#919191;}
	.st43{fill:#929292;}
	.st44{fill:#939393;}
	.st45{fill:#949494;}
	.st46{clip-path:url(#SVGID_7_);enable-background:new    ;}
	.st47{clip-path:url(#SVGID_9_);enable-background:new    ;}
	.st48{clip-path:url(#SVGID_11_);enable-background:new    ;}
	.st49{clip-path:url(#SVGID_13_);enable-background:new    ;}
	.st50{fill:#A9A9A9;}
	.st51{fill:#B0B0B0;}
	.st52{fill:#A8A8A8;}
	.st53{fill:#A7A7A7;}
	.st54{fill:#B2B2B2;}
	.st55{clip-path:url(#SVGID_15_);enable-background:new    ;}
	.st56{fill:#959595;}
	.st57{fill:#969696;}
	.st58{fill:#979797;}
	.st59{fill:#989898;}
	.st60{fill:#9A9A9A;}
	.st61{fill:#9B9B9B;}
	.st62{fill:#9C9C9C;}
	.st63{fill:#9D9D9D;}
	.st64{fill:#9E9E9E;}
	.st65{fill:#9F9F9F;}
	.st66{fill:#A0A0A0;}
	.st67{fill:#A1A1A1;}
	.st68{fill:#A2A2A2;}
	.st69{fill:#C9C9C9;}
	.st70{fill:none;stroke:#FF00FF;stroke-miterlimit:10;stroke-dasharray:4;}
	.st71{fill:#FF00FF;}
	.st72{fill:none;stroke:#000000;stroke-width:0.5;stroke-miterlimit:10;}
	.st73{fill:none;stroke:#000000;stroke-width:0.5;stroke-miterlimit:10;stroke-dasharray:5.9879,5.9879;}
	.st74{fill:none;stroke:#000000;stroke-width:0.5;stroke-miterlimit:10;stroke-dasharray:5.9908,5.9908;}
	.st75{fill:none;stroke:#000000;stroke-width:0.5;stroke-miterlimit:10;stroke-dasharray:5.9567,5.9567;}
	.st76{fill:none;stroke:#000000;stroke-width:0.5;stroke-miterlimit:10;stroke-dasharray:5.9366,5.9366;}
	.st77{fill:none;stroke:#0000FF;stroke-miterlimit:10;}
	.st78{fill:#0000FF;}
	.st79{fill:none;stroke:#00FF00;stroke-miterlimit:10;}
	.st80{fill:#00FF00;}
	.st81{fill:none;stroke:#FF0000;stroke-miterlimit:10;}
	.st82{fill:#FF0000;}
	.st83{fill:none;stroke:#000000;stroke-miterlimit:10;}
	.st84{fill:none;stroke:#000000;stroke-width:2;stroke-miterlimit:10;}
</style>
<g id="beschriftungen">
	<g>
		<path d="M162.6,134.8c-0.5,0.3-1.5,0.5-2.8,0.5c-3,0-5.3-1.9-5.3-5.5c0-3.4,2.3-5.7,5.6-5.7c1.3,0,2.2,0.3,2.6,0.5l-0.3,1.1
			c-0.5-0.3-1.3-0.4-2.2-0.4c-2.5,0-4.2,1.6-4.2,4.4c0,2.6,1.5,4.3,4.1,4.3c0.8,0,1.7-0.2,2.3-0.4L162.6,134.8z"/>
		<path d="M168.4,135.1l-0.1-1h0c-0.4,0.6-1.3,1.2-2.4,1.2c-1.6,0-2.4-1.1-2.4-2.2c0-1.9,1.7-2.9,4.7-2.9V130c0-0.6-0.2-1.8-1.8-1.8
			c-0.7,0-1.5,0.2-2,0.6l-0.3-0.9c0.6-0.4,1.6-0.7,2.5-0.7c2.4,0,2.9,1.6,2.9,3.2v2.9c0,0.7,0,1.3,0.1,1.9L168.4,135.1L168.4,135.1z
			 M168.2,131.2c-1.5,0-3.3,0.2-3.3,1.7c0,0.9,0.6,1.3,1.3,1.3c1,0,1.6-0.6,1.9-1.3c0-0.1,0.1-0.3,0.1-0.4L168.2,131.2L168.2,131.2z
			"/>
		<path d="M171.9,129.5c0-0.8,0-1.5-0.1-2.1h1.2l0.1,1.2h0c0.4-0.7,1.2-1.4,2.4-1.4c1.1,0,1.9,0.6,2.2,1.6h0c0.2-0.4,0.5-0.8,0.9-1
			c0.5-0.4,1-0.5,1.7-0.5c1,0,2.5,0.7,2.5,3.4v4.6h-1.4v-4.4c0-1.5-0.5-2.4-1.7-2.4c-0.8,0-1.4,0.6-1.7,1.3
			c-0.1,0.2-0.1,0.4-0.1,0.7v4.8h-1.4v-4.6c0-1.2-0.5-2.1-1.6-2.1c-0.9,0-1.5,0.7-1.7,1.4c-0.1,0.2-0.1,0.4-0.1,0.7v4.7h-1.4
			L171.9,129.5L171.9,129.5z"/>
		<path d="M186,131.5c0,1.9,1.2,2.7,2.7,2.7c1,0,1.6-0.2,2.1-0.4l0.2,1c-0.5,0.2-1.3,0.5-2.6,0.5c-2.4,0-3.8-1.6-3.8-3.9
			s1.4-4.2,3.6-4.2c2.5,0,3.2,2.2,3.2,3.6c0,0.3,0,0.5,0,0.7L186,131.5L186,131.5z M190.1,130.5c0-0.9-0.4-2.3-2-2.3
			c-1.4,0-2,1.3-2.2,2.3H190.1z"/>
		<path d="M193.2,129.8c0-0.9,0-1.7-0.1-2.4h1.2l0,1.5h0.1c0.4-1,1.2-1.7,2.1-1.7c0.2,0,0.3,0,0.4,0v1.3c-0.1,0-0.3,0-0.5,0
			c-1,0-1.7,0.8-1.9,1.8c0,0.2-0.1,0.4-0.1,0.7v4.1h-1.4L193.2,129.8L193.2,129.8z"/>
		<path d="M202.7,135.1l-0.1-1h0c-0.4,0.6-1.3,1.2-2.4,1.2c-1.6,0-2.4-1.1-2.4-2.2c0-1.9,1.7-2.9,4.7-2.9V130c0-0.6-0.2-1.8-1.8-1.8
			c-0.7,0-1.5,0.2-2,0.6l-0.3-0.9c0.6-0.4,1.6-0.7,2.5-0.7c2.4,0,2.9,1.6,2.9,3.2v2.9c0,0.7,0,1.3,0.1,1.9L202.7,135.1L202.7,135.1z
			 M202.5,131.2c-1.5,0-3.3,0.2-3.3,1.7c0,0.9,0.6,1.3,1.3,1.3c1,0,1.6-0.6,1.9-1.3c0-0.1,0.1-0.3,0.1-0.4L202.5,131.2L202.5,131.2z
			"/>
		<path d="M215,134.8c-0.4,0.2-1.2,0.4-2.2,0.4c-2.3,0-3.9-1.6-3.9-4c0-2.4,1.6-4.1,4.2-4.1c0.8,0,1.6,0.2,2,0.4l-0.3,1.1
			c-0.3-0.2-0.9-0.4-1.6-0.4c-1.8,0-2.7,1.3-2.7,2.9c0,1.8,1.2,2.9,2.7,2.9c0.8,0,1.3-0.2,1.7-0.4L215,134.8z"/>
		<path d="M223.6,131.2c0,2.9-2,4.1-3.9,4.1c-2.1,0-3.7-1.5-3.7-4c0-2.6,1.7-4.1,3.8-4.1C222.1,127.2,223.6,128.8,223.6,131.2z
			 M217.4,131.3c0,1.7,1,3,2.4,3c1.3,0,2.4-1.3,2.4-3c0-1.3-0.7-3-2.3-3C218.1,128.3,217.4,129.8,217.4,131.3z"/>
		<path d="M225.3,129.5c0-0.8,0-1.5-0.1-2.1h1.2l0.1,1.3h0c0.4-0.7,1.3-1.5,2.6-1.5c1.1,0,2.7,0.6,2.7,3.3v4.6h-1.4v-4.5
			c0-1.2-0.5-2.3-1.8-2.3c-0.9,0-1.6,0.7-1.9,1.4c-0.1,0.2-0.1,0.4-0.1,0.7v4.7h-1.4V129.5z"/>
		<path d="M234,133.7c0.4,0.3,1.2,0.6,1.9,0.6c1,0,1.5-0.5,1.5-1.2c0-0.7-0.4-1-1.4-1.4c-1.4-0.5-2-1.3-2-2.2c0-1.2,1-2.3,2.7-2.3
			c0.8,0,1.5,0.2,1.9,0.5l-0.4,1c-0.3-0.2-0.9-0.4-1.6-0.4c-0.8,0-1.3,0.5-1.3,1.1c0,0.6,0.5,0.9,1.5,1.3c1.3,0.5,2,1.2,2,2.3
			c0,1.4-1.1,2.3-2.9,2.3c-0.8,0-1.6-0.2-2.2-0.5L234,133.7z"/>
		<path d="M242.2,125.2v2.2h2v1.1h-2v4.2c0,1,0.3,1.5,1.1,1.5c0.4,0,0.6,0,0.8-0.1l0.1,1.1c-0.3,0.1-0.7,0.2-1.2,0.2
			c-0.7,0-1.2-0.2-1.5-0.6c-0.4-0.4-0.5-1.1-0.5-2v-4.2h-1.2v-1.1h1.2v-1.9L242.2,125.2z"/>
		<path d="M250.1,135.1l-0.1-1h0c-0.4,0.6-1.3,1.2-2.4,1.2c-1.6,0-2.4-1.1-2.4-2.2c0-1.9,1.7-2.9,4.7-2.9V130c0-0.6-0.2-1.8-1.8-1.8
			c-0.7,0-1.5,0.2-2,0.6l-0.3-0.9c0.6-0.4,1.6-0.7,2.5-0.7c2.4,0,2.9,1.6,2.9,3.2v2.9c0,0.7,0,1.3,0.1,1.9L250.1,135.1L250.1,135.1z
			 M249.9,131.2c-1.5,0-3.3,0.2-3.3,1.7c0,0.9,0.6,1.3,1.3,1.3c1,0,1.6-0.6,1.9-1.3c0-0.1,0.1-0.3,0.1-0.4L249.9,131.2L249.9,131.2z
			"/>
		<path d="M253.6,129.5c0-0.8,0-1.5-0.1-2.1h1.2l0.1,1.3h0c0.4-0.7,1.3-1.5,2.6-1.5c1.1,0,2.7,0.6,2.7,3.3v4.6h-1.4v-4.5
			c0-1.2-0.5-2.3-1.8-2.3c-0.9,0-1.6,0.7-1.9,1.4c-0.1,0.2-0.1,0.4-0.1,0.7v4.7h-1.4L253.6,129.5L253.6,129.5z"/>
		<path d="M264.1,125.2v2.2h2v1.1h-2v4.2c0,1,0.3,1.5,1.1,1.5c0.4,0,0.6,0,0.8-0.1l0.1,1.1c-0.3,0.1-0.7,0.2-1.2,0.2
			c-0.7,0-1.2-0.2-1.5-0.6c-0.4-0.4-0.5-1.1-0.5-2v-4.2h-1.2v-1.1h1.2v-1.9L264.1,125.2z"/>
		<path d="M208.9,154c-0.4,0.2-1.2,0.5-2.2,0.5c-2,0-3-1.3-3-3c0-2.6,2-5.1,4.7-5.1c0.7,0,1.4,0.2,1.6,0.3l-0.4,1.1
			c-0.3-0.1-0.7-0.3-1.3-0.3c-2,0-3.3,2-3.3,3.8c0,1.2,0.7,2.1,1.9,2.1c0.8,0,1.4-0.2,1.8-0.4L208.9,154z"/>
		<path d="M210.4,154.3l2.1-11.4h1.3l-1.4,7.1h0c0.2-0.3,0.5-0.6,0.7-0.8l2.7-2.7h1.6l-3.4,3.2l2.3,4.6h-1.5l-1.9-3.8l-1,0.9
			l-0.6,2.9L210.4,154.3L210.4,154.3z"/>
	</g>
	<g>
		<path d="M19.4,139.6c0,3.7-2.3,5.7-5,5.7c-2.8,0-4.9-2.2-4.9-5.5c0-3.4,2.1-5.7,5-5.7C17.5,134.2,19.4,136.4,19.4,139.6z
			 M11,139.8c0,2.3,1.2,4.4,3.4,4.4c2.2,0,3.5-2,3.5-4.5c0-2.1-1.1-4.4-3.4-4.4C12.1,135.3,11,137.4,11,139.8z"/>
		<path d="M21.1,139.8c0-0.9,0-1.7-0.1-2.4h1.2l0,1.5h0.1c0.4-1,1.2-1.7,2.1-1.7c0.2,0,0.3,0,0.4,0v1.3c-0.1,0-0.3,0-0.5,0
			c-1,0-1.7,0.8-1.9,1.8c0,0.2-0.1,0.4-0.1,0.7v4.1h-1.4L21.1,139.8L21.1,139.8z"/>
		<path d="M28,135.2c0,0.5-0.3,0.9-0.9,0.9c-0.5,0-0.8-0.4-0.8-0.9c0-0.5,0.4-0.9,0.9-0.9C27.6,134.3,28,134.7,28,135.2z
			 M26.4,145.1v-7.7h1.4v7.7H26.4z"/>
		<path d="M36.8,137.4c0,0.6-0.1,1.2-0.1,2.1v4.5c0,1.8-0.4,2.9-1.1,3.5c-0.8,0.7-1.8,0.9-2.8,0.9c-0.9,0-2-0.2-2.6-0.6l0.4-1.1
			c0.5,0.3,1.3,0.6,2.3,0.6c1.4,0,2.5-0.8,2.5-2.7v-0.9h0c-0.4,0.7-1.3,1.3-2.5,1.3c-1.9,0-3.3-1.6-3.3-3.8c0-2.6,1.7-4.1,3.5-4.1
			c1.3,0,2.1,0.7,2.4,1.3h0l0.1-1.2L36.8,137.4L36.8,137.4z M35.4,140.4c0-0.2,0-0.4-0.1-0.6c-0.3-0.8-0.9-1.5-2-1.5
			c-1.3,0-2.3,1.1-2.3,2.9c0,1.5,0.8,2.8,2.3,2.8c0.9,0,1.6-0.5,2-1.4c0.1-0.2,0.1-0.5,0.1-0.8C35.4,141.8,35.4,140.4,35.4,140.4z"
			/>
		<path d="M40.6,135.2c0,0.5-0.3,0.9-0.9,0.9c-0.5,0-0.8-0.4-0.8-0.9c0-0.5,0.4-0.9,0.9-0.9C40.2,134.3,40.6,134.7,40.6,135.2z
			 M39,145.1v-7.7h1.4v7.7H39z"/>
		<path d="M42.8,139.5c0-0.8,0-1.5-0.1-2.1h1.2l0.1,1.3h0c0.4-0.7,1.3-1.5,2.6-1.5c1.1,0,2.7,0.6,2.7,3.3v4.6h-1.4v-4.5
			c0-1.2-0.5-2.3-1.8-2.3c-0.9,0-1.6,0.7-1.9,1.4c-0.1,0.2-0.1,0.4-0.1,0.7v4.7h-1.4C42.8,145.1,42.8,139.5,42.8,139.5z"/>
		<path d="M62,141.2c0,2.9-2,4.1-3.9,4.1c-2.1,0-3.7-1.5-3.7-4c0-2.6,1.7-4.1,3.8-4.1C60.5,137.2,62,138.8,62,141.2z M55.9,141.3
			c0,1.7,1,3,2.4,3c1.3,0,2.4-1.3,2.4-3c0-1.3-0.7-3-2.3-3S55.9,139.8,55.9,141.3z"/>
		<path d="M64,145.1v-6.7h-1.1v-1.1H64V137c0-1.1,0.2-2.1,0.9-2.7c0.5-0.5,1.2-0.7,1.9-0.7c0.5,0,0.9,0.1,1.2,0.2l-0.2,1.1
			c-0.2-0.1-0.5-0.2-0.9-0.2c-1.2,0-1.5,1.1-1.5,2.2v0.4h1.9v1.1h-1.9v6.7H64z"/>
		<path d="M77.4,144.8c-0.4,0.2-1.2,0.4-2.2,0.4c-2.3,0-3.9-1.6-3.9-4c0-2.4,1.6-4.1,4.2-4.1c0.8,0,1.6,0.2,2,0.4l-0.3,1.1
			c-0.3-0.2-0.9-0.4-1.6-0.4c-1.8,0-2.7,1.3-2.7,2.9c0,1.8,1.2,2.9,2.7,2.9c0.8,0,1.3-0.2,1.7-0.4L77.4,144.8z"/>
		<path d="M83.3,145.1l-0.1-1h0c-0.4,0.6-1.3,1.2-2.4,1.2c-1.6,0-2.4-1.1-2.4-2.2c0-1.9,1.7-2.9,4.7-2.9V140c0-0.6-0.2-1.8-1.8-1.8
			c-0.7,0-1.5,0.2-2,0.6l-0.3-0.9c0.6-0.4,1.6-0.7,2.5-0.7c2.4,0,2.9,1.6,2.9,3.2v2.9c0,0.7,0,1.3,0.1,1.9H83.3z M83.1,141.2
			c-1.5,0-3.3,0.2-3.3,1.7c0,0.9,0.6,1.3,1.3,1.3c1,0,1.6-0.6,1.9-1.3c0-0.1,0.1-0.3,0.1-0.4L83.1,141.2L83.1,141.2z"/>
		<path d="M86.8,139.5c0-0.8,0-1.5-0.1-2.1h1.2l0.1,1.2h0c0.4-0.7,1.2-1.4,2.4-1.4c1.1,0,1.9,0.6,2.2,1.6h0c0.2-0.4,0.5-0.8,0.9-1
			c0.5-0.4,1-0.5,1.7-0.5c1,0,2.5,0.7,2.5,3.4v4.6h-1.4v-4.4c0-1.5-0.5-2.4-1.7-2.4c-0.8,0-1.4,0.6-1.7,1.3
			c-0.1,0.2-0.1,0.4-0.1,0.7v4.8h-1.4v-4.6c0-1.2-0.5-2.1-1.6-2.1c-0.9,0-1.5,0.7-1.7,1.4c-0.1,0.2-0.1,0.4-0.1,0.7v4.7h-1.4
			C86.8,145.1,86.8,139.5,86.8,139.5z"/>
		<path d="M100.9,141.5c0,1.9,1.2,2.7,2.7,2.7c1,0,1.6-0.2,2.1-0.4l0.2,1c-0.5,0.2-1.3,0.5-2.6,0.5c-2.4,0-3.8-1.6-3.8-3.9
			s1.4-4.2,3.6-4.2c2.5,0,3.2,2.2,3.2,3.6c0,0.3,0,0.5,0,0.7L100.9,141.5L100.9,141.5z M105,140.5c0-0.9-0.4-2.3-2-2.3
			c-1.4,0-2,1.3-2.2,2.3H105z"/>
		<path d="M108.1,139.8c0-0.9,0-1.7-0.1-2.4h1.2l0,1.5h0.1c0.4-1,1.2-1.7,2.1-1.7c0.2,0,0.3,0,0.4,0v1.3c-0.1,0-0.3,0-0.5,0
			c-1,0-1.7,0.8-1.9,1.8c0,0.2-0.1,0.4-0.1,0.7v4.1h-1.4L108.1,139.8L108.1,139.8z"/>
		<path d="M117.6,145.1l-0.1-1h0c-0.4,0.6-1.3,1.2-2.4,1.2c-1.6,0-2.4-1.1-2.4-2.2c0-1.9,1.7-2.9,4.7-2.9V140c0-0.6-0.2-1.8-1.8-1.8
			c-0.7,0-1.5,0.2-2,0.6l-0.3-0.9c0.6-0.4,1.6-0.7,2.5-0.7c2.4,0,2.9,1.6,2.9,3.2v2.9c0,0.7,0,1.3,0.1,1.9H117.6z M117.3,141.2
			c-1.5,0-3.3,0.2-3.3,1.7c0,0.9,0.6,1.3,1.3,1.3c1,0,1.6-0.6,1.9-1.3c0-0.1,0.1-0.3,0.1-0.4L117.3,141.2L117.3,141.2z"/>
		<path d="M9.9,164c-0.4,0.2-1.2,0.4-2.2,0.4c-2.3,0-3.9-1.6-3.9-4c0-2.4,1.6-4.1,4.2-4.1c0.8,0,1.6,0.2,2,0.4l-0.3,1.1
			c-0.3-0.2-0.9-0.4-1.6-0.4c-1.8,0-2.7,1.3-2.7,2.9c0,1.8,1.2,2.9,2.7,2.9c0.8,0,1.3-0.2,1.7-0.4L9.9,164z"/>
		<path d="M18.5,160.4c0,2.9-2,4.1-3.9,4.1c-2.1,0-3.7-1.5-3.7-4c0-2.6,1.7-4.1,3.8-4.1C17,156.4,18.5,158,18.5,160.4z M12.3,160.5
			c0,1.7,1,3,2.4,3c1.3,0,2.4-1.3,2.4-3c0-1.3-0.7-3-2.3-3S12.3,159,12.3,160.5z"/>
		<path d="M27.3,160.4c0,2.9-2,4.1-3.9,4.1c-2.1,0-3.7-1.5-3.7-4c0-2.6,1.7-4.1,3.8-4.1C25.8,156.4,27.3,158,27.3,160.4z
			 M21.1,160.5c0,1.7,1,3,2.4,3c1.3,0,2.4-1.3,2.4-3c0-1.3-0.7-3-2.3-3S21.1,159,21.1,160.5z"/>
		<path d="M29,159c0-0.9,0-1.7-0.1-2.4h1.2l0,1.5h0.1c0.4-1,1.2-1.7,2.1-1.7c0.2,0,0.3,0,0.4,0v1.3c-0.1,0-0.3,0-0.5,0
			c-1,0-1.7,0.8-1.9,1.8c0,0.2-0.1,0.4-0.1,0.7v4.1H29L29,159L29,159z"/>
		<path d="M40.8,153v9.4c0,0.7,0,1.5,0.1,2h-1.3l-0.1-1.3h0c-0.4,0.9-1.4,1.5-2.6,1.5c-1.9,0-3.3-1.6-3.3-3.9c0-2.6,1.6-4.2,3.5-4.2
			c1.2,0,2,0.6,2.3,1.2h0V153L40.8,153L40.8,153z M39.4,159.7c0-0.2,0-0.4-0.1-0.6c-0.2-0.9-1-1.6-2-1.6c-1.5,0-2.3,1.3-2.3,3
			c0,1.6,0.8,2.9,2.3,2.9c0.9,0,1.8-0.6,2.1-1.7c0-0.2,0.1-0.4,0.1-0.6V159.7z"/>
		<path d="M44.7,154.4c0,0.5-0.3,0.9-0.9,0.9c-0.5,0-0.8-0.4-0.8-0.9c0-0.5,0.4-0.9,0.9-0.9C44.4,153.5,44.7,153.9,44.7,154.4z
			 M43.1,164.3v-7.7h1.4v7.7H43.1z"/>
		<path d="M46.9,158.7c0-0.8,0-1.5-0.1-2.1h1.2l0.1,1.3h0c0.4-0.7,1.3-1.5,2.6-1.5c1.1,0,2.7,0.6,2.7,3.3v4.6h-1.4v-4.5
			c0-1.2-0.5-2.3-1.8-2.3c-0.9,0-1.6,0.7-1.9,1.4c-0.1,0.2-0.1,0.4-0.1,0.7v4.7h-1.4V158.7z"/>
		<path d="M60,164.3l-0.1-1h0c-0.4,0.6-1.3,1.2-2.4,1.2c-1.6,0-2.4-1.1-2.4-2.2c0-1.9,1.7-2.9,4.7-2.9v-0.2c0-0.6-0.2-1.8-1.8-1.8
			c-0.7,0-1.5,0.2-2,0.6l-0.3-0.9c0.6-0.4,1.6-0.7,2.5-0.7c2.4,0,2.9,1.6,2.9,3.2v2.9c0,0.7,0,1.3,0.1,1.9H60z M59.8,160.4
			c-1.5,0-3.3,0.2-3.3,1.7c0,0.9,0.6,1.3,1.3,1.3c1,0,1.6-0.6,1.9-1.3c0-0.1,0.1-0.3,0.1-0.4L59.8,160.4L59.8,160.4z"/>
		<path d="M65.1,154.4v2.2h2v1.1h-2v4.2c0,1,0.3,1.5,1.1,1.5c0.4,0,0.6,0,0.8-0.1l0.1,1.1c-0.3,0.1-0.7,0.2-1.2,0.2
			c-0.7,0-1.2-0.2-1.5-0.6c-0.4-0.4-0.5-1.1-0.5-2v-4.2h-1.2v-1.1h1.2v-1.9L65.1,154.4z"/>
		<path d="M69.4,160.7c0,1.9,1.2,2.7,2.7,2.7c1,0,1.6-0.2,2.1-0.4l0.2,1c-0.5,0.2-1.3,0.5-2.6,0.5c-2.4,0-3.8-1.6-3.8-3.9
			s1.4-4.2,3.6-4.2c2.5,0,3.2,2.2,3.2,3.6c0,0.3,0,0.5,0,0.7L69.4,160.7L69.4,160.7z M73.5,159.7c0-0.9-0.4-2.3-2-2.3
			c-1.4,0-2,1.3-2.2,2.3H73.5z"/>
		<path d="M79.8,162.9c0.4,0.3,1.2,0.6,1.9,0.6c1,0,1.5-0.5,1.5-1.2c0-0.7-0.4-1-1.4-1.4c-1.4-0.5-2-1.3-2-2.2c0-1.2,1-2.3,2.7-2.3
			c0.8,0,1.5,0.2,1.9,0.5l-0.4,1c-0.3-0.2-0.9-0.4-1.6-0.4c-0.8,0-1.3,0.5-1.3,1.1c0,0.6,0.5,0.9,1.5,1.3c1.3,0.5,2,1.2,2,2.3
			c0,1.4-1.1,2.3-2.9,2.3c-0.8,0-1.6-0.2-2.2-0.5L79.8,162.9z"/>
		<path d="M86.9,156.6l1.7,4.6c0.2,0.5,0.4,1.1,0.5,1.6h0c0.1-0.5,0.3-1.1,0.5-1.6l1.5-4.5h1.5l-2.1,5.5c-1,2.7-1.7,4-2.7,4.9
			c-0.7,0.6-1.4,0.8-1.7,0.9l-0.4-1.2c0.4-0.1,0.8-0.3,1.2-0.7c0.4-0.3,0.9-0.8,1.2-1.6c0.1-0.1,0.1-0.3,0.1-0.3s0-0.2-0.1-0.4
			l-2.9-7.1L86.9,156.6L86.9,156.6z"/>
		<path d="M93.6,162.9c0.4,0.3,1.2,0.6,1.9,0.6c1,0,1.5-0.5,1.5-1.2c0-0.7-0.4-1-1.4-1.4c-1.4-0.5-2-1.3-2-2.2c0-1.2,1-2.3,2.7-2.3
			c0.8,0,1.5,0.2,1.9,0.5l-0.4,1c-0.3-0.2-0.9-0.4-1.6-0.4c-0.8,0-1.3,0.5-1.3,1.1c0,0.6,0.5,0.9,1.5,1.3c1.3,0.5,2,1.2,2,2.3
			c0,1.4-1.1,2.3-2.9,2.3c-0.8,0-1.6-0.2-2.2-0.5L93.6,162.9z"/>
		<path d="M101.8,154.4v2.2h2v1.1h-2v4.2c0,1,0.3,1.5,1.1,1.5c0.4,0,0.6,0,0.8-0.1l0.1,1.1c-0.3,0.1-0.7,0.2-1.2,0.2
			c-0.7,0-1.2-0.2-1.5-0.6c-0.4-0.4-0.5-1.1-0.5-2v-4.2h-1.2v-1.1h1.2v-1.9L101.8,154.4z"/>
		<path d="M106.1,160.7c0,1.9,1.2,2.7,2.7,2.7c1,0,1.6-0.2,2.1-0.4l0.2,1c-0.5,0.2-1.3,0.5-2.6,0.5c-2.4,0-3.8-1.6-3.8-3.9
			s1.4-4.2,3.6-4.2c2.5,0,3.2,2.2,3.2,3.6c0,0.3,0,0.5,0,0.7L106.1,160.7L106.1,160.7z M110.2,159.7c0-0.9-0.4-2.3-2-2.3
			c-1.4,0-2,1.3-2.2,2.3H110.2z"/>
		<path d="M113.3,158.7c0-0.8,0-1.5-0.1-2.1h1.2l0.1,1.2h0c0.4-0.7,1.2-1.4,2.4-1.4c1.1,0,1.9,0.6,2.2,1.6h0c0.2-0.4,0.5-0.8,0.9-1
			c0.5-0.4,1-0.5,1.7-0.5c1,0,2.5,0.7,2.5,3.4v4.6H123v-4.4c0-1.5-0.5-2.4-1.7-2.4c-0.8,0-1.4,0.6-1.7,1.3c-0.1,0.2-0.1,0.4-0.1,0.7
			v4.8h-1.4v-4.6c0-1.2-0.5-2.1-1.6-2.1c-0.9,0-1.5,0.7-1.7,1.4c-0.1,0.2-0.1,0.4-0.1,0.7v4.7h-1.4
			C113.3,164.3,113.3,158.7,113.3,158.7z"/>
	</g>
	<g>
		<path d="M133.8,426.2h-3.3v-1.2h8v1.2h-3.3v9.6h-1.4V426.2z"/>
		<path d="M138.9,430.5c0-0.9,0-1.7-0.1-2.4h1.2l0,1.5h0.1c0.4-1,1.2-1.7,2.1-1.7c0.2,0,0.3,0,0.4,0v1.3c-0.1,0-0.3,0-0.5,0
			c-1,0-1.7,0.8-1.9,1.8c0,0.2-0.1,0.4-0.1,0.7v4.1h-1.4L138.9,430.5L138.9,430.5z"/>
		<path d="M148.4,435.8l-0.1-1h0c-0.4,0.6-1.3,1.2-2.4,1.2c-1.6,0-2.4-1.1-2.4-2.2c0-1.9,1.7-2.9,4.7-2.9v-0.2
			c0-0.6-0.2-1.8-1.8-1.8c-0.7,0-1.5,0.2-2,0.6l-0.3-0.9c0.6-0.4,1.6-0.7,2.5-0.7c2.4,0,2.9,1.6,2.9,3.2v2.9c0,0.7,0,1.3,0.1,1.9
			L148.4,435.8L148.4,435.8z M148.2,431.9c-1.5,0-3.3,0.2-3.3,1.7c0,0.9,0.6,1.3,1.3,1.3c1,0,1.6-0.6,1.9-1.3c0-0.1,0.1-0.3,0.1-0.4
			L148.2,431.9L148.2,431.9z"/>
		<path d="M151.8,430.2c0-0.8,0-1.5-0.1-2.1h1.2l0.1,1.3h0c0.4-0.7,1.3-1.5,2.6-1.5c1.1,0,2.7,0.6,2.7,3.3v4.6H157v-4.5
			c0-1.2-0.5-2.3-1.8-2.3c-0.9,0-1.6,0.7-1.9,1.4c-0.1,0.2-0.1,0.4-0.1,0.7v4.7h-1.4V430.2z"/>
		<path d="M160.5,434.4c0.4,0.3,1.2,0.6,1.9,0.6c1,0,1.5-0.5,1.5-1.2c0-0.7-0.4-1-1.4-1.4c-1.4-0.5-2-1.3-2-2.2c0-1.2,1-2.3,2.7-2.3
			c0.8,0,1.5,0.2,1.9,0.5l-0.4,1c-0.3-0.2-0.9-0.4-1.6-0.4c-0.8,0-1.3,0.5-1.3,1.1c0,0.6,0.5,0.9,1.5,1.3c1.3,0.5,2,1.2,2,2.3
			c0,1.4-1.1,2.3-2.9,2.3c-0.8,0-1.6-0.2-2.2-0.5L160.5,434.4z"/>
		<path d="M167.2,435.8v-6.7h-1.1v-1.1h1.1v-0.4c0-1.1,0.2-2.1,0.9-2.7c0.5-0.5,1.2-0.7,1.9-0.7c0.5,0,0.9,0.1,1.2,0.2l-0.2,1.1
			c-0.2-0.1-0.5-0.2-0.9-0.2c-1.2,0-1.5,1.1-1.5,2.2v0.4h1.9v1.1h-1.9v6.7L167.2,435.8L167.2,435.8z"/>
		<path d="M178.5,431.9c0,2.9-2,4.1-3.9,4.1c-2.1,0-3.7-1.5-3.7-4c0-2.6,1.7-4.1,3.8-4.1C177,427.9,178.5,429.5,178.5,431.9z
			 M172.4,432c0,1.7,1,3,2.4,3c1.3,0,2.4-1.3,2.4-3c0-1.3-0.7-3-2.3-3S172.4,430.5,172.4,432z"/>
		<path d="M180.3,430.5c0-0.9,0-1.7-0.1-2.4h1.2l0,1.5h0.1c0.4-1,1.2-1.7,2.1-1.7c0.2,0,0.3,0,0.4,0v1.3c-0.1,0-0.3,0-0.5,0
			c-1,0-1.7,0.8-1.9,1.8c0,0.2-0.1,0.4-0.1,0.7v4.1h-1.4L180.3,430.5L180.3,430.5z"/>
		<path d="M185.6,430.2c0-0.8,0-1.5-0.1-2.1h1.2l0.1,1.2h0c0.4-0.7,1.2-1.4,2.4-1.4c1.1,0,1.9,0.6,2.2,1.6h0c0.2-0.4,0.5-0.8,0.9-1
			c0.5-0.4,1-0.5,1.7-0.5c1,0,2.5,0.7,2.5,3.4v4.6h-1.4v-4.4c0-1.5-0.5-2.4-1.7-2.4c-0.8,0-1.4,0.6-1.7,1.3
			c-0.1,0.2-0.1,0.4-0.1,0.7v4.8h-1.4v-4.6c0-1.2-0.5-2.1-1.6-2.1c-0.9,0-1.5,0.7-1.7,1.4c-0.1,0.2-0.1,0.4-0.1,0.7v4.7h-1.4
			L185.6,430.2L185.6,430.2z"/>
		<path d="M203.2,435.8l-0.1-1h0c-0.4,0.6-1.3,1.2-2.4,1.2c-1.6,0-2.4-1.1-2.4-2.2c0-1.9,1.7-2.9,4.7-2.9v-0.2
			c0-0.6-0.2-1.8-1.8-1.8c-0.7,0-1.5,0.2-2,0.6l-0.3-0.9c0.6-0.4,1.6-0.7,2.5-0.7c2.4,0,2.9,1.6,2.9,3.2v2.9c0,0.7,0,1.3,0.1,1.9
			L203.2,435.8L203.2,435.8z M203,431.9c-1.5,0-3.3,0.2-3.3,1.7c0,0.9,0.6,1.3,1.3,1.3c1,0,1.6-0.6,1.9-1.3c0-0.1,0.1-0.3,0.1-0.4
			L203,431.9L203,431.9z"/>
		<path d="M208.3,425.9v2.2h2v1.1h-2v4.2c0,1,0.3,1.5,1.1,1.5c0.4,0,0.6,0,0.8-0.1l0.1,1.1c-0.3,0.1-0.7,0.2-1.2,0.2
			c-0.7,0-1.2-0.2-1.5-0.6c-0.4-0.4-0.5-1.1-0.5-2v-4.2h-1.2v-1.1h1.2v-1.9L208.3,425.9z"/>
		<path d="M213.4,425.9c0,0.5-0.3,0.9-0.9,0.9c-0.5,0-0.8-0.4-0.8-0.9c0-0.5,0.4-0.9,0.9-0.9C213.1,425,213.4,425.4,213.4,425.9z
			 M211.9,435.8v-7.7h1.4v7.7H211.9z"/>
		<path d="M222.6,431.9c0,2.9-2,4.1-3.9,4.1c-2.1,0-3.7-1.5-3.7-4c0-2.6,1.7-4.1,3.8-4.1C221.1,427.9,222.6,429.5,222.6,431.9z
			 M216.5,432c0,1.7,1,3,2.4,3c1.3,0,2.4-1.3,2.4-3c0-1.3-0.7-3-2.3-3C217.2,429,216.5,430.5,216.5,432z"/>
		<path d="M224.4,430.2c0-0.8,0-1.5-0.1-2.1h1.2l0.1,1.3h0c0.4-0.7,1.3-1.5,2.6-1.5c1.1,0,2.7,0.6,2.7,3.3v4.6h-1.4v-4.5
			c0-1.2-0.5-2.3-1.8-2.3c-0.9,0-1.6,0.7-1.9,1.4c-0.1,0.2-0.1,0.4-0.1,0.7v4.7h-1.4V430.2z"/>
		<path d="M236.7,430.2c0-0.8,0-1.5-0.1-2.1h1.2l0.1,1.2h0c0.4-0.7,1.2-1.4,2.4-1.4c1.1,0,1.9,0.6,2.2,1.6h0c0.2-0.4,0.5-0.8,0.9-1
			c0.5-0.4,1-0.5,1.7-0.5c1,0,2.5,0.7,2.5,3.4v4.6h-1.4v-4.4c0-1.5-0.5-2.4-1.7-2.4c-0.8,0-1.4,0.6-1.7,1.3
			c-0.1,0.2-0.1,0.4-0.1,0.7v4.8h-1.4v-4.6c0-1.2-0.5-2.1-1.6-2.1c-0.9,0-1.5,0.7-1.7,1.4c-0.1,0.2-0.1,0.4-0.1,0.7v4.7h-1.4
			L236.7,430.2L236.7,430.2z"/>
		<path d="M254.3,435.8l-0.1-1h0c-0.4,0.6-1.3,1.2-2.4,1.2c-1.6,0-2.4-1.1-2.4-2.2c0-1.9,1.7-2.9,4.7-2.9v-0.2
			c0-0.6-0.2-1.8-1.8-1.8c-0.7,0-1.5,0.2-2,0.6l-0.3-0.9c0.6-0.4,1.6-0.7,2.5-0.7c2.4,0,2.9,1.6,2.9,3.2v2.9c0,0.7,0,1.3,0.1,1.9
			L254.3,435.8L254.3,435.8z M254.1,431.9c-1.5,0-3.3,0.2-3.3,1.7c0,0.9,0.6,1.3,1.3,1.3c1,0,1.6-0.6,1.9-1.3c0-0.1,0.1-0.3,0.1-0.4
			L254.1,431.9L254.1,431.9z"/>
		<path d="M259.3,425.9v2.2h2v1.1h-2v4.2c0,1,0.3,1.5,1.1,1.5c0.4,0,0.6,0,0.8-0.1l0.1,1.1c-0.3,0.1-0.7,0.2-1.2,0.2
			c-0.7,0-1.2-0.2-1.5-0.6c-0.4-0.4-0.5-1.1-0.5-2v-4.2h-1.2v-1.1h1.2v-1.9L259.3,425.9z"/>
		<path d="M262.9,430.5c0-0.9,0-1.7-0.1-2.4h1.2l0,1.5h0.1c0.4-1,1.2-1.7,2.1-1.7c0.2,0,0.3,0,0.4,0v1.3c-0.1,0-0.3,0-0.5,0
			c-1,0-1.7,0.8-1.9,1.8c0,0.2-0.1,0.4-0.1,0.7v4.1h-1.4L262.9,430.5L262.9,430.5z"/>
		<path d="M269.8,425.9c0,0.5-0.3,0.9-0.9,0.9c-0.5,0-0.8-0.4-0.8-0.9c0-0.5,0.4-0.9,0.9-0.9C269.5,425,269.8,425.4,269.8,425.9z
			 M268.2,435.8v-7.7h1.4v7.7H268.2z"/>
		<path d="M272.6,428.1l1.1,1.7c0.3,0.4,0.5,0.8,0.8,1.3h0c0.3-0.5,0.5-0.9,0.8-1.3l1.1-1.6h1.5l-2.6,3.7l2.7,4h-1.6l-1.1-1.7
			c-0.3-0.4-0.6-0.9-0.8-1.3h0c-0.3,0.5-0.5,0.9-0.8,1.3l-1.1,1.7h-1.6l2.8-4l-2.6-3.8L272.6,428.1L272.6,428.1z"/>
	</g>
	<path class="st0" d="M347,415.3c-15.4,13.2-26.3,15.1-33.5,14.2c-3.1-0.4-7.8-1.6-15-1.3c-7.1,0.3-12.9,2-16.8,3.4"/>
	<path class="st0" d="M272,131.1c28.2,6.6,42.4,18.9,50.1,28.5c13.8,17.1,12.3,32.4,28.5,54.9c10.7,14.8,23,24.2,31.1,29.5"/>
	<path class="st0" d="M129,160.8c33.6,2.7,41.1,15.5,42.8,26.8c2.2,14.6-11.3,35.6-8.3,67.2c1.4,14.6,19.4,30.5,27.2,34.7"/>
	<g>
		<path d="M263.1,12v10.8h-1.4V12H263.1z"/>
		<path d="M265.6,17.2c0-0.8,0-1.5-0.1-2.1h1.2l0.1,1.2h0c0.4-0.7,1.2-1.4,2.4-1.4c1.1,0,1.9,0.6,2.2,1.6h0c0.2-0.4,0.5-0.8,0.9-1
			c0.5-0.4,1-0.5,1.7-0.5c1,0,2.5,0.7,2.5,3.4v4.6h-1.4v-4.4c0-1.5-0.5-2.4-1.7-2.4c-0.8,0-1.4,0.6-1.7,1.3
			c-0.1,0.2-0.1,0.4-0.1,0.7v4.8h-1.4v-4.6c0-1.2-0.5-2.1-1.6-2.1c-0.9,0-1.5,0.7-1.7,1.4c-0.1,0.2-0.1,0.4-0.1,0.7v4.7h-1.4V17.2z"
			/>
		<path d="M283.3,22.8l-0.1-1h0c-0.4,0.6-1.3,1.2-2.4,1.2c-1.6,0-2.4-1.1-2.4-2.2c0-1.9,1.7-2.9,4.7-2.9v-0.2c0-0.6-0.2-1.8-1.8-1.8
			c-0.7,0-1.5,0.2-2,0.6l-0.3-0.9c0.6-0.4,1.6-0.7,2.5-0.7c2.4,0,2.9,1.6,2.9,3.2V21c0,0.7,0,1.3,0.1,1.9L283.3,22.8L283.3,22.8z
			 M283,18.9c-1.5,0-3.3,0.2-3.3,1.7c0,0.9,0.6,1.3,1.3,1.3c1,0,1.6-0.6,1.9-1.3c0-0.1,0.1-0.3,0.1-0.4L283,18.9L283,18.9z"/>
		<path d="M293.4,15.1c0,0.6-0.1,1.2-0.1,2.1v4.5c0,1.8-0.4,2.9-1.1,3.5c-0.8,0.7-1.8,0.9-2.8,0.9c-0.9,0-2-0.2-2.6-0.6l0.4-1.1
			c0.5,0.3,1.3,0.6,2.3,0.6c1.4,0,2.5-0.8,2.5-2.7v-0.9h0c-0.4,0.7-1.3,1.3-2.5,1.3c-1.9,0-3.3-1.6-3.3-3.8c0-2.6,1.7-4.1,3.5-4.1
			c1.3,0,2.1,0.7,2.4,1.3h0l0.1-1.2L293.4,15.1L293.4,15.1z M291.9,18.1c0-0.2,0-0.4-0.1-0.6c-0.3-0.8-0.9-1.5-2-1.5
			c-1.3,0-2.3,1.1-2.3,2.9c0,1.5,0.8,2.8,2.3,2.8c0.9,0,1.6-0.5,2-1.4c0.1-0.2,0.1-0.5,0.1-0.8L291.9,18.1L291.9,18.1z"/>
		<path d="M296.4,19.2c0,1.9,1.2,2.7,2.7,2.7c1,0,1.6-0.2,2.1-0.4l0.2,1c-0.5,0.2-1.3,0.5-2.6,0.5c-2.4,0-3.8-1.6-3.8-3.9
			s1.4-4.2,3.6-4.2c2.5,0,3.2,2.2,3.2,3.6c0,0.3,0,0.5,0,0.7L296.4,19.2L296.4,19.2z M300.5,18.2c0-0.9-0.4-2.3-2-2.3
			c-1.4,0-2,1.3-2.2,2.3H300.5z"/>
		<path d="M307,17.6c0-1,0-1.8-0.1-2.5h1.3l0.1,1.3h0c0.6-0.9,1.5-1.5,2.8-1.5c1.9,0,3.3,1.6,3.3,3.9c0,2.8-1.7,4.2-3.5,4.2
			c-1,0-1.9-0.4-2.4-1.2h0V26H307V17.6z M308.4,19.7c0,0.2,0,0.4,0.1,0.6c0.3,1,1.1,1.6,2.1,1.6c1.5,0,2.4-1.2,2.4-3
			c0-1.6-0.8-2.9-2.3-2.9c-1,0-1.9,0.7-2.1,1.7c0,0.2-0.1,0.4-0.1,0.6L308.4,19.7L308.4,19.7z"/>
		<path d="M316.1,11.5h1.4v11.4h-1.4V11.5z"/>
		<path d="M324.2,22.8l-0.1-1h0c-0.4,0.6-1.3,1.2-2.4,1.2c-1.6,0-2.4-1.1-2.4-2.2c0-1.9,1.7-2.9,4.7-2.9v-0.2c0-0.6-0.2-1.8-1.8-1.8
			c-0.7,0-1.5,0.2-2,0.6l-0.3-0.9c0.6-0.4,1.6-0.7,2.5-0.7c2.4,0,2.9,1.6,2.9,3.2V21c0,0.7,0,1.3,0.1,1.9L324.2,22.8L324.2,22.8z
			 M324,18.9c-1.5,0-3.3,0.2-3.3,1.7c0,0.9,0.6,1.3,1.3,1.3c1,0,1.6-0.6,1.9-1.3c0-0.1,0.1-0.3,0.1-0.4L324,18.9L324,18.9z"/>
		<path d="M327.6,17.2c0-0.8,0-1.5-0.1-2.1h1.2l0.1,1.3h0c0.4-0.7,1.3-1.5,2.6-1.5c1.1,0,2.7,0.6,2.7,3.3v4.6h-1.4v-4.5
			c0-1.2-0.5-2.3-1.8-2.3c-0.9,0-1.6,0.7-1.9,1.4c-0.1,0.2-0.1,0.4-0.1,0.7v4.7h-1.4V17.2z"/>
		<path d="M337.3,19.2c0,1.9,1.2,2.7,2.7,2.7c1,0,1.6-0.2,2.1-0.4l0.2,1c-0.5,0.2-1.3,0.5-2.6,0.5c-2.4,0-3.8-1.6-3.8-3.9
			s1.4-4.2,3.6-4.2c2.5,0,3.2,2.2,3.2,3.6c0,0.3,0,0.5,0,0.7L337.3,19.2L337.3,19.2z M341.4,18.2c0-0.9-0.4-2.3-2-2.3
			c-1.4,0-2,1.3-2.2,2.3H341.4z"/>
	</g>
	<path class="st0" d="M598.2,240.6c9.6-1.9,16.5-0.7,21,0.8c6.3,2.1,8.6,4.8,14.6,6.3c7.7,1.9,14.7,0.2,19.4-1.6"/>
	<g>
		<path d="M658.3,240.2c0.7-0.1,1.6-0.2,2.7-0.2c1.4,0,2.4,0.3,3,0.9c0.6,0.5,0.9,1.3,0.9,2.3c0,1-0.3,1.7-0.8,2.3
			c-0.7,0.8-1.9,1.2-3.3,1.2c-0.4,0-0.8,0-1.1-0.1v4.3h-1.4L658.3,240.2L658.3,240.2z M659.7,245.4c0.3,0.1,0.7,0.1,1.2,0.1
			c1.7,0,2.7-0.8,2.7-2.3c0-1.4-1-2.1-2.5-2.1c-0.6,0-1.1,0-1.3,0.1L659.7,245.4L659.7,245.4z"/>
		<path d="M666.5,245.5c0-0.9,0-1.7-0.1-2.4h1.2l0,1.5h0.1c0.4-1,1.2-1.7,2.1-1.7c0.2,0,0.3,0,0.4,0v1.3c-0.1,0-0.3,0-0.5,0
			c-1,0-1.7,0.8-1.9,1.8c0,0.2-0.1,0.4-0.1,0.7v4.1h-1.4V245.5z"/>
		<path d="M673.4,240.9c0,0.5-0.3,0.9-0.9,0.9c-0.5,0-0.8-0.4-0.8-0.9c0-0.5,0.4-0.9,0.9-0.9C673,240,673.4,240.4,673.4,240.9z
			 M671.8,250.8v-7.7h1.4v7.7H671.8z"/>
		<path d="M675.5,245.2c0-0.8,0-1.5-0.1-2.1h1.2l0.1,1.3h0c0.4-0.7,1.3-1.5,2.6-1.5c1.1,0,2.7,0.6,2.7,3.3v4.6h-1.4v-4.5
			c0-1.2-0.5-2.3-1.8-2.3c-0.9,0-1.6,0.7-1.9,1.4c-0.1,0.2-0.1,0.4-0.1,0.7v4.7h-1.4L675.5,245.2L675.5,245.2z"/>
		<path d="M689.9,250.6c-0.4,0.2-1.2,0.4-2.2,0.4c-2.3,0-3.9-1.6-3.9-4c0-2.4,1.6-4.1,4.2-4.1c0.8,0,1.6,0.2,2,0.4l-0.3,1.1
			c-0.3-0.2-0.9-0.4-1.6-0.4c-1.8,0-2.7,1.3-2.7,2.9c0,1.8,1.2,2.9,2.7,2.9c0.8,0,1.3-0.2,1.7-0.4L689.9,250.6z"/>
		<path d="M693.1,240.9c0,0.5-0.3,0.9-0.9,0.9c-0.5,0-0.8-0.4-0.8-0.9c0-0.5,0.4-0.9,0.9-0.9C692.8,240,693.1,240.4,693.1,240.9z
			 M691.6,250.8v-7.7h1.4v7.7H691.6z"/>
		<path d="M695.3,245.6c0-1,0-1.8-0.1-2.5h1.3l0.1,1.3h0c0.6-0.9,1.5-1.5,2.8-1.5c1.9,0,3.3,1.6,3.3,3.9c0,2.8-1.7,4.2-3.5,4.2
			c-1,0-1.9-0.4-2.4-1.2h0v4.2h-1.4L695.3,245.6L695.3,245.6z M696.7,247.7c0,0.2,0,0.4,0.1,0.6c0.3,1,1.1,1.6,2.1,1.6
			c1.5,0,2.4-1.2,2.4-3c0-1.6-0.8-2.9-2.3-2.9c-1,0-1.9,0.7-2.1,1.7c0,0.2-0.1,0.4-0.1,0.6L696.7,247.7L696.7,247.7z"/>
		<path d="M708.7,250.8l-0.1-1h0c-0.4,0.6-1.3,1.2-2.4,1.2c-1.6,0-2.4-1.1-2.4-2.2c0-1.9,1.7-2.9,4.7-2.9v-0.2
			c0-0.6-0.2-1.8-1.8-1.8c-0.7,0-1.5,0.2-2,0.6l-0.3-0.9c0.6-0.4,1.6-0.7,2.5-0.7c2.4,0,2.9,1.6,2.9,3.2v2.9c0,0.7,0,1.3,0.1,1.9
			L708.7,250.8L708.7,250.8z M708.5,246.9c-1.5,0-3.3,0.2-3.3,1.7c0,0.9,0.6,1.3,1.3,1.3c1,0,1.6-0.6,1.9-1.3c0-0.1,0.1-0.3,0.1-0.4
			V246.9z"/>
		<path d="M712.1,239.5h1.4v11.4h-1.4V239.5z"/>
		<path d="M719.3,245.6c0-1,0-1.8-0.1-2.5h1.3l0.1,1.3h0c0.6-0.9,1.5-1.5,2.8-1.5c1.9,0,3.3,1.6,3.3,3.9c0,2.8-1.7,4.2-3.5,4.2
			c-1,0-1.9-0.4-2.4-1.2h0v4.2h-1.4L719.3,245.6L719.3,245.6z M720.7,247.7c0,0.2,0,0.4,0.1,0.6c0.3,1,1.1,1.6,2.1,1.6
			c1.5,0,2.4-1.2,2.4-3c0-1.6-0.8-2.9-2.3-2.9c-1,0-1.9,0.7-2.1,1.7c0,0.2-0.1,0.4-0.1,0.6L720.7,247.7L720.7,247.7z"/>
		<path d="M735.4,246.9c0,2.9-2,4.1-3.9,4.1c-2.1,0-3.7-1.5-3.7-4c0-2.6,1.7-4.1,3.8-4.1C733.9,242.9,735.4,244.5,735.4,246.9z
			 M729.3,247c0,1.7,1,3,2.4,3c1.3,0,2.4-1.3,2.4-3c0-1.3-0.7-3-2.3-3C730,244,729.3,245.5,729.3,247z"/>
		<path d="M738.8,240.9c0,0.5-0.3,0.9-0.9,0.9c-0.5,0-0.8-0.4-0.8-0.9c0-0.5,0.4-0.9,0.9-0.9C738.4,240,738.8,240.4,738.8,240.9z
			 M737.2,250.8v-7.7h1.4v7.7H737.2z"/>
		<path d="M740.9,245.2c0-0.8,0-1.5-0.1-2.1h1.2l0.1,1.3h0c0.4-0.7,1.3-1.5,2.6-1.5c1.1,0,2.7,0.6,2.7,3.3v4.6h-1.4v-4.5
			c0-1.2-0.5-2.3-1.8-2.3c-0.9,0-1.6,0.7-1.9,1.4c-0.1,0.2-0.1,0.4-0.1,0.7v4.7h-1.4L740.9,245.2L740.9,245.2z"/>
		<path d="M751.4,240.9v2.2h2v1.1h-2v4.2c0,1,0.3,1.5,1.1,1.5c0.4,0,0.6,0,0.8-0.1l0.1,1.1c-0.3,0.1-0.7,0.2-1.2,0.2
			c-0.7,0-1.2-0.2-1.5-0.6c-0.4-0.4-0.5-1.1-0.5-2v-4.2h-1.2v-1.1h1.2v-1.9L751.4,240.9z"/>
		<path d="M695.6,265.4c0,2.4-1.7,4.9-4.3,4.9c-1.9,0-3-1.4-3-3.2c0-2.5,1.8-4.9,4.3-4.9C694.6,262.1,695.6,263.7,695.6,265.4z
			 M689.6,267c0,1.3,0.7,2.2,1.8,2.2c1.6,0,2.8-2,2.8-3.8c0-0.9-0.4-2.2-1.8-2.2C690.7,263.2,689.6,265.2,689.6,267z"/>
		<path d="M706.6,259.8c-0.2-0.1-0.5-0.1-0.8-0.1c-1.1,0-1.6,1-1.8,2.3l-0.1,0.4h1.7l-0.2,1h-1.7l-1.3,6.7h-1.3l1.3-6.7h-3.1
			L698,270h-1.3l1.3-6.7h-1l0.2-1h1l0.1-0.4c0.2-0.9,0.5-1.9,1.2-2.5c0.4-0.4,1.1-0.7,1.9-0.7c0.4,0,0.8,0.1,1,0.2l-0.4,1
			c-0.2-0.1-0.4-0.2-0.6-0.2c-1.1,0-1.5,1.1-1.7,2.2l-0.1,0.3h3.1l0.1-0.4c0.2-1.1,0.6-2.1,1.3-2.7c0.5-0.4,1.2-0.7,1.8-0.7
			c0.5,0,0.9,0.1,1.1,0.2L706.6,259.8z"/>
		<path d="M705.5,268.7c0.4,0.2,1,0.5,1.7,0.5c0.9,0,1.5-0.6,1.5-1.3c0-0.6-0.3-1-1.1-1.4c-0.9-0.5-1.4-1.2-1.4-2
			c0-1.4,1.2-2.4,2.8-2.4c0.7,0,1.3,0.2,1.6,0.4l-0.4,1c-0.3-0.2-0.8-0.4-1.3-0.4c-0.8,0-1.4,0.5-1.4,1.2c0,0.6,0.4,0.9,1.1,1.3
			c0.9,0.5,1.5,1.2,1.5,2c0,1.6-1.3,2.5-3,2.5c-0.8,0-1.6-0.3-1.9-0.5L705.5,268.7z"/>
		<path d="M717,269.6c-0.6,0.3-1.5,0.6-2.6,0.6c-2,0-2.9-1.4-2.9-3.1c0-2.3,1.7-5,4.2-5c1.5,0,2.3,0.9,2.3,2c0,2-2.3,2.6-5.2,2.5
			c-0.1,0.3,0,1.1,0.2,1.5c0.3,0.7,0.9,1,1.7,1c0.9,0,1.6-0.3,2.1-0.5L717,269.6z M715.6,263.2c-1.3,0-2.2,1.2-2.5,2.4
			c2.1,0,3.7-0.3,3.7-1.5C716.7,263.5,716.3,263.2,715.6,263.2z"/>
		<path d="M722.2,260.2l-0.4,2.1h1.9l-0.2,1h-1.9l-0.7,3.8c-0.1,0.4-0.1,0.8-0.1,1.2c0,0.5,0.2,0.7,0.7,0.7c0.2,0,0.4,0,0.6,0
			l-0.1,1c-0.2,0.1-0.6,0.1-1,0.1c-1.2,0-1.6-0.7-1.6-1.5c0-0.4,0-0.9,0.2-1.5l0.8-3.9h-1.1l0.2-1h1.1l0.3-1.7L722.2,260.2z"/>
	</g>
	<g>
		<path d="M667.5,336.1c0,3.7-2.3,5.7-5,5.7c-2.8,0-4.8-2.2-4.8-5.5c0-3.4,2.1-5.7,5-5.7C665.6,330.7,667.5,332.9,667.5,336.1z
			 M659.2,336.3c0,2.3,1.2,4.4,3.4,4.4c2.2,0,3.5-2,3.5-4.5c0-2.1-1.1-4.4-3.4-4.4C660.3,331.8,659.2,333.9,659.2,336.3z"/>
		<path d="M669.3,336.3c0-0.9,0-1.7-0.1-2.4h1.2l0,1.5h0.1c0.4-1,1.2-1.7,2.1-1.7c0.2,0,0.3,0,0.4,0v1.3c-0.1,0-0.3,0-0.5,0
			c-1,0-1.7,0.8-1.9,1.8c0,0.2-0.1,0.4-0.1,0.7v4.1h-1.4V336.3z"/>
		<path d="M676.2,331.7c0,0.5-0.3,0.9-0.9,0.9c-0.5,0-0.8-0.4-0.8-0.9c0-0.5,0.4-0.9,0.9-0.9C675.8,330.8,676.2,331.2,676.2,331.7z
			 M674.6,341.6v-7.7h1.4v7.7H674.6z"/>
		<path d="M685,333.9c0,0.6-0.1,1.2-0.1,2.1v4.5c0,1.8-0.4,2.9-1.1,3.5c-0.8,0.7-1.8,0.9-2.8,0.9c-0.9,0-2-0.2-2.6-0.6l0.4-1.1
			c0.5,0.3,1.3,0.6,2.3,0.6c1.4,0,2.5-0.8,2.5-2.7v-0.9h0c-0.4,0.7-1.3,1.3-2.5,1.3c-1.9,0-3.3-1.6-3.3-3.8c0-2.6,1.7-4.1,3.5-4.1
			c1.3,0,2.1,0.7,2.4,1.3h0l0.1-1.2L685,333.9L685,333.9z M683.6,336.9c0-0.2,0-0.4-0.1-0.6c-0.3-0.8-0.9-1.5-2-1.5
			c-1.3,0-2.3,1.1-2.3,2.9c0,1.5,0.8,2.8,2.3,2.8c0.9,0,1.6-0.5,2-1.4c0.1-0.2,0.1-0.5,0.1-0.8L683.6,336.9L683.6,336.9z"/>
		<path d="M688.8,331.7c0,0.5-0.3,0.9-0.9,0.9c-0.5,0-0.8-0.4-0.8-0.9c0-0.5,0.4-0.9,0.9-0.9C688.4,330.8,688.8,331.2,688.8,331.7z
			 M687.2,341.6v-7.7h1.4v7.7H687.2z"/>
		<path d="M690.9,336c0-0.8,0-1.5-0.1-2.1h1.2l0.1,1.3h0c0.4-0.7,1.3-1.5,2.6-1.5c1.1,0,2.7,0.6,2.7,3.3v4.6h-1.4v-4.5
			c0-1.2-0.5-2.3-1.8-2.3c-0.9,0-1.6,0.7-1.9,1.4c-0.1,0.2-0.1,0.4-0.1,0.7v4.7h-1.4L690.9,336L690.9,336z"/>
		<path d="M710.2,337.7c0,2.9-2,4.1-3.9,4.1c-2.1,0-3.7-1.5-3.7-4c0-2.6,1.7-4.1,3.8-4.1C708.7,333.7,710.2,335.3,710.2,337.7z
			 M704.1,337.8c0,1.7,1,3,2.4,3c1.3,0,2.4-1.3,2.4-3c0-1.3-0.7-3-2.3-3C704.8,334.8,704.1,336.3,704.1,337.8z"/>
		<path d="M712.1,341.6v-6.7H711v-1.1h1.1v-0.4c0-1.1,0.2-2.1,0.9-2.7c0.5-0.5,1.2-0.7,1.9-0.7c0.5,0,0.9,0.1,1.2,0.2l-0.2,1.1
			c-0.2-0.1-0.5-0.2-0.9-0.2c-1.2,0-1.5,1.1-1.5,2.2v0.4h1.9v1.1h-1.9v6.7H712.1z"/>
		<path d="M720.6,333.9l1,3.9c0.2,0.9,0.4,1.7,0.6,2.5h0c0.2-0.8,0.4-1.6,0.7-2.4l1.3-4h1.2l1.2,3.9c0.3,0.9,0.5,1.7,0.7,2.5h0
			c0.1-0.8,0.3-1.6,0.6-2.5l1.1-3.9h1.4l-2.5,7.7h-1.3l-1.2-3.7c-0.3-0.9-0.5-1.6-0.7-2.5h0c-0.2,0.9-0.4,1.7-0.7,2.6l-1.2,3.7h-1.3
			l-2.3-7.7L720.6,333.9L720.6,333.9z"/>
		<path d="M738.7,337.7c0,2.9-2,4.1-3.9,4.1c-2.1,0-3.7-1.5-3.7-4c0-2.6,1.7-4.1,3.8-4.1C737.2,333.7,738.7,335.3,738.7,337.7z
			 M732.5,337.8c0,1.7,1,3,2.4,3c1.3,0,2.4-1.3,2.4-3c0-1.3-0.7-3-2.3-3C733.3,334.8,732.5,336.3,732.5,337.8z"/>
		<path d="M740.5,336.3c0-0.9,0-1.7-0.1-2.4h1.2l0,1.5h0.1c0.4-1,1.2-1.7,2.1-1.7c0.2,0,0.3,0,0.4,0v1.3c-0.1,0-0.3,0-0.5,0
			c-1,0-1.7,0.8-1.9,1.8c0,0.2-0.1,0.4-0.1,0.7v4.1h-1.4L740.5,336.3L740.5,336.3z"/>
		<path d="M745.7,330.3h1.4v11.4h-1.4V330.3z"/>
		<path d="M756.2,330.3v9.4c0,0.7,0,1.5,0.1,2H755l-0.1-1.3h0c-0.4,0.9-1.4,1.5-2.6,1.5c-1.9,0-3.3-1.6-3.3-3.9
			c0-2.6,1.6-4.2,3.5-4.2c1.2,0,2,0.6,2.3,1.2h0v-4.6L756.2,330.3L756.2,330.3z M754.8,337c0-0.2,0-0.4-0.1-0.6
			c-0.2-0.9-1-1.6-2-1.6c-1.5,0-2.3,1.3-2.3,3c0,1.6,0.8,2.9,2.3,2.9c0.9,0,1.8-0.6,2.1-1.7c0-0.2,0.1-0.4,0.1-0.6V337z"/>
		<path d="M652.8,360.5c-0.4,0.2-1.2,0.4-2.2,0.4c-2.3,0-3.9-1.6-3.9-4c0-2.4,1.6-4.1,4.2-4.1c0.8,0,1.6,0.2,2,0.4l-0.3,1.1
			c-0.3-0.2-0.9-0.4-1.6-0.4c-1.8,0-2.7,1.3-2.7,2.9c0,1.8,1.2,2.9,2.7,2.9c0.8,0,1.3-0.2,1.7-0.4L652.8,360.5z"/>
		<path d="M661.4,356.9c0,2.9-2,4.1-3.9,4.1c-2.1,0-3.7-1.5-3.7-4c0-2.6,1.7-4.1,3.8-4.1C659.8,352.9,661.4,354.5,661.4,356.9z
			 M655.2,357c0,1.7,1,3,2.4,3c1.3,0,2.4-1.3,2.4-3c0-1.3-0.7-3-2.3-3C655.9,354,655.2,355.5,655.2,357z"/>
		<path d="M670.1,356.9c0,2.9-2,4.1-3.9,4.1c-2.1,0-3.7-1.5-3.7-4c0-2.6,1.7-4.1,3.8-4.1C668.6,352.9,670.1,354.5,670.1,356.9z
			 M664,357c0,1.7,1,3,2.4,3c1.3,0,2.4-1.3,2.4-3c0-1.3-0.7-3-2.3-3C664.7,354,664,355.5,664,357z"/>
		<path d="M671.9,355.5c0-0.9,0-1.7-0.1-2.4h1.2l0,1.5h0.1c0.4-1,1.2-1.7,2.1-1.7c0.2,0,0.3,0,0.4,0v1.3c-0.1,0-0.3,0-0.5,0
			c-1,0-1.7,0.8-1.9,1.8c0,0.2-0.1,0.4-0.1,0.7v4.1h-1.4L671.9,355.5L671.9,355.5z"/>
		<path d="M683.7,349.5v9.4c0,0.7,0,1.5,0.1,2h-1.3l-0.1-1.3h0c-0.4,0.9-1.4,1.5-2.6,1.5c-1.9,0-3.3-1.6-3.3-3.9
			c0-2.6,1.6-4.2,3.5-4.2c1.2,0,2,0.6,2.3,1.2h0v-4.6L683.7,349.5L683.7,349.5z M682.3,356.2c0-0.2,0-0.4-0.1-0.6
			c-0.2-0.9-1-1.6-2-1.6c-1.5,0-2.3,1.3-2.3,3c0,1.6,0.8,2.9,2.3,2.9c0.9,0,1.8-0.6,2.1-1.7c0-0.2,0.1-0.4,0.1-0.6L682.3,356.2
			L682.3,356.2z"/>
		<path d="M687.6,350.9c0,0.5-0.3,0.9-0.9,0.9c-0.5,0-0.8-0.4-0.8-0.9c0-0.5,0.4-0.9,0.9-0.9C687.2,350,687.6,350.4,687.6,350.9z
			 M686,360.8v-7.7h1.4v7.7H686z"/>
		<path d="M689.7,355.2c0-0.8,0-1.5-0.1-2.1h1.2l0.1,1.3h0c0.4-0.7,1.3-1.5,2.6-1.5c1.1,0,2.7,0.6,2.7,3.3v4.6h-1.4v-4.5
			c0-1.2-0.5-2.3-1.8-2.3c-0.9,0-1.6,0.7-1.9,1.4c-0.1,0.2-0.1,0.4-0.1,0.7v4.7h-1.4L689.7,355.2L689.7,355.2z"/>
		<path d="M702.9,360.8l-0.1-1h0c-0.4,0.6-1.3,1.2-2.4,1.2c-1.6,0-2.4-1.1-2.4-2.2c0-1.9,1.7-2.9,4.7-2.9v-0.2
			c0-0.6-0.2-1.8-1.8-1.8c-0.7,0-1.5,0.2-2,0.6l-0.3-0.9c0.6-0.4,1.6-0.7,2.5-0.7c2.4,0,2.9,1.6,2.9,3.2v2.9c0,0.7,0,1.3,0.1,1.9
			H702.9z M702.7,356.9c-1.5,0-3.3,0.2-3.3,1.7c0,0.9,0.6,1.3,1.3,1.3c1,0,1.6-0.6,1.9-1.3c0-0.1,0.1-0.3,0.1-0.4V356.9z"/>
		<path d="M708,350.8v2.2h2v1.1h-2v4.2c0,1,0.3,1.5,1.1,1.5c0.4,0,0.6,0,0.8-0.1l0.1,1.1c-0.3,0.1-0.7,0.2-1.2,0.2
			c-0.7,0-1.2-0.2-1.5-0.6c-0.4-0.4-0.5-1.1-0.5-2v-4.2h-1.2v-1.1h1.2v-1.9L708,350.8z"/>
		<path d="M712.3,357.2c0,1.9,1.2,2.7,2.7,2.7c1,0,1.6-0.2,2.1-0.4l0.2,1c-0.5,0.2-1.3,0.5-2.6,0.5c-2.4,0-3.8-1.6-3.8-3.9
			s1.4-4.2,3.6-4.2c2.5,0,3.2,2.2,3.2,3.6c0,0.3,0,0.5,0,0.7L712.3,357.2L712.3,357.2z M716.4,356.2c0-0.9-0.4-2.3-2-2.3
			c-1.4,0-2,1.3-2.2,2.3H716.4z"/>
		<path d="M722.7,359.4c0.4,0.3,1.2,0.6,1.9,0.6c1,0,1.5-0.5,1.5-1.2c0-0.7-0.4-1-1.4-1.4c-1.4-0.5-2-1.3-2-2.2c0-1.2,1-2.3,2.7-2.3
			c0.8,0,1.5,0.2,1.9,0.5l-0.4,1c-0.3-0.2-0.9-0.4-1.6-0.4c-0.8,0-1.3,0.5-1.3,1.1c0,0.6,0.5,0.9,1.5,1.3c1.3,0.5,2,1.2,2,2.3
			c0,1.4-1.1,2.3-2.9,2.3c-0.8,0-1.6-0.2-2.2-0.5L722.7,359.4z"/>
		<path d="M729.7,353.1l1.7,4.6c0.2,0.5,0.4,1.1,0.5,1.6h0c0.1-0.5,0.3-1.1,0.5-1.6l1.5-4.5h1.5l-2.1,5.5c-1,2.7-1.7,4-2.7,4.9
			c-0.7,0.6-1.4,0.8-1.7,0.9l-0.4-1.2c0.4-0.1,0.8-0.3,1.2-0.7c0.4-0.3,0.9-0.8,1.2-1.6c0.1-0.1,0.1-0.3,0.1-0.3s0-0.2-0.1-0.4
			l-2.9-7.1L729.7,353.1L729.7,353.1z"/>
		<path d="M736.5,359.4c0.4,0.3,1.2,0.6,1.9,0.6c1,0,1.5-0.5,1.5-1.2c0-0.7-0.4-1-1.4-1.4c-1.4-0.5-2-1.3-2-2.2c0-1.2,1-2.3,2.7-2.3
			c0.8,0,1.5,0.2,1.9,0.5l-0.4,1c-0.3-0.2-0.9-0.4-1.6-0.4c-0.8,0-1.3,0.5-1.3,1.1c0,0.6,0.5,0.9,1.5,1.3c1.3,0.5,2,1.2,2,2.3
			c0,1.4-1.1,2.3-2.9,2.3c-0.8,0-1.6-0.2-2.2-0.5L736.5,359.4z"/>
		<path d="M744.7,350.8v2.2h2v1.1h-2v4.2c0,1,0.3,1.5,1.1,1.5c0.4,0,0.6,0,0.8-0.1l0.1,1.1c-0.3,0.1-0.7,0.2-1.2,0.2
			c-0.7,0-1.2-0.2-1.5-0.6c-0.4-0.4-0.5-1.1-0.5-2v-4.2h-1.2v-1.1h1.2v-1.9L744.7,350.8z"/>
		<path d="M749,357.2c0,1.9,1.2,2.7,2.7,2.7c1,0,1.6-0.2,2.1-0.4l0.2,1c-0.5,0.2-1.3,0.5-2.6,0.5c-2.4,0-3.8-1.6-3.8-3.9
			s1.4-4.2,3.6-4.2c2.5,0,3.2,2.2,3.2,3.6c0,0.3,0,0.5,0,0.7L749,357.2L749,357.2z M753.1,356.2c0-0.9-0.4-2.3-2-2.3
			c-1.4,0-2,1.3-2.2,2.3H753.1z"/>
		<path d="M756.2,355.2c0-0.8,0-1.5-0.1-2.1h1.2l0.1,1.2h0c0.4-0.7,1.2-1.4,2.4-1.4c1.1,0,1.9,0.6,2.2,1.6h0c0.2-0.4,0.5-0.8,0.9-1
			c0.5-0.4,1-0.5,1.7-0.5c1,0,2.5,0.7,2.5,3.4v4.6h-1.4v-4.4c0-1.5-0.5-2.4-1.7-2.4c-0.8,0-1.4,0.6-1.7,1.3
			c-0.1,0.2-0.1,0.4-0.1,0.7v4.8h-1.4v-4.6c0-1.2-0.5-2.1-1.6-2.1c-0.9,0-1.5,0.7-1.7,1.4c-0.1,0.2-0.1,0.4-0.1,0.7v4.7h-1.4V355.2z
			"/>
	</g>
	<path class="st0" d="M805.4,405.1c-3,2.4-17.3,5.2-25.2,3.9c-15.3-2.4-34.3-22.6-38.5-37.3"/>
	<g>
		<g>
			
				<linearGradient id="SVGID_1_" gradientUnits="userSpaceOnUse" x1="197.5227" y1="58.6004" x2="774.7848" y2="58.6004" gradientTransform="matrix(1 0 0 -1 0 445.2756)">
				<stop  offset="0" style="stop-color:#CCCCCC"/>
				<stop  offset="0.5" style="stop-color:#F2F2F2"/>
				<stop  offset="1" style="stop-color:#CCCCCC"/>
			</linearGradient>
			<path class="st1" d="M212.9,331c7.3,9.3,15.7,17.6,24.7,25.2c9.1,7.5,18.8,14.1,28.9,20.1c10.1,5.9,20.8,11.1,31.5,15.7
				c10.8,4.6,21.9,8.7,33.1,12.3c22.4,7.2,45.4,12.7,68.6,16.9c23.2,4.3,46.6,7.4,70.1,9.5c23.5,2.2,47.1,3.5,70.8,4.1
				c11.8,0.3,23.6,0.5,35.5,0.4c11.8,0,23.7-0.3,35.5-0.7c11.8-0.4,23.6-0.9,35.5-1.7c11.8-0.8,23.6-1.6,35.4-2.7
				c23.6-2.3,47.1-5.1,70.4-9.6l0.3,1.3c-11.5,2.9-23.2,5.4-34.9,7.4c-11.7,2.1-23.5,3.9-35.3,5.4c-11.8,1.5-23.6,2.8-35.5,3.9
				c-11.8,1-23.7,1.9-35.6,2.6c-23.8,1.3-47.6,1.7-71.4,1.4c-23.8-0.4-47.6-1.6-71.3-3.8c-23.7-2.3-47.4-5.4-70.8-9.9
				c-11.7-2.3-23.4-4.9-34.9-7.9c-11.6-3-23-6.4-34.3-10.3c-22.6-7.9-44.6-17.6-64.9-30.4c-10.1-6.4-19.8-13.6-28.6-21.6
				c-8.9-8-16.9-17-23.8-26.7L212.9,331z"/>
			<g>
				
					<linearGradient id="SVGID_2_" gradientUnits="userSpaceOnUse" x1="197.5227" y1="119.0946" x2="774.7848" y2="119.0946" gradientTransform="matrix(1 0 0 -1 0 445.2756)">
					<stop  offset="0" style="stop-color:#CCCCCC"/>
					<stop  offset="0.5" style="stop-color:#F2F2F2"/>
					<stop  offset="1" style="stop-color:#CCCCCC"/>
				</linearGradient>
				<polygon class="st2" points="209.3,339 201.1,313.4 221,331.5 				"/>
			</g>
			<g>
				
					<linearGradient id="SVGID_3_" gradientUnits="userSpaceOnUse" x1="197.5227" y1="23.1536" x2="774.7848" y2="23.1536" gradientTransform="matrix(1 0 0 -1 0 445.2756)">
					<stop  offset="0" style="stop-color:#CCCCCC"/>
					<stop  offset="0.5" style="stop-color:#F2F2F2"/>
					<stop  offset="1" style="stop-color:#CCCCCC"/>
				</linearGradient>
				<polygon class="st3" points="750.2,428.9 773.6,415.5 746.6,415.4 				"/>
			</g>
		</g>
	</g>
	<g>
		<g>
			<line class="st4" x1="410.2" y1="7.9" x2="593.6" y2="56.2"/>
			<g>
				<polygon class="st5" points="410.8,9.5 405.9,6.7 411.5,6.7 				"/>
			</g>
			<g>
				<polygon class="st5" points="592.3,57.4 597.9,57.4 593,54.6 				"/>
			</g>
		</g>
	</g>
	<line class="st0" x1="597.9" y1="66.6" x2="597.9" y2="53.4"/>
	<line class="st0" x1="405.9" y1="16" x2="405.9" y2="2.7"/>
	<line class="st0" x1="610" y1="69.8" x2="597.9" y2="66.6"/>
	<line class="st0" x1="610" y1="327.6" x2="597.9" y2="324.4"/>
	<g>
		<g>
			<line class="st4" x1="606" y1="322.2" x2="606" y2="73.3"/>
			<g>
				<polygon class="st5" points="607.5,321.2 606,326.6 604.6,321.2 				"/>
			</g>
			<g>
				<polygon class="st5" points="607.5,74.2 606,68.8 604.6,74.2 				"/>
			</g>
		</g>
	</g>
	<g>
		<path d="M635.7,162.7v4.5h5.2v-4.5h1.4v10.8h-1.4v-5.1h-5.2v5.1h-1.4v-10.8H635.7z"/>
		<path d="M645.4,169.9c0,1.9,1.2,2.7,2.7,2.7c1,0,1.6-0.2,2.1-0.4l0.2,1c-0.5,0.2-1.3,0.5-2.6,0.5c-2.4,0-3.8-1.6-3.8-3.9
			s1.4-4.2,3.6-4.2c2.5,0,3.2,2.2,3.2,3.6c0,0.3,0,0.5,0,0.7L645.4,169.9L645.4,169.9z M649.6,168.9c0-0.9-0.4-2.3-2-2.3
			c-1.4,0-2,1.3-2.2,2.3H649.6z"/>
		<path d="M654.2,163.6c0,0.5-0.3,0.9-0.9,0.9c-0.5,0-0.8-0.4-0.8-0.9c0-0.5,0.4-0.9,0.9-0.9C653.9,162.7,654.2,163.1,654.2,163.6z
			 M652.7,173.5v-7.7h1.4v7.7H652.7z"/>
		<path d="M663.1,165.8c0,0.6-0.1,1.2-0.1,2.1v4.5c0,1.8-0.4,2.9-1.1,3.5c-0.8,0.7-1.8,0.9-2.8,0.9c-0.9,0-2-0.2-2.6-0.6l0.4-1.1
			c0.5,0.3,1.3,0.6,2.3,0.6c1.4,0,2.5-0.8,2.5-2.7v-0.9h0c-0.4,0.7-1.3,1.3-2.5,1.3c-1.9,0-3.3-1.6-3.3-3.8c0-2.6,1.7-4.1,3.5-4.1
			c1.3,0,2.1,0.7,2.4,1.3h0l0.1-1.2L663.1,165.8L663.1,165.8z M661.6,168.8c0-0.2,0-0.4-0.1-0.6c-0.3-0.8-0.9-1.5-2-1.5
			c-1.3,0-2.3,1.1-2.3,2.9c0,1.5,0.8,2.8,2.3,2.8c0.9,0,1.6-0.5,2-1.4c0.1-0.2,0.1-0.5,0.1-0.8L661.6,168.8L661.6,168.8z"/>
		<path d="M665.4,162.1h1.4v4.8h0c0.2-0.4,0.6-0.8,1-1c0.4-0.2,0.9-0.4,1.4-0.4c1,0,2.7,0.6,2.7,3.3v4.6h-1.4v-4.4
			c0-1.2-0.5-2.3-1.8-2.3c-0.9,0-1.6,0.6-1.9,1.4c-0.1,0.2-0.1,0.4-0.1,0.7v4.7h-1.4L665.4,162.1L665.4,162.1z"/>
		<path d="M675.9,163.5v2.2h2v1.1h-2v4.2c0,1,0.3,1.5,1.1,1.5c0.4,0,0.6,0,0.8-0.1l0.1,1.1c-0.3,0.1-0.7,0.2-1.2,0.2
			c-0.7,0-1.2-0.2-1.5-0.6c-0.4-0.4-0.5-1.1-0.5-2v-4.2h-1.2v-1.1h1.2v-1.9L675.9,163.5z"/>
		<path d="M682.3,168.1v-1h8.3v1H682.3z M682.3,171.2v-1h8.3v1H682.3z"/>
		<path d="M698.4,164.4L698.4,164.4l-1.8,1l-0.3-1.1l2.3-1.2h1.2v10.4h-1.4V164.4z"/>
	</g>
	<g>
		<path d="M540.8,26.2l-2.7-10.8h1.5l1.3,5.5c0.3,1.3,0.6,2.7,0.8,3.7h0c0.2-1.1,0.5-2.4,0.9-3.7l1.4-5.4h1.5l1.3,5.5
			c0.3,1.3,0.6,2.6,0.8,3.7h0c0.2-1.2,0.5-2.4,0.9-3.7l1.4-5.4h1.4l-3.1,10.8h-1.5l-1.4-5.6c-0.3-1.4-0.6-2.4-0.7-3.5h0
			c-0.2,1.1-0.4,2.1-0.8,3.5l-1.5,5.6L540.8,26.2L540.8,26.2z"/>
		<path d="M553.8,16.3c0,0.5-0.3,0.9-0.9,0.9c-0.5,0-0.8-0.4-0.8-0.9c0-0.5,0.4-0.9,0.9-0.9C553.5,15.4,553.8,15.8,553.8,16.3z
			 M552.3,26.2v-7.7h1.4v7.7H552.3z"/>
		<path d="M562.7,14.9v9.4c0,0.7,0,1.5,0.1,2h-1.3l-0.1-1.3h0c-0.4,0.9-1.4,1.5-2.6,1.5c-1.9,0-3.3-1.6-3.3-3.9
			c0-2.6,1.6-4.2,3.5-4.2c1.2,0,2,0.6,2.3,1.2h0v-4.6C561.3,14.9,562.7,14.9,562.7,14.9z M561.3,21.7c0-0.2,0-0.4-0.1-0.6
			c-0.2-0.9-1-1.6-2-1.6c-1.5,0-2.3,1.3-2.3,3c0,1.6,0.8,2.9,2.3,2.9c0.9,0,1.8-0.6,2.1-1.7c0-0.2,0.1-0.4,0.1-0.6V21.7z"/>
		<path d="M566.7,16.3v2.2h2v1.1h-2v4.2c0,1,0.3,1.5,1.1,1.5c0.4,0,0.6,0,0.8-0.1l0.1,1.1c-0.3,0.1-0.7,0.2-1.2,0.2
			c-0.7,0-1.2-0.2-1.5-0.6c-0.4-0.4-0.5-1.1-0.5-2v-4.2h-1.2v-1.1h1.2v-1.9L566.7,16.3z"/>
		<path d="M570.3,14.9h1.4v4.8h0c0.2-0.4,0.6-0.8,1-1c0.4-0.2,0.9-0.4,1.4-0.4c1,0,2.7,0.6,2.7,3.3v4.6h-1.4v-4.5
			c0-1.2-0.5-2.3-1.8-2.3c-0.9,0-1.6,0.6-1.9,1.4c-0.1,0.2-0.1,0.4-0.1,0.7v4.7h-1.4L570.3,14.9L570.3,14.9z"/>
		<path d="M582.1,20.8v-1h8.3v1H582.1z M582.1,24v-1h8.3v1H582.1z"/>
		<path d="M597.3,22.9l-1.1,3.4h-1.4l3.7-10.8h1.7l3.7,10.8h-1.5l-1.2-3.4C601.1,22.9,597.3,22.9,597.3,22.9z M600.9,21.8l-1.1-3.1
			c-0.2-0.7-0.4-1.3-0.6-2h0c-0.2,0.6-0.3,1.3-0.5,2l-1.1,3.1H600.9z"/>
		<path d="M605,24.8c0.4,0.3,1.2,0.6,1.9,0.6c1,0,1.5-0.5,1.5-1.2c0-0.7-0.4-1-1.4-1.4c-1.4-0.5-2-1.3-2-2.2c0-1.2,1-2.3,2.7-2.3
			c0.8,0,1.5,0.2,1.9,0.5l-0.4,1c-0.3-0.2-0.9-0.4-1.6-0.4c-0.8,0-1.3,0.5-1.3,1.1c0,0.6,0.5,0.9,1.5,1.3c1.3,0.5,2,1.2,2,2.3
			c0,1.4-1.1,2.3-2.9,2.3c-0.8,0-1.6-0.2-2.2-0.5L605,24.8z"/>
		<path d="M611.6,21c0-1,0-1.8-0.1-2.5h1.3l0.1,1.3h0c0.6-0.9,1.5-1.5,2.8-1.5c1.9,0,3.3,1.6,3.3,3.9c0,2.8-1.7,4.2-3.5,4.2
			c-1,0-1.9-0.4-2.4-1.2h0v4.2h-1.4L611.6,21L611.6,21z M612.9,23.1c0,0.2,0,0.4,0.1,0.6c0.3,1,1.1,1.6,2.1,1.6c1.5,0,2.4-1.2,2.4-3
			c0-1.6-0.8-2.9-2.3-2.9c-1,0-1.9,0.7-2.1,1.7c0,0.2-0.1,0.4-0.1,0.6L612.9,23.1L612.9,23.1z"/>
		<path d="M621.4,22.6c0,1.9,1.2,2.7,2.7,2.7c1,0,1.6-0.2,2.1-0.4l0.2,1c-0.5,0.2-1.3,0.5-2.6,0.5c-2.4,0-3.8-1.6-3.8-3.9
			s1.4-4.2,3.6-4.2c2.5,0,3.2,2.2,3.2,3.6c0,0.3,0,0.5,0,0.7L621.4,22.6L621.4,22.6z M625.6,21.6c0-0.9-0.4-2.3-2-2.3
			c-1.4,0-2,1.3-2.2,2.3H625.6z"/>
		<path d="M634.2,26c-0.4,0.2-1.2,0.4-2.2,0.4c-2.3,0-3.9-1.6-3.9-4c0-2.4,1.6-4.1,4.2-4.1c0.8,0,1.6,0.2,2,0.4l-0.3,1.1
			c-0.3-0.2-0.9-0.4-1.6-0.4c-1.8,0-2.7,1.3-2.7,2.9c0,1.8,1.2,2.9,2.7,2.9c0.8,0,1.3-0.2,1.7-0.4L634.2,26z"/>
		<path d="M637.7,16.3v2.2h2v1.1h-2v4.2c0,1,0.3,1.5,1.1,1.5c0.4,0,0.6,0,0.8-0.1l0.1,1.1c-0.3,0.1-0.7,0.2-1.2,0.2
			c-0.7,0-1.2-0.2-1.5-0.6c-0.4-0.4-0.5-1.1-0.5-2v-4.2h-1.2v-1.1h1.2v-1.9L637.7,16.3z"/>
		<path d="M644.7,20.9c0-0.9,0-1.7-0.1-2.4h1.2l0,1.5h0.1c0.4-1,1.2-1.7,2.1-1.7c0.2,0,0.3,0,0.4,0v1.3c-0.1,0-0.3,0-0.5,0
			c-1,0-1.7,0.8-1.9,1.8c0,0.2-0.1,0.4-0.1,0.7v4.1h-1.4V20.9z"/>
		<path d="M654.2,26.2l-0.1-1h0c-0.4,0.6-1.3,1.2-2.4,1.2c-1.6,0-2.4-1.1-2.4-2.2c0-1.9,1.7-2.9,4.7-2.9v-0.2c0-0.6-0.2-1.8-1.8-1.8
			c-0.7,0-1.5,0.2-2,0.6l-0.3-0.9c0.6-0.4,1.6-0.7,2.5-0.7c2.4,0,2.9,1.6,2.9,3.2v2.9c0,0.7,0,1.3,0.1,1.9L654.2,26.2L654.2,26.2z
			 M654,22.3c-1.5,0-3.3,0.2-3.3,1.7c0,0.9,0.6,1.3,1.3,1.3c1,0,1.6-0.6,1.9-1.3c0-0.1,0.1-0.3,0.1-0.4V22.3z"/>
		<path d="M659.2,16.3v2.2h2v1.1h-2v4.2c0,1,0.3,1.5,1.1,1.5c0.4,0,0.6,0,0.8-0.1l0.1,1.1c-0.3,0.1-0.7,0.2-1.2,0.2
			c-0.7,0-1.2-0.2-1.5-0.6c-0.4-0.4-0.5-1.1-0.5-2v-4.2h-1.2v-1.1h1.2v-1.9L659.2,16.3z"/>
		<path d="M664.4,16.3c0,0.5-0.3,0.9-0.9,0.9c-0.5,0-0.8-0.4-0.8-0.9c0-0.5,0.4-0.9,0.9-0.9C664.1,15.4,664.4,15.8,664.4,16.3z
			 M662.8,26.2v-7.7h1.4v7.7H662.8z"/>
		<path d="M673.6,22.3c0,2.9-2,4.1-3.9,4.1c-2.1,0-3.7-1.5-3.7-4c0-2.6,1.7-4.1,3.8-4.1C672.1,18.3,673.6,19.9,673.6,22.3z
			 M667.4,22.4c0,1.7,1,3,2.4,3c1.3,0,2.4-1.3,2.4-3c0-1.3-0.7-3-2.3-3C668.2,19.4,667.4,20.9,667.4,22.4z"/>
	</g>
	<path class="st0" d="M405.5,46.2C394.8,45.7,379,40,372.8,32s-16.2-12.4-24.7-12.7"/>
	<path class="st0" d="M511.4,34.6c5.5-10.7,14.5-13.4,23.7-13.4"/>
	<path class="st0" d="M606,178.1c9.3-0.3,11.2-3.2,13-5.6s6.1-3.7,11.6-3.7"/>
	<g>
		<g>
			<g>
				<path class="st0" d="M197.5,255.3c2.7-0.7,4.5-1.9,4.5-3.2c0-2.1-4.5-3.9-10-3.9s-10,1.7-10,3.9c0,0.8,0.7,1.6,1.8,2.2"/>
				<g>
					<polygon class="st5" points="182.5,255.9 186.5,255.3 184,252.2 					"/>
				</g>
			</g>
		</g>
	</g>
	<g class="st6">
		<path class="st7" d="M231.8,211.9c-1.9,1.2-4.1,1.9-6.5,1.9c-2.4,0-4.6-0.7-6.5-1.9"/>
		<g class="st8">
			<g>
				<path class="st0" d="M235,208.8c1.3-1.9,2.1-4.2,2.1-6.6c0-6.5-5.2-11.7-11.7-11.7s-11.7,5.2-11.7,11.7c0,4.1,2.1,7.6,5.2,9.7"
					/>
				<g>
					<polygon class="st5" points="236.6,209 231.8,211.9 234.5,207 					"/>
				</g>
			</g>
		</g>
	</g>
	<g>
		<g>
			<g>
				<path class="st0" d="M163.4,289.7c-1.3-2.5-2.9-4-4.2-3.8c-2.1,0.5-2.9,5.3-1.7,10.8c1.2,5.5,3.9,9.6,6,9.1
					c0.8-0.2,1.5-1,1.8-2.3"/>
				<g>
					<polygon class="st5" points="167.2,304.4 165.8,300.7 163.3,303.8 					"/>
				</g>
			</g>
		</g>
	</g>
	<g>
		<g>
			<g>
				<path class="st0" d="M214.8,294.4c1.3-0.7,2.4-0.8,3.2-0.3c1.9,1.3,0.9,6.2-2.2,11s-7.3,7.7-9.3,6.4c-1.2-0.8-1.3-3.1-0.4-5.8"
					/>
				<g>
					<polygon class="st5" points="216.4,295.8 212.5,296.1 214.2,292.5 					"/>
				</g>
			</g>
		</g>
	</g>
	<g>
		<path d="M212.9,317.1c0,0.7,0.4,1.3,1,1.3c0.6,0,1.2-0.7,1.2-2.3c0-1.1-0.4-2.2-1-2.7v0h1c0.5,0.4,1,1.5,1,2.8
			c0,2.2-1.1,3.2-2.2,3.2c-0.7,0-1.3-0.4-1.5-1h0c-0.3,0.6-0.8,1-1.5,1c-1,0-2.1-0.9-2.1-3.1c0-1.3,0.5-2.4,1-2.9h1v0
			c-0.5,0.6-1,1.6-1,2.8c0,1.6,0.7,2.2,1.2,2.2c0.5,0,1-0.6,1-1.3l0-2.2h1L212.9,317.1z"/>
	</g>
	<g>
		<path d="M158.1,314.4v-4.5c0-0.5,0-1-0.1-1.3h1c0.1,0.1,0.2,0.5,0.2,1v1.6h0c1-1,1.9-1.9,2.5-2.6h1.2v0c-0.8,0.8-1.7,1.7-2.8,2.6
			v0c0.6,0.1,1.2,0.9,1.8,1.7l1.1,1.5h-1.2l-0.9-1.2c-0.6-0.8-1.1-1.3-1.7-1.3h-0.1v2.6L158.1,314.4L158.1,314.4z"/>
	</g>
	<g>
		<path d="M177.5,243c-0.6,0.4-1.4,1.2-1.4,2.4c0,1.2,0.6,2.1,1.9,2.3v-3.5c0-1.2,0.7-1.8,1.5-1.8c1.1,0,2.4,1.1,2.4,2.9
			c0,2-1.4,3-2.9,3.2v2.3h-1v-2.3c-1.4-0.1-2.9-1-2.9-3c0-1.7,1.2-2.7,2-3L177.5,243z M179,247.7c1.1-0.2,1.9-1,1.9-2.4
			c0-1.2-0.7-2.1-1.4-2.1c-0.3,0-0.5,0.3-0.5,0.8V247.7z"/>
	</g>
</g>
<g id="Ebene_1_1_">
	<path class="st9" d="M865.8,237.4v-79L841,133.2v-19.3c0,0,8-3.2,11.6-7.8c5-6.5,5.5-17.9-3-28.9c-7.7-9.9-24.1-16.3-24.1-16.3
		l5.3-10.9l-6.6-6.1l-3.3-18.4l0.4-14.8l-8.8-6.3l-8.8,1.6l0.4,15l-3.3,16.7l-6.6,2.6l5.3,13.7c0,0-16.5-2.4-24.1,3.5
		c-8.5,6.5-8,18.2-3,27.3c3.6,6.6,11.6,14,11.6,14V118l-24.8,12.1v79l-103.1-27.4v105.7l136.5,36.3c0-24,0-47.9,0-71.9
		c0-17.8,14.1-17,19.9-15.4c5.3,1.4,19.9,8.4,19.9,26c0,24,0,47.9,0,71.9l136.5,36.3V264.8L865.8,237.4z M832.4,216.3l-19.9-5.3
		l-19.9-5.3c0,0,0-38.3,0-51.7c0-9,8.6-16.5,19.9-13.3c11.4,2.9,19.9,14.8,19.9,23.9C832.4,177.9,832.4,216.3,832.4,216.3z"/>
	<g class="st6">
		<g class="st8">
			<g class="st10">
				<g>
					<polygon class="st11" points="644.3,242.4 696.8,230.4 787,246.3 734.5,258.3 					"/>
				</g>
				<g class="st10">
					<g>
						<defs>
							<path id="SVGID_4_" d="M775.3,281.5l52.5-12c-5.4,1.2-11.6,6-11.6,20.3c0,27.2,0,54.4,0,81.7l-52.5,12c0-27.2,0-54.4,0-81.7
								C763.7,287.5,769.9,282.8,775.3,281.5z"/>
						</defs>
						<clipPath id="SVGID_5_">
							<use xlink:href="#SVGID_4_"  style="overflow:visible;"/>
						</clipPath>
						<g class="st12">
							<path class="st13" d="M775.3,281.5l52.5-12c-1.9,0.4-3.9,1.3-5.7,2.9l-52.5,12C771.4,282.9,773.4,282,775.3,281.5"/>
							<path class="st14" d="M769.6,284.4l52.5-12c-0.2,0.1-0.3,0.3-0.5,0.4l-52.5,12C769.3,284.7,769.5,284.6,769.6,284.4"/>
							<path class="st14" d="M769.2,284.8l52.5-12c-0.1,0.1-0.2,0.2-0.3,0.3l-52.5,12C768.9,285.1,769.1,285,769.2,284.8"/>
							<path class="st15" d="M768.8,285.2l52.5-12c-0.1,0.1-0.2,0.2-0.3,0.3l-52.5,12C768.6,285.4,768.7,285.3,768.8,285.2"/>
							<path class="st15" d="M768.5,285.5l52.5-12c-0.1,0.1-0.2,0.2-0.2,0.3l-52.5,12C768.4,285.7,768.4,285.6,768.5,285.5"/>
							<path class="st16" d="M768.3,285.8l52.5-12c-0.1,0.1-0.1,0.1-0.2,0.2l-52.5,12C768.1,285.9,768.2,285.9,768.3,285.8"/>
							<path class="st16" d="M768.1,286l52.5-12c-0.1,0.1-0.1,0.2-0.2,0.2l-52.5,12C768,286.2,768,286.1,768.1,286"/>
							<path class="st16" d="M767.9,286.3l52.5-12c-0.1,0.1-0.1,0.2-0.2,0.2l-52.5,12C767.8,286.4,767.8,286.3,767.9,286.3"/>
							<path class="st17" d="M767.7,286.5l52.5-12c-0.1,0.1-0.1,0.2-0.2,0.2l-52.5,12C767.6,286.7,767.7,286.6,767.7,286.5"/>
							<path class="st17" d="M767.5,286.7l52.5-12c-0.1,0.1-0.1,0.2-0.2,0.2l-52.5,12C767.4,286.9,767.5,286.8,767.5,286.7"/>
							<path class="st18" d="M767.4,287l52.5-12c0,0.1-0.1,0.1-0.1,0.2l-52.5,12C767.3,287.1,767.3,287,767.4,287"/>
							<path class="st18" d="M767.3,287.1l52.5-12c0,0.1-0.1,0.1-0.1,0.2l-52.5,12C767.2,287.3,767.2,287.2,767.3,287.1"/>
							<path class="st19" d="M767.1,287.3l52.5-12c0,0.1-0.1,0.1-0.1,0.2l-52.5,12C767,287.5,767.1,287.4,767.1,287.3"/>
							<path class="st19" d="M767,287.5l52.5-12c0,0.1-0.1,0.1-0.1,0.2l-52.5,12C766.9,287.7,767,287.6,767,287.5"/>
							<path class="st19" d="M766.9,287.7l52.5-12c0,0.1-0.1,0.1-0.1,0.2l-52.5,12C766.8,287.9,766.8,287.8,766.9,287.7"/>
							<path class="st20" d="M766.8,287.9l52.5-12c0,0.1-0.1,0.1-0.1,0.2l-52.5,12C766.7,288.1,766.7,288,766.8,287.9"/>
							<path class="st20" d="M766.7,288.1l52.5-12c0,0.1-0.1,0.1-0.1,0.2l-52.5,12C766.6,288.3,766.6,288.2,766.7,288.1"/>
							<path class="st21" d="M766.5,288.3l52.5-12c0,0.1-0.1,0.1-0.1,0.2l-52.5,12C766.5,288.5,766.5,288.4,766.5,288.3"/>
							<path class="st21" d="M766.4,288.5l52.5-12c0,0.1-0.1,0.1-0.1,0.2l-52.5,12C766.4,288.6,766.4,288.6,766.4,288.5"/>
							<path class="st22" d="M766.4,288.7l52.5-12c0,0.1-0.1,0.1-0.1,0.2l-52.5,12C766.3,288.8,766.3,288.7,766.4,288.7"/>
							<path class="st22" d="M766.3,288.9l52.5-12c0,0.1-0.1,0.1-0.1,0.2l-52.5,12C766.2,289,766.2,288.9,766.3,288.9"/>
							<path class="st22" d="M766.2,289l52.5-12c0,0.1-0.1,0.1-0.1,0.2l-52.5,12C766.1,289.2,766.1,289.1,766.2,289"/>
							<path class="st23" d="M766.1,289.2l52.5-12c0,0.1-0.1,0.1-0.1,0.2l-52.5,12C766,289.3,766.1,289.3,766.1,289.2"/>
							<path class="st23" d="M766,289.4l52.5-12c0,0.1-0.1,0.1-0.1,0.2l-52.5,12C765.9,289.5,766,289.5,766,289.4"/>
							<path class="st24" d="M765.9,289.6l52.5-12c0,0.1-0.1,0.1-0.1,0.2l-52.5,12C765.9,289.7,765.9,289.7,765.9,289.6"/>
							<path class="st24" d="M765.8,289.8l52.5-12c0,0.1-0.1,0.1-0.1,0.2l-52.5,12C765.8,289.9,765.8,289.8,765.8,289.8"/>
							<path class="st25" d="M765.8,290l52.5-12c0,0.1,0,0.1-0.1,0.2l-52.5,12C765.7,290.1,765.7,290,765.8,290"/>
							<path class="st25" d="M765.7,290.1l52.5-12c0,0.1,0,0.1-0.1,0.2l-52.5,12C765.6,290.3,765.7,290.2,765.7,290.1"/>
							<path class="st26" d="M765.6,290.3l52.5-12c0,0.1,0,0.1-0.1,0.2l-52.5,12C765.6,290.4,765.6,290.4,765.6,290.3"/>
							<path class="st26" d="M765.5,290.5l52.5-12c0,0.1,0,0.1-0.1,0.2l-52.5,12C765.5,290.6,765.5,290.6,765.5,290.5"/>
							<path class="st26" d="M765.5,290.7l52.5-12c0,0.1,0,0.1-0.1,0.2l-52.5,12C765.4,290.8,765.4,290.7,765.5,290.7"/>
							<path class="st27" d="M765.4,290.9l52.5-12c0,0.1,0,0.1-0.1,0.2l-52.5,12C765.4,291,765.4,290.9,765.4,290.9"/>
							<path class="st27" d="M765.3,291l52.5-12c0,0.1,0,0.1-0.1,0.2l-52.5,12C765.3,291.2,765.3,291.1,765.3,291"/>
							<path class="st28" d="M765.3,291.2l52.5-12c0,0.1,0,0.1-0.1,0.2l-52.5,12C765.2,291.4,765.2,291.3,765.3,291.2"/>
							<path class="st28" d="M765.2,291.4l52.5-12c0,0.1,0,0.1-0.1,0.2l-52.5,12C765.2,291.5,765.2,291.5,765.2,291.4"/>
							<path class="st29" d="M765.1,291.6l52.5-12c0,0.1,0,0.1-0.1,0.2l-52.5,12C765.1,291.7,765.1,291.7,765.1,291.6"/>
							<path class="st29" d="M765.1,291.8l52.5-12c0,0.1,0,0.1-0.1,0.2L765,292C765,291.9,765.1,291.9,765.1,291.8"/>
							<path class="st29" d="M765,292l52.5-12c0,0.1,0,0.1-0.1,0.2l-52.5,12C765,292.1,765,292.1,765,292"/>
							<path class="st30" d="M765,292.2l52.5-12c0,0.1,0,0.1-0.1,0.2l-52.5,12C764.9,292.3,764.9,292.2,765,292.2"/>
							<path class="st30" d="M764.9,292.4l52.5-12c0,0.1,0,0.1-0.1,0.2l-52.5,12C764.9,292.5,764.9,292.4,764.9,292.4"/>
							<path class="st31" d="M764.9,292.6l52.5-12c0,0.1,0,0.1-0.1,0.2l-52.5,12C764.8,292.7,764.8,292.6,764.9,292.6"/>
							<path class="st31" d="M764.8,292.8l52.5-12c0,0.1,0,0.1-0.1,0.2l-52.5,12C764.8,292.9,764.8,292.8,764.8,292.8"/>
							<path class="st32" d="M764.7,293l52.5-12c0,0.1,0,0.1-0.1,0.2l-52.5,12C764.7,293.1,764.7,293,764.7,293"/>
							<path class="st32" d="M764.7,293.2l52.5-12c0,0.1,0,0.1,0,0.2l-52.5,12C764.7,293.3,764.7,293.2,764.7,293.2"/>
							<path class="st32" d="M764.6,293.4l52.5-12c0,0.1,0,0.1,0,0.2l-52.5,12C764.6,293.5,764.6,293.4,764.6,293.4"/>
							<path class="st33" d="M764.6,293.6l52.5-12c0,0.1,0,0.1,0,0.2l-52.5,12C764.6,293.7,764.6,293.6,764.6,293.6"/>
							<path class="st33" d="M764.5,293.8l52.5-12c0,0.1,0,0.1,0,0.2l-52.5,12C764.5,293.9,764.5,293.8,764.5,293.8"/>
							<path class="st34" d="M764.5,294l52.5-12c0,0.1,0,0.1,0,0.2l-52.5,12C764.5,294.1,764.5,294,764.5,294"/>
							<path class="st34" d="M764.5,294.2l52.5-12c0,0.1,0,0.1,0,0.2l-52.5,12C764.4,294.3,764.4,294.3,764.5,294.2"/>
							<path class="st35" d="M764.4,294.4l52.5-12c0,0.1,0,0.1,0,0.2l-52.5,12C764.4,294.6,764.4,294.5,764.4,294.4"/>
							<path class="st35" d="M764.4,294.6l52.5-12c0,0.1,0,0.1,0,0.2l-52.5,12C764.3,294.8,764.4,294.7,764.4,294.6"/>
							<path class="st35" d="M764.3,294.8l52.5-12c0,0.1,0,0.1,0,0.2l-52.5,12C764.3,295,764.3,294.9,764.3,294.8"/>
							<path class="st11" d="M764.3,295.1l52.5-12c0,0.1,0,0.1,0,0.2l-52.5,12C764.3,295.2,764.3,295.1,764.3,295.1"/>
							<path class="st11" d="M764.2,295.3l52.5-12c0,0.1,0,0.2,0,0.2l-52.5,12C764.2,295.4,764.2,295.4,764.2,295.3"/>
							<path class="st36" d="M764.2,295.5l52.5-12c0,0.1,0,0.2,0,0.2l-52.5,12C764.2,295.7,764.2,295.6,764.2,295.5"/>
							<path class="st36" d="M764.2,295.8l52.5-12c0,0.1,0,0.2,0,0.2l-52.5,12C764.1,295.9,764.2,295.8,764.2,295.8"/>
							<path class="st37" d="M764.1,296l52.5-12c0,0.1,0,0.2,0,0.2l-52.5,12C764.1,296.1,764.1,296.1,764.1,296"/>
							<path class="st37" d="M764.1,296.2l52.5-12c0,0.1,0,0.2,0,0.2l-52.5,12C764.1,296.4,764.1,296.3,764.1,296.2"/>
							<path class="st37" d="M764.1,296.5l52.5-12c0,0.1,0,0.2,0,0.3l-52.5,12C764,296.6,764.1,296.6,764.1,296.5"/>
							<path class="st38" d="M764,296.7l52.5-12c0,0.1,0,0.2,0,0.3L764,297C764,296.9,764,296.8,764,296.7"/>
							<path class="st38" d="M764,297l52.5-12c0,0.1,0,0.2,0,0.3l-52.5,12C764,297.2,764,297.1,764,297"/>
							<path class="st39" d="M764,297.3l52.5-12c0,0.1,0,0.2,0,0.3l-52.5,12C764,297.4,764,297.3,764,297.3"/>
							<path class="st39" d="M763.9,297.5l52.5-12c0,0.1,0,0.2,0,0.3l-52.5,12C763.9,297.7,763.9,297.6,763.9,297.5"/>
							<path class="st40" d="M763.9,297.8l52.5-12c0,0.1,0,0.2,0,0.3l-52.5,12C763.9,298,763.9,297.9,763.9,297.8"/>
							<path class="st40" d="M763.9,298.1l52.5-12c0,0.1,0,0.2,0,0.3l-52.5,12C763.9,298.2,763.9,298.2,763.9,298.1"/>
							<path class="st40" d="M763.9,298.3l52.5-12c0,0.1,0,0.2,0,0.3l-52.5,12C763.9,298.5,763.9,298.4,763.9,298.3"/>
							<path class="st41" d="M763.9,298.6l52.5-12c0,0.1,0,0.2,0,0.3l-52.5,12C763.8,298.8,763.8,298.7,763.9,298.6"/>
							<path class="st41" d="M763.8,298.9l52.5-12c0,0.1,0,0.2,0,0.3l-52.5,12C763.8,299.1,763.8,299,763.8,298.9"/>
							<path class="st42" d="M763.8,299.2l52.5-12c0,0.1,0,0.2,0,0.3l-52.5,12C763.8,299.4,763.8,299.3,763.8,299.2"/>
							<path class="st42" d="M763.8,299.5l52.5-12c0,0.1,0,0.2,0,0.3l-52.5,12C763.8,299.8,763.8,299.6,763.8,299.5"/>
							<path class="st43" d="M763.8,299.9l52.5-12c0,0.1,0,0.2,0,0.3l-52.5,12C763.8,300.1,763.8,300,763.8,299.9"/>
							<path class="st43" d="M763.8,300.2l52.5-12c0,0.1,0,0.2,0,0.3l-52.5,12C763.8,300.4,763.8,300.3,763.8,300.2"/>
							<path class="st43" d="M763.8,300.5l52.5-12c0,0.1,0,0.2,0,0.3l-52.5,12C763.8,300.7,763.8,300.6,763.8,300.5"/>
							<path class="st44" d="M763.7,300.9l52.5-12c0,0.1,0,0.2,0,0.3l-52.5,12C763.7,301.1,763.7,301,763.7,300.9"/>
							<path class="st44" d="M763.7,301.2l52.5-12c0,0.1,0,0.2,0,0.3l-52.5,12C763.7,301.4,763.7,301.3,763.7,301.2"/>
							<path class="st45" d="M763.7,301.6l52.5-12c0,0.1,0,0.2,0,0.3c0,27.2,0,54.4,0,81.7l-52.5,12c0-27.2,0-54.4,0-81.7
								C763.7,301.8,763.7,301.7,763.7,301.6"/>
						</g>
					</g>
				</g>
				<g class="st10">
					<g>
						<defs>
							<path id="SVGID_6_" d="M763.7,190.9l52.5-12c0,15.1,0,56.5,0,58.7l-52.5,12C763.7,247.4,763.7,206,763.7,190.9z"/>
						</defs>
						<clipPath id="SVGID_7_">
							<use xlink:href="#SVGID_6_"  style="overflow:visible;"/>
						</clipPath>
						<g class="st46">
							<path class="st45" d="M763.7,190.9l52.5-12c0,15.1,0,56.5,0,58.7l-52.5,12C763.7,247.4,763.7,206,763.7,190.9"/>
						</g>
					</g>
				</g>
				<g class="st10">
					<g>
						<defs>
							<path id="SVGID_8_" d="M775.9,172.9l52.5-12c-7.2,1.6-12.2,9.6-12.2,18l-52.5,12C763.7,182.5,768.7,174.5,775.9,172.9z"/>
						</defs>
						<clipPath id="SVGID_9_">
							<use xlink:href="#SVGID_8_"  style="overflow:visible;"/>
						</clipPath>
						<g class="st47">
							<path class="st13" d="M775.9,172.9l52.5-12c-2.2,0.5-4.1,1.6-5.8,3l-52.5,12C771.7,174.4,773.7,173.3,775.9,172.9"/>
							<path class="st14" d="M770,175.9l52.5-12c-0.2,0.2-0.4,0.4-0.6,0.6l-52.5,12C769.6,176.3,769.8,176.1,770,175.9"/>
							<path class="st14" d="M769.4,176.5l52.5-12c-0.1,0.1-0.3,0.3-0.4,0.4l-52.5,12C769.2,176.7,769.3,176.6,769.4,176.5"/>
							<path class="st15" d="M769,176.9l52.5-12c-0.1,0.1-0.3,0.3-0.4,0.4l-52.5,12C768.8,177.1,768.9,177,769,176.9"/>
							<path class="st15" d="M768.7,177.3l52.5-12c-0.1,0.1-0.2,0.2-0.3,0.3l-52.5,12C768.5,177.5,768.6,177.4,768.7,177.3"/>
							<path class="st16" d="M768.4,177.6l52.5-12c-0.1,0.1-0.2,0.2-0.3,0.3l-52.5,12C768.2,177.8,768.3,177.7,768.4,177.6"/>
							<path class="st16" d="M768.1,177.9l52.5-12c-0.1,0.1-0.2,0.2-0.2,0.3l-52.5,12C768,178.1,768.1,178,768.1,177.9"/>
							<path class="st16" d="M767.9,178.2l52.5-12c-0.1,0.1-0.2,0.2-0.2,0.3l-52.5,12C767.7,178.4,767.8,178.3,767.9,178.2"/>
							<path class="st17" d="M767.7,178.5l52.5-12c-0.1,0.1-0.1,0.2-0.2,0.3l-52.5,12C767.5,178.7,767.6,178.6,767.7,178.5"/>
							<path class="st17" d="M767.5,178.7l52.5-12c-0.1,0.1-0.1,0.2-0.2,0.3l-52.5,12C767.4,178.9,767.4,178.8,767.5,178.7"/>
							<path class="st18" d="M767.3,179l52.5-12c-0.1,0.1-0.1,0.2-0.2,0.3l-52.5,12C767.2,179.2,767.2,179.1,767.3,179"/>
							<path class="st18" d="M767.1,179.3l52.5-12c-0.1,0.1-0.1,0.2-0.2,0.3l-52.5,12C767,179.4,767.1,179.3,767.1,179.3"/>
							<path class="st19" d="M766.9,179.5l52.5-12c0,0.1-0.1,0.2-0.1,0.2l-52.5,12C766.8,179.7,766.9,179.6,766.9,179.5"/>
							<path class="st19" d="M766.8,179.8l52.5-12c0,0.1-0.1,0.1-0.1,0.2l-52.5,12C766.7,179.9,766.8,179.8,766.8,179.8"/>
							<path class="st19" d="M766.7,180l52.5-12c0,0.1-0.1,0.2-0.1,0.2l-52.5,12C766.6,180.1,766.6,180.1,766.7,180"/>
							<path class="st20" d="M766.5,180.2l52.5-12c0,0.1-0.1,0.2-0.1,0.2l-52.5,12C766.4,180.4,766.5,180.3,766.5,180.2"/>
							<path class="st20" d="M766.4,180.4l52.5-12c0,0.1-0.1,0.2-0.1,0.2l-52.5,12C766.3,180.6,766.4,180.5,766.4,180.4"/>
							<path class="st21" d="M766.3,180.7l52.5-12c0,0.1-0.1,0.1-0.1,0.2l-52.5,12C766.2,180.8,766.2,180.7,766.3,180.7"/>
							<path class="st21" d="M766.1,180.9l52.5-12c0,0.1-0.1,0.1-0.1,0.2l-52.5,12C766.1,181,766.1,181,766.1,180.9"/>
							<path class="st22" d="M766,181.1l52.5-12c0,0.1-0.1,0.1-0.1,0.2l-52.5,12C766,181.2,766,181.2,766,181.1"/>
							<path class="st22" d="M765.9,181.3l52.5-12c0,0.1-0.1,0.1-0.1,0.2l-52.5,12C765.9,181.4,765.9,181.4,765.9,181.3"/>
							<path class="st22" d="M765.8,181.5l52.5-12c0,0.1-0.1,0.1-0.1,0.2l-52.5,12C765.8,181.6,765.8,181.6,765.8,181.5"/>
							<path class="st23" d="M765.7,181.7l52.5-12c0,0.1-0.1,0.1-0.1,0.2l-52.5,12C765.7,181.9,765.7,181.8,765.7,181.7"/>
							<path class="st23" d="M765.6,181.9l52.5-12c0,0.1-0.1,0.1-0.1,0.2l-52.5,12C765.6,182.1,765.6,182,765.6,181.9"/>
							<path class="st24" d="M765.5,182.1l52.5-12c0,0.1-0.1,0.1-0.1,0.2l-52.5,12C765.5,182.3,765.5,182.2,765.5,182.1"/>
							<path class="st24" d="M765.5,182.3l52.5-12c0,0.1-0.1,0.1-0.1,0.2l-52.5,12C765.4,182.5,765.4,182.4,765.5,182.3"/>
							<path class="st25" d="M765.4,182.5l52.5-12c0,0.1-0.1,0.1-0.1,0.2l-52.5,12C765.3,182.6,765.4,182.6,765.4,182.5"/>
							<path class="st25" d="M765.3,182.7l52.5-12c0,0.1-0.1,0.1-0.1,0.2l-52.5,12C765.2,182.8,765.3,182.8,765.3,182.7"/>
							<path class="st26" d="M765.2,182.9l52.5-12c0,0.1-0.1,0.1-0.1,0.2l-52.5,12C765.2,183,765.2,183,765.2,182.9"/>
							<path class="st26" d="M765.1,183.1l52.5-12c0,0.1,0,0.1-0.1,0.2l-52.5,12C765.1,183.2,765.1,183.1,765.1,183.1"/>
							<path class="st26" d="M765.1,183.3l52.5-12c0,0.1,0,0.1-0.1,0.2l-52.5,12C765,183.4,765,183.3,765.1,183.3"/>
							<path class="st27" d="M765,183.5l52.5-12c0,0.1,0,0.1-0.1,0.2l-52.5,12C765,183.6,765,183.5,765,183.5"/>
							<path class="st27" d="M764.9,183.6l52.5-12c0,0.1,0,0.1-0.1,0.2l-52.5,12C764.9,183.8,764.9,183.7,764.9,183.6"/>
							<path class="st28" d="M764.9,183.8l52.5-12c0,0.1,0,0.1-0.1,0.2l-52.5,12C764.8,183.9,764.9,183.9,764.9,183.8"/>
							<path class="st28" d="M764.8,184l52.5-12c0,0.1,0,0.1-0.1,0.2l-52.5,12C764.8,184.1,764.8,184.1,764.8,184"/>
							<path class="st29" d="M764.8,184.2l52.5-12c0,0.1,0,0.1-0.1,0.2l-52.5,12C764.7,184.3,764.7,184.2,764.8,184.2"/>
							<path class="st29" d="M764.7,184.4l52.5-12c0,0.1,0,0.1-0.1,0.2l-52.5,12C764.7,184.5,764.7,184.4,764.7,184.4"/>
							<path class="st29" d="M764.6,184.5l52.5-12c0,0.1,0,0.1-0.1,0.2l-52.5,12C764.6,184.7,764.6,184.6,764.6,184.5"/>
							<path class="st30" d="M764.6,184.7l52.5-12c0,0.1,0,0.1-0.1,0.2l-52.5,12C764.6,184.8,764.6,184.8,764.6,184.7"/>
							<path class="st30" d="M764.5,184.9l52.5-12c0,0.1,0,0.1,0,0.2l-52.5,12C764.5,185,764.5,185,764.5,184.9"/>
							<path class="st31" d="M764.5,185.1l52.5-12c0,0.1,0,0.1,0,0.2l-52.5,12C764.5,185.2,764.5,185.1,764.5,185.1"/>
							<path class="st31" d="M764.4,185.2l52.5-12c0,0.1,0,0.1,0,0.2l-52.5,12C764.4,185.3,764.4,185.3,764.4,185.2"/>
							<path class="st32" d="M764.4,185.4l52.5-12c0,0.1,0,0.1,0,0.2l-52.5,12C764.4,185.5,764.4,185.5,764.4,185.4"/>
							<path class="st32" d="M764.4,185.6l52.5-12c0,0.1,0,0.1,0,0.2l-52.5,12C764.3,185.7,764.3,185.6,764.4,185.6"/>
							<path class="st32" d="M764.3,185.7l52.5-12c0,0.1,0,0.1,0,0.2l-52.5,12C764.3,185.9,764.3,185.8,764.3,185.7"/>
							<path class="st33" d="M764.3,185.9l52.5-12c0,0.1,0,0.1,0,0.2l-52.5,12C764.2,186,764.3,186,764.3,185.9"/>
							<path class="st33" d="M764.2,186.1l52.5-12c0,0.1,0,0.1,0,0.2l-52.5,12C764.2,186.2,764.2,186.1,764.2,186.1"/>
							<path class="st34" d="M764.2,186.2l52.5-12c0,0.1,0,0.1,0,0.2l-52.5,12C764.2,186.4,764.2,186.3,764.2,186.2"/>
							<path class="st34" d="M764.2,186.4l52.5-12c0,0.1,0,0.1,0,0.2l-52.5,12C764.1,186.5,764.1,186.5,764.2,186.4"/>
							<path class="st35" d="M764.1,186.6l52.5-12c0,0.1,0,0.1,0,0.2l-52.5,12C764.1,186.7,764.1,186.6,764.1,186.6"/>
							<path class="st35" d="M764.1,186.7l52.5-12c0,0.1,0,0.1,0,0.2l-52.5,12C764.1,186.8,764.1,186.8,764.1,186.7"/>
							<path class="st35" d="M764.1,186.9l52.5-12c0,0.1,0,0.1,0,0.2l-52.5,12C764,187,764.1,187,764.1,186.9"/>
							<path class="st11" d="M764,187.1l52.5-12c0,0.1,0,0.1,0,0.2l-52.5,12C764,187.2,764,187.1,764,187.1"/>
							<path class="st11" d="M764,187.2l52.5-12c0,0.1,0,0.1,0,0.2l-52.5,12C764,187.3,764,187.3,764,187.2"/>
							<path class="st36" d="M764,187.4l52.5-12c0,0.1,0,0.1,0,0.2l-52.5,12C764,187.5,764,187.4,764,187.4"/>
							<path class="st36" d="M764,187.5l52.5-12c0,0.1,0,0.1,0,0.2l-52.5,12C763.9,187.7,763.9,187.6,764,187.5"/>
							<path class="st37" d="M763.9,187.7l52.5-12c0,0.1,0,0.1,0,0.2l-52.5,12C763.9,187.8,763.9,187.8,763.9,187.7"/>
							<path class="st37" d="M763.9,187.9l52.5-12c0,0.1,0,0.1,0,0.2l-52.5,12C763.9,188,763.9,187.9,763.9,187.9"/>
							<path class="st37" d="M763.9,188l52.5-12c0,0.1,0,0.1,0,0.2l-52.5,12C763.9,188.1,763.9,188.1,763.9,188"/>
							<path class="st38" d="M763.9,188.2l52.5-12c0,0.1,0,0.1,0,0.2l-52.5,12C763.8,188.3,763.9,188.2,763.9,188.2"/>
							<path class="st38" d="M763.8,188.3l52.5-12c0,0.1,0,0.1,0,0.2l-52.5,12C763.8,188.4,763.8,188.4,763.8,188.3"/>
							<path class="st39" d="M763.8,188.5l52.5-12c0,0.1,0,0.1,0,0.2l-52.5,12C763.8,188.6,763.8,188.6,763.8,188.5"/>
							<path class="st39" d="M763.8,188.7l52.5-12c0,0.1,0,0.1,0,0.2l-52.5,12C763.8,188.8,763.8,188.7,763.8,188.7"/>
							<path class="st40" d="M763.8,188.8l52.5-12c0,0.1,0,0.1,0,0.2l-52.5,12C763.8,188.9,763.8,188.9,763.8,188.8"/>
							<path class="st40" d="M763.8,189l52.5-12c0,0.1,0,0.1,0,0.2l-52.5,12C763.8,189.1,763.8,189,763.8,189"/>
							<path class="st40" d="M763.8,189.1l52.5-12c0,0.1,0,0.1,0,0.2l-52.5,12C763.8,189.2,763.8,189.2,763.8,189.1"/>
							<path class="st41" d="M763.8,189.3l52.5-12c0,0.1,0,0.1,0,0.2l-52.5,12C763.7,189.4,763.7,189.3,763.8,189.3"/>
							<path class="st41" d="M763.7,189.5l52.5-12c0,0.1,0,0.1,0,0.2l-52.5,12C763.7,189.6,763.7,189.5,763.7,189.5"/>
							<path class="st42" d="M763.7,189.6l52.5-12c0,0.1,0,0.1,0,0.2l-52.5,12C763.7,189.7,763.7,189.7,763.7,189.6"/>
							<path class="st42" d="M763.7,189.8l52.5-12c0,0.1,0,0.1,0,0.2l-52.5,12C763.7,189.9,763.7,189.8,763.7,189.8"/>
							<path class="st43" d="M763.7,189.9l52.5-12c0,0.1,0,0.1,0,0.2l-52.5,12C763.7,190,763.7,190,763.7,189.9"/>
							<path class="st43" d="M763.7,190.1l52.5-12c0,0.1,0,0.1,0,0.2l-52.5,12C763.7,190.2,763.7,190.1,763.7,190.1"/>
							<path class="st43" d="M763.7,190.2l52.5-12c0,0.1,0,0.1,0,0.2l-52.5,12C763.7,190.3,763.7,190.3,763.7,190.2"/>
							<path class="st44" d="M763.7,190.4l52.5-12c0,0.1,0,0.1,0,0.2l-52.5,12C763.7,190.5,763.7,190.5,763.7,190.4"/>
							<path class="st44" d="M763.7,190.6l52.5-12c0,0.1,0,0.1,0,0.2l-52.5,12C763.7,190.7,763.7,190.6,763.7,190.6"/>
							<path class="st45" d="M763.7,190.7l52.5-12c0,0,0,0.1,0,0.1l-52.5,12C763.7,190.8,763.7,190.8,763.7,190.7"/>
						</g>
					</g>
				</g>
				<g class="st10">
					<g>
						<defs>
							<path id="SVGID_10_" d="M763.7,249.5l52.5-12c8.7,1.5,26.1,4.6,34.8,6.1l-52.5,12C789.9,254.1,772.4,251.1,763.7,249.5z"/>
						</defs>
						<clipPath id="SVGID_11_">
							<use xlink:href="#SVGID_10_"  style="overflow:visible;"/>
						</clipPath>
						<g class="st48">
							<path class="st28" d="M763.7,249.5l52.5-12c8.7,1.5,26.1,4.6,34.8,6.1l-52.5,12C789.9,254.1,772.4,251.1,763.7,249.5"/>
						</g>
					</g>
				</g>
				<g class="st10">
					<g>
						<defs>
							<path id="SVGID_12_" d="M761.3,76.7l52.5-12c2.6-0.6,5.5-0.8,8.4-0.5l-52.5,12C766.8,75.9,763.9,76.1,761.3,76.7z"/>
						</defs>
						<clipPath id="SVGID_13_">
							<use xlink:href="#SVGID_12_"  style="overflow:visible;"/>
						</clipPath>
						<g class="st49">
							<path class="st17" d="M761.3,76.7l52.5-12c0.1,0,0.3-0.1,0.4-0.1l-52.5,12C761.5,76.6,761.4,76.6,761.3,76.7"/>
							<path class="st18" d="M761.7,76.6l52.5-12c0.2,0,0.4-0.1,0.6-0.1l-52.5,12C762,76.5,761.9,76.5,761.7,76.6"/>
							<path class="st18" d="M762.2,76.5l52.5-12c0.2,0,0.4-0.1,0.5-0.1l-52.5,12C762.6,76.4,762.4,76.4,762.2,76.5"/>
							<path class="st19" d="M762.8,76.4l52.5-12c0.1,0,0.3,0,0.4-0.1l-52.5,12C763.1,76.3,762.9,76.3,762.8,76.4"/>
							<path class="st19" d="M763.2,76.3l52.5-12c0.2,0,0.3,0,0.5-0.1l-52.5,12C763.5,76.3,763.4,76.3,763.2,76.3"/>
							<path class="st19" d="M763.7,76.2l52.5-12c0.2,0,0.3,0,0.5-0.1l-52.5,12C764,76.2,763.8,76.2,763.7,76.2"/>
							<path class="st20" d="M764.1,76.2l52.5-12c0.2,0,0.3,0,0.5,0l-52.5,12C764.4,76.1,764.3,76.2,764.1,76.2"/>
							<path class="st20" d="M764.6,76.1l52.5-12c0.2,0,0.3,0,0.5,0l-52.5,12C764.9,76.1,764.8,76.1,764.6,76.1"/>
							<path class="st21" d="M765.1,76.1l52.5-12c0.2,0,0.3,0,0.5,0l-52.5,12C765.4,76.1,765.2,76.1,765.1,76.1"/>
							<path class="st21" d="M765.5,76.1l52.5-12c0.2,0,0.3,0,0.5,0L766,76C765.8,76,765.7,76,765.5,76.1"/>
							<path class="st22" d="M766,76l52.5-12c0.1,0,0.3,0,0.4,0l-52.5,12C766.3,76,766.1,76,766,76"/>
							<path class="st22" d="M766.4,76l52.5-12c0.1,0,0.3,0,0.4,0l-52.5,12C766.7,76,766.6,76,766.4,76"/>
							<path class="st22" d="M766.8,76l52.5-12c0.1,0,0.3,0,0.4,0l-52.5,12C767.1,76,767,76,766.8,76"/>
							<path class="st23" d="M767.2,76l52.5-12c0.1,0,0.3,0,0.4,0l-52.5,12C767.5,76,767.4,76,767.2,76"/>
							<path class="st23" d="M767.6,76l52.5-12c0.1,0,0.3,0,0.4,0l-52.5,12C767.9,76,767.8,76,767.6,76"/>
							<path class="st24" d="M768.1,76l52.5-12c0.1,0,0.3,0,0.4,0l-52.5,12C768.3,76,768.2,76,768.1,76"/>
							<path class="st24" d="M768.5,76l52.5-12c0.1,0,0.3,0,0.4,0l-52.5,12C768.7,76.1,768.6,76,768.5,76"/>
							<path class="st25" d="M768.9,76.1l52.5-12c0.1,0,0.3,0,0.4,0l-52.5,12C769.2,76.1,769,76.1,768.9,76.1"/>
							<path class="st25" d="M769.3,76.1l52.5-12c0.1,0,0.3,0,0.4,0l-52.5,12C769.6,76.1,769.4,76.1,769.3,76.1"/>
							<path class="st26" d="M769.7,76.1l52.5-12c0,0,0,0,0,0L769.7,76.1C769.7,76.1,769.7,76.1,769.7,76.1"/>
						</g>
					</g>
				</g>
				<g>
					<polygon class="st50" points="806,138.1 858.5,126.1 858.5,148 806,160 					"/>
				</g>
				<g>
					<polygon class="st51" points="788.3,40.5 840.8,28.5 843.7,49 791.2,61 					"/>
				</g>
				<g>
					<polygon class="st42" points="797,67 849.4,55 844.8,68.1 792.4,80.1 					"/>
				</g>
				<g>
					<polygon class="st51" points="791.2,61 843.7,49 849.4,55 797,67 					"/>
				</g>
				<g>
					<polygon class="st52" points="781,17.8 833.5,5.8 841.2,11.7 788.7,23.7 					"/>
				</g>
				<g>
					<polygon class="st53" points="788.7,23.7 841.2,11.7 840.8,28.5 788.3,40.5 					"/>
				</g>
				<g>
					<polygon class="st54" points="806,160 858.5,148 880.2,173 827.7,185 					"/>
				</g>
				<g>
					<polygon class="st50" points="827.7,185 880.2,173 880.2,262.7 827.8,274.7 					"/>
				</g>
				<g class="st10">
					<g>
						<defs>
							<path id="SVGID_14_" d="M792.4,80.1l52.5-12c24.2,6.2,39.3,40.8,13.7,58l-52.5,12C831.7,120.9,816.6,86.4,792.4,80.1z"/>
						</defs>
						<clipPath id="SVGID_15_">
							<use xlink:href="#SVGID_14_"  style="overflow:visible;"/>
						</clipPath>
						<g class="st55">
							<path class="st31" d="M792.4,80.1l52.5-12c0.1,0,0.2,0.1,0.3,0.1l-52.5,12C792.6,80.2,792.5,80.1,792.4,80.1"/>
							<path class="st32" d="M792.7,80.2l52.5-12c0.1,0,0.2,0.1,0.3,0.1l-52.5,12C792.9,80.3,792.8,80.2,792.7,80.2"/>
							<path class="st32" d="M793.1,80.3l52.5-12c0.1,0,0.2,0.1,0.3,0.1l-52.5,12C793.3,80.4,793.2,80.3,793.1,80.3"/>
							<path class="st32" d="M793.4,80.4l52.5-12c0.1,0,0.2,0.1,0.3,0.1l-52.5,12C793.6,80.5,793.5,80.4,793.4,80.4"/>
							<path class="st33" d="M793.7,80.5l52.5-12c0.1,0,0.2,0.1,0.3,0.1l-52.5,12C794,80.6,793.9,80.5,793.7,80.5"/>
							<path class="st33" d="M794.1,80.6l52.5-12c0.1,0,0.2,0.1,0.3,0.1l-52.5,12C794.3,80.7,794.2,80.6,794.1,80.6"/>
							<path class="st34" d="M794.4,80.7l52.5-12c0.1,0,0.2,0.1,0.3,0.1l-52.5,12C794.6,80.8,794.5,80.8,794.4,80.7"/>
							<path class="st34" d="M794.8,80.8l52.5-12c0.1,0,0.2,0.1,0.3,0.1l-52.5,12C795,80.9,794.9,80.9,794.8,80.8"/>
							<path class="st35" d="M795.1,80.9l52.5-12c0.1,0,0.2,0.1,0.3,0.1l-52.5,12C795.3,81,795.2,81,795.1,80.9"/>
							<path class="st35" d="M795.4,81.1l52.5-12c0.1,0,0.2,0.1,0.3,0.1l-52.5,12C795.6,81.1,795.5,81.1,795.4,81.1"/>
							<path class="st35" d="M795.8,81.2l52.5-12c0.1,0,0.2,0.1,0.3,0.1l-52.5,12C796,81.3,795.9,81.2,795.8,81.2"/>
							<path class="st11" d="M796.1,81.3l52.5-12c0.1,0,0.2,0.1,0.3,0.1l-52.5,12C796.3,81.4,796.2,81.4,796.1,81.3"/>
							<path class="st11" d="M796.4,81.4l52.5-12c0.1,0,0.2,0.1,0.3,0.1l-52.5,12C796.6,81.5,796.5,81.5,796.4,81.4"/>
							<path class="st36" d="M796.7,81.6l52.5-12c0.1,0,0.2,0.1,0.3,0.1l-52.5,12C796.9,81.7,796.8,81.6,796.7,81.6"/>
							<path class="st36" d="M797,81.7l52.5-12c0.1,0,0.2,0.1,0.3,0.1l-52.5,12C797.3,81.8,797.2,81.8,797,81.7"/>
							<path class="st37" d="M797.4,81.8l52.5-12c0.1,0,0.2,0.1,0.3,0.1l-52.5,12C797.6,81.9,797.5,81.9,797.4,81.8"/>
							<path class="st37" d="M797.7,82l52.5-12c0.1,0,0.2,0.1,0.3,0.1l-52.5,12C797.9,82.1,797.8,82,797.7,82"/>
							<path class="st37" d="M798,82.1l52.5-12c0.1,0,0.2,0.1,0.3,0.1l-52.5,12C798.2,82.2,798.1,82.2,798,82.1"/>
							<path class="st38" d="M798.3,82.3l52.5-12c0.1,0.1,0.2,0.1,0.3,0.2l-52.5,12C798.5,82.4,798.4,82.3,798.3,82.3"/>
							<path class="st38" d="M798.6,82.4l52.5-12c0.1,0.1,0.2,0.1,0.3,0.2l-52.5,12C798.8,82.5,798.7,82.5,798.6,82.4"/>
							<path class="st39" d="M798.9,82.6l52.5-12c0.1,0.1,0.2,0.1,0.3,0.2l-52.5,12C799.1,82.7,799,82.6,798.9,82.6"/>
							<path class="st39" d="M799.3,82.7l52.5-12c0.1,0.1,0.2,0.1,0.3,0.2l-52.5,12C799.5,82.9,799.4,82.8,799.3,82.7"/>
							<path class="st40" d="M799.6,82.9l52.5-12c0.1,0.1,0.2,0.1,0.3,0.2l-52.5,12C799.8,83,799.7,83,799.6,82.9"/>
							<path class="st40" d="M799.9,83.1l52.5-12c0.1,0.1,0.2,0.1,0.3,0.2l-52.5,12C800.1,83.2,800,83.1,799.9,83.1"/>
							<path class="st40" d="M800.2,83.2l52.5-12c0.1,0.1,0.2,0.1,0.3,0.2l-52.5,12C800.4,83.4,800.3,83.3,800.2,83.2"/>
							<path class="st41" d="M800.5,83.4l52.5-12c0.1,0.1,0.2,0.1,0.3,0.2l-52.5,12C800.7,83.5,800.6,83.5,800.5,83.4"/>
							<path class="st41" d="M800.8,83.6l52.5-12c0.1,0.1,0.2,0.1,0.3,0.2l-52.5,12C801,83.7,800.9,83.7,800.8,83.6"/>
							<path class="st42" d="M801.1,83.8l52.5-12c0.1,0.1,0.2,0.1,0.3,0.2l-52.5,12C801.3,83.9,801.2,83.8,801.1,83.8"/>
							<path class="st42" d="M801.4,84l52.5-12c0.1,0.1,0.2,0.1,0.3,0.2l-52.5,12C801.6,84.1,801.5,84,801.4,84"/>
							<path class="st43" d="M801.7,84.1l52.5-12c0.1,0.1,0.2,0.1,0.3,0.2l-52.5,12C801.9,84.3,801.8,84.2,801.7,84.1"/>
							<path class="st43" d="M802,84.3l52.5-12c0.1,0.1,0.2,0.1,0.3,0.2l-52.5,12C802.2,84.5,802.1,84.4,802,84.3"/>
							<path class="st43" d="M802.3,84.5l52.5-12c0.1,0.1,0.2,0.1,0.3,0.2l-52.5,12C802.5,84.6,802.4,84.6,802.3,84.5"/>
							<path class="st44" d="M802.6,84.7l52.5-12c0.1,0.1,0.2,0.1,0.3,0.2l-52.5,12C802.8,84.9,802.7,84.8,802.6,84.7"/>
							<path class="st44" d="M802.9,84.9l52.5-12c0.1,0.1,0.2,0.1,0.3,0.2l-52.5,12C803.1,85.1,803,85,802.9,84.9"/>
							<path class="st45" d="M803.2,85.1l52.5-12c0.1,0.1,0.2,0.1,0.3,0.2l-52.5,12C803.4,85.3,803.3,85.2,803.2,85.1"/>
							<path class="st45" d="M803.5,85.3l52.5-12c0.1,0.1,0.2,0.1,0.3,0.2l-52.5,12C803.7,85.5,803.6,85.4,803.5,85.3"/>
							<path class="st56" d="M803.8,85.6l52.5-12c0.1,0.1,0.2,0.1,0.3,0.2l-52.5,12C804,85.7,803.9,85.6,803.8,85.6"/>
							<path class="st56" d="M804.1,85.8l52.5-12c0.1,0.1,0.2,0.1,0.3,0.2l-52.5,12C804.3,85.9,804.2,85.9,804.1,85.8"/>
							<path class="st57" d="M804.4,86l52.5-12c0.1,0.1,0.2,0.2,0.3,0.2l-52.5,12C804.6,86.2,804.5,86.1,804.4,86"/>
							<path class="st57" d="M804.7,86.2l52.5-12c0.1,0.1,0.2,0.2,0.3,0.2l-52.5,12C804.9,86.4,804.8,86.3,804.7,86.2"/>
							<path class="st57" d="M805,86.5l52.5-12c0.1,0.1,0.2,0.2,0.3,0.2l-52.5,12C805.2,86.6,805.1,86.5,805,86.5"/>
							<path class="st58" d="M805.3,86.7l52.5-12c0.1,0.1,0.2,0.2,0.3,0.2l-52.5,12C805.5,86.8,805.4,86.8,805.3,86.7"/>
							<path class="st58" d="M805.6,86.9l52.5-12c0.1,0.1,0.2,0.2,0.3,0.3l-52.5,12C805.8,87.1,805.7,87,805.6,86.9"/>
							<path class="st59" d="M805.9,87.2l52.5-12c0.1,0.1,0.2,0.2,0.3,0.3l-52.5,12C806.1,87.4,806,87.3,805.9,87.2"/>
							<path class="st59" d="M806.2,87.4l52.5-12c0.1,0.1,0.2,0.2,0.3,0.3l-52.5,12C806.4,87.6,806.3,87.5,806.2,87.4"/>
							<path class="st5" d="M806.5,87.7l52.5-12c0.1,0.1,0.2,0.2,0.3,0.3l-52.5,12C806.7,87.9,806.6,87.8,806.5,87.7"/>
							<path class="st5" d="M806.8,88l52.5-12c0.1,0.1,0.2,0.2,0.3,0.3l-52.5,12C807,88.2,806.9,88.1,806.8,88"/>
							<path class="st5" d="M807.1,88.3l52.5-12c0.1,0.1,0.2,0.2,0.3,0.3l-52.5,12C807.3,88.4,807.2,88.3,807.1,88.3"/>
							<path class="st60" d="M807.4,88.5l52.5-12c0.1,0.1,0.2,0.2,0.3,0.3l-52.5,12C807.6,88.7,807.5,88.6,807.4,88.5"/>
							<path class="st60" d="M807.7,88.8l52.5-12c0.1,0.1,0.2,0.2,0.3,0.3l-52.5,12C807.9,89,807.8,88.9,807.7,88.8"/>
							<path class="st61" d="M808,89.1l52.5-12c0.1,0.1,0.2,0.2,0.3,0.3l-52.5,12C808.2,89.3,808.1,89.2,808,89.1"/>
							<path class="st61" d="M808.3,89.4l52.5-12c0.1,0.1,0.2,0.2,0.3,0.3l-52.5,12C808.6,89.6,808.4,89.5,808.3,89.4"/>
							<path class="st62" d="M808.7,89.7l52.5-12c0.1,0.1,0.2,0.2,0.3,0.3l-52.5,12C808.9,89.9,808.8,89.8,808.7,89.7"/>
							<path class="st62" d="M809,90.1l52.5-12c0.1,0.1,0.2,0.2,0.3,0.3l-52.5,12C809.2,90.3,809.1,90.2,809,90.1"/>
							<path class="st62" d="M809.3,90.4l52.5-12c0.1,0.1,0.2,0.2,0.3,0.3l-52.5,12C809.5,90.6,809.4,90.5,809.3,90.4"/>
							<path class="st63" d="M809.6,90.8l52.5-12c0.1,0.1,0.2,0.2,0.3,0.4l-52.5,12C809.9,91,809.8,90.9,809.6,90.8"/>
							<path class="st63" d="M810,91.1l52.5-12c0.1,0.1,0.2,0.2,0.3,0.4l-52.5,12C810.2,91.3,810.1,91.2,810,91.1"/>
							<path class="st64" d="M810.3,91.5l52.5-12c0.1,0.1,0.2,0.2,0.3,0.4l-52.5,12C810.5,91.7,810.4,91.6,810.3,91.5"/>
							<path class="st64" d="M810.6,91.8l52.5-12c0.1,0.1,0.2,0.3,0.3,0.4l-52.5,12C810.8,92.1,810.7,92,810.6,91.8"/>
							<path class="st65" d="M810.9,92.2l52.5-12c0.1,0.2,0.3,0.3,0.4,0.5l-52.5,12C811.2,92.5,811,92.4,810.9,92.2"/>
							<path class="st65" d="M811.3,92.7l52.5-12c0.1,0.2,0.3,0.3,0.4,0.5l-52.5,12C811.6,93,811.4,92.8,811.3,92.7"/>
							<path class="st65" d="M811.7,93.2l52.5-12c0.1,0.2,0.3,0.3,0.4,0.5l-52.5,12C811.9,93.5,811.8,93.3,811.7,93.2"/>
							<path class="st66" d="M812.1,93.7l52.5-12c0.1,0.2,0.2,0.3,0.4,0.5l-52.5,12C812.3,94,812.2,93.8,812.1,93.7"/>
							<path class="st66" d="M812.4,94.2l52.5-12c0.1,0.2,0.2,0.3,0.4,0.5l-52.5,12C812.7,94.5,812.6,94.3,812.4,94.2"/>
							<path class="st67" d="M812.8,94.7l52.5-12c0.1,0.2,0.3,0.4,0.4,0.6l-52.5,12C813.1,95,812.9,94.9,812.8,94.7"/>
							<path class="st67" d="M813.2,95.2l52.5-12c0.2,0.3,0.4,0.6,0.6,0.9l-52.5,12C813.6,95.8,813.4,95.5,813.2,95.2"/>
							<path class="st68" d="M813.8,96.1l52.5-12c0.2,0.3,0.4,0.6,0.6,0.9l-52.5,12C814.1,96.7,813.9,96.4,813.8,96.1"/>
							<path class="st68" d="M814.3,97l52.5-12c0.2,0.3,0.4,0.6,0.5,0.9l-52.5,12C814.7,97.6,814.5,97.3,814.3,97"/>
							<path class="st68" d="M814.8,97.9l52.5-12c0.8,1.4,1.5,2.9,2.1,4.4l-52.5,12C816.3,100.8,815.6,99.3,814.8,97.9"/>
							<path class="st68" d="M816.9,102.3l52.5-12c0.1,0.3,0.2,0.6,0.4,0.9l-52.5,12C817.2,102.9,817.1,102.6,816.9,102.3"/>
							<path class="st68" d="M817.3,103.2l52.5-12c0.1,0.3,0.2,0.6,0.3,1l-52.5,12C817.5,103.9,817.4,103.5,817.3,103.2"/>
							<path class="st67" d="M817.6,104.2l52.5-12c0.1,0.3,0.2,0.6,0.3,0.9l-52.5,12C817.8,104.8,817.8,104.5,817.6,104.2"/>
							<path class="st67" d="M817.9,105.1l52.5-12c0,0.1,0.1,0.3,0.1,0.4l-52.5,12C818,105.4,818,105.2,817.9,105.1"/>
							<path class="st66" d="M818.1,105.5l52.5-12c0,0.1,0.1,0.3,0.1,0.4l-52.5,12C818.2,105.8,818.1,105.7,818.1,105.5"/>
							<path class="st66" d="M818.2,105.9l52.5-12c0,0.1,0.1,0.3,0.1,0.4l-52.5,12C818.3,106.2,818.2,106.1,818.2,105.9"/>
							<path class="st65" d="M818.3,106.4l52.5-12c0,0.1,0.1,0.3,0.1,0.4l-52.5,12C818.4,106.7,818.4,106.5,818.3,106.4"/>
							<path class="st65" d="M818.4,106.8l52.5-12c0,0.1,0.1,0.3,0.1,0.4l-52.5,12C818.5,107.1,818.5,107,818.4,106.8"/>
							<path class="st65" d="M818.5,107.3l52.5-12c0,0.1,0.1,0.3,0.1,0.4l-52.5,12C818.6,107.6,818.6,107.4,818.5,107.3"/>
							<path class="st64" d="M818.6,107.7l52.5-12c0,0.1,0.1,0.3,0.1,0.4l-52.5,12C818.7,108,818.7,107.9,818.6,107.7"/>
							<path class="st64" d="M818.7,108.1l52.5-12c0,0.1,0.1,0.3,0.1,0.4l-52.5,12C818.8,108.4,818.8,108.3,818.7,108.1"/>
							<path class="st63" d="M818.8,108.6l52.5-12c0,0.1,0,0.2,0.1,0.3l-52.5,12C818.8,108.8,818.8,108.7,818.8,108.6"/>
							<path class="st63" d="M818.9,108.9l52.5-12c0,0.1,0,0.2,0.1,0.3l-52.5,12C818.9,109,818.9,108.9,818.9,108.9"/>
							<path class="st62" d="M818.9,109.1l52.5-12c0,0.1,0,0.2,0,0.3l-52.5,12C819,109.3,818.9,109.2,818.9,109.1"/>
							<path class="st62" d="M819,109.4l52.5-12c0,0.1,0,0.2,0,0.3l-52.5,12C819,109.6,819,109.5,819,109.4"/>
							<path class="st62" d="M819,109.7l52.5-12c0,0.1,0,0.2,0,0.3l-52.5,12C819,109.9,819,109.8,819,109.7"/>
							<path class="st61" d="M819.1,110l52.5-12c0,0.1,0,0.2,0,0.3l-52.5,12C819.1,110.2,819.1,110.1,819.1,110"/>
							<path class="st61" d="M819.1,110.3l52.5-12c0,0.1,0,0.2,0,0.3l-52.5,12C819.1,110.5,819.1,110.4,819.1,110.3"/>
							<path class="st60" d="M819.1,110.6l52.5-12c0,0.1,0,0.2,0,0.3l-52.5,12C819.2,110.8,819.2,110.7,819.1,110.6"/>
							<path class="st60" d="M819.2,110.9l52.5-12c0,0.1,0,0.2,0,0.3l-52.5,12C819.2,111.1,819.2,111,819.2,110.9"/>
							<path class="st5" d="M819.2,111.2l52.5-12c0,0.1,0,0.2,0,0.3l-52.5,12C819.2,111.4,819.2,111.3,819.2,111.2"/>
							<path class="st5" d="M819.2,111.4l52.5-12c0,0.1,0,0.2,0,0.3l-52.5,12C819.3,111.6,819.2,111.5,819.2,111.4"/>
							<path class="st5" d="M819.3,111.7l52.5-12c0,0.1,0,0.2,0,0.3l-52.5,12C819.3,111.9,819.3,111.8,819.3,111.7"/>
							<path class="st59" d="M819.3,112l52.5-12c0,0.1,0,0.2,0,0.2l-52.5,12C819.3,112.2,819.3,112.1,819.3,112"/>
							<path class="st59" d="M819.3,112.3l52.5-12c0,0.1,0,0.2,0,0.2l-52.5,12C819.3,112.4,819.3,112.3,819.3,112.3"/>
							<path class="st58" d="M819.3,112.5l52.5-12c0,0.1,0,0.2,0,0.2l-52.5,12C819.3,112.6,819.3,112.6,819.3,112.5"/>
							<path class="st58" d="M819.3,112.7l52.5-12c0,0.1,0,0.2,0,0.2l-52.5,12C819.3,112.9,819.3,112.8,819.3,112.7"/>
							<path class="st57" d="M819.3,112.9l52.5-12c0,0.1,0,0.2,0,0.2l-52.5,12C819.4,113.1,819.4,113,819.3,112.9"/>
							<path class="st57" d="M819.4,113.2l52.5-12c0,0.1,0,0.2,0,0.2l-52.5,12C819.4,113.3,819.4,113.2,819.4,113.2"/>
							<path class="st57" d="M819.4,113.4l52.5-12c0,0.1,0,0.2,0,0.2l-52.5,12C819.4,113.5,819.4,113.5,819.4,113.4"/>
							<path class="st56" d="M819.4,113.6l52.5-12c0,0.1,0,0.2,0,0.2l-52.5,12C819.4,113.8,819.4,113.7,819.4,113.6"/>
							<path class="st56" d="M819.4,113.9l52.5-12c0,0.1,0,0.2,0,0.2l-52.5,12C819.4,114,819.4,113.9,819.4,113.9"/>
							<path class="st45" d="M819.4,114.1l52.5-12c0,0.1,0,0.2,0,0.2l-52.5,12C819.4,114.2,819.4,114.2,819.4,114.1"/>
							<path class="st45" d="M819.4,114.3l52.5-12c0,0.1,0,0.2,0,0.2l-52.5,12C819.4,114.5,819.4,114.4,819.4,114.3"/>
							<path class="st44" d="M819.4,114.5l52.5-12c0,0.1,0,0.2,0,0.2l-52.5,12C819.4,114.7,819.4,114.6,819.4,114.5"/>
							<path class="st44" d="M819.4,114.8l52.5-12c0,0.1,0,0.2,0,0.2l-52.5,12C819.4,114.9,819.4,114.8,819.4,114.8"/>
							<path class="st43" d="M819.4,115l52.5-12c0,0.1,0,0.2,0,0.2l-52.5,12C819.4,115.1,819.4,115.1,819.4,115"/>
							<path class="st43" d="M819.4,115.2l52.5-12c0,0.1,0,0.2,0,0.2l-52.5,12C819.4,115.4,819.4,115.3,819.4,115.2"/>
							<path class="st43" d="M819.4,115.4l52.5-12c0,0.1,0,0.2,0,0.2l-52.5,12C819.4,115.6,819.4,115.5,819.4,115.4"/>
							<path class="st42" d="M819.4,115.7l52.5-12c0,0.1,0,0.1,0,0.2l-52.5,12C819.4,115.8,819.4,115.7,819.4,115.7"/>
							<path class="st42" d="M819.3,115.9l52.5-12c0,0.1,0,0.1,0,0.2l-52.5,12C819.3,116,819.3,115.9,819.3,115.9"/>
							<path class="st41" d="M819.3,116.1l52.5-12c0,0.1,0,0.1,0,0.2l-52.5,12C819.3,116.2,819.3,116.1,819.3,116.1"/>
							<path class="st41" d="M819.3,116.3l52.5-12c0,0.1,0,0.1,0,0.2l-52.5,12C819.3,116.4,819.3,116.3,819.3,116.3"/>
							<path class="st40" d="M819.3,116.5l52.5-12c0,0.1,0,0.1,0,0.2l-52.5,12C819.3,116.6,819.3,116.5,819.3,116.5"/>
							<path class="st40" d="M819.3,116.7l52.5-12c0,0.1,0,0.1,0,0.2l-52.5,12C819.3,116.8,819.3,116.8,819.3,116.7"/>
							<path class="st40" d="M819.3,116.9l52.5-12c0,0.1,0,0.1,0,0.2l-52.5,12C819.3,117,819.3,117,819.3,116.9"/>
							<path class="st39" d="M819.3,117.1l52.5-12c0,0.1,0,0.1,0,0.2l-52.5,12C819.2,117.2,819.3,117.2,819.3,117.1"/>
							<path class="st39" d="M819.2,117.3l52.5-12c0,0.1,0,0.1,0,0.2l-52.5,12C819.2,117.4,819.2,117.4,819.2,117.3"/>
							<path class="st38" d="M819.2,117.5l52.5-12c0,0.1,0,0.1,0,0.2l-52.5,12C819.2,117.6,819.2,117.6,819.2,117.5"/>
							<path class="st38" d="M819.2,117.7l52.5-12c0,0.1,0,0.1,0,0.2l-52.5,12C819.2,117.8,819.2,117.8,819.2,117.7"/>
							<path class="st37" d="M819.2,117.9l52.5-12c0,0.1,0,0.1,0,0.2l-52.5,12C819.2,118,819.2,118,819.2,117.9"/>
							<path class="st37" d="M819.1,118.1l52.5-12c0,0.1,0,0.1,0,0.2l-52.5,12C819.1,118.3,819.1,118.2,819.1,118.1"/>
							<path class="st37" d="M819.1,118.3l52.5-12c0,0.1,0,0.1,0,0.2l-52.5,12C819.1,118.5,819.1,118.4,819.1,118.3"/>
							<path class="st36" d="M819.1,118.5l52.5-12c0,0.1,0,0.1,0,0.2l-52.5,12C819.1,118.7,819.1,118.6,819.1,118.5"/>
							<path class="st36" d="M819.1,118.7l52.5-12c0,0.1,0,0.1,0,0.2l-52.5,12C819,118.9,819,118.8,819.1,118.7"/>
							<path class="st11" d="M819,118.9l52.5-12c0,0.1,0,0.1,0,0.2l-52.5,12C819,119.1,819,119,819,118.9"/>
							<path class="st11" d="M819,119.1l52.5-12c0,0.1,0,0.1,0,0.2l-52.5,12C819,119.3,819,119.2,819,119.1"/>
							<path class="st35" d="M819,119.3l52.5-12c0,0.1,0,0.1,0,0.2l-52.5,12C818.9,119.5,818.9,119.4,819,119.3"/>
							<path class="st35" d="M818.9,119.5l52.5-12c0,0.1,0,0.1,0,0.2l-52.5,12C818.9,119.7,818.9,119.6,818.9,119.5"/>
							<path class="st35" d="M818.9,119.8l52.5-12c0,0.1,0,0.1,0,0.2l-52.5,12C818.8,119.9,818.9,119.8,818.9,119.8"/>
							<path class="st34" d="M818.8,120l52.5-12c0,0.1,0,0.1,0,0.2l-52.5,12C818.8,120.1,818.8,120,818.8,120"/>
							<path class="st34" d="M818.8,120.2l52.5-12c0,0.1,0,0.1,0,0.2l-52.5,12C818.8,120.3,818.8,120.2,818.8,120.2"/>
							<path class="st33" d="M818.7,120.4l52.5-12c0,0.1,0,0.1,0,0.2l-52.5,12C818.7,120.5,818.7,120.5,818.7,120.4"/>
							<path class="st33" d="M818.7,120.6l52.5-12c0,0.1,0,0.1,0,0.2l-52.5,12C818.7,120.7,818.7,120.7,818.7,120.6"/>
							<path class="st32" d="M818.6,120.8l52.5-12c0,0.1,0,0.1,0,0.2l-52.5,12C818.6,120.9,818.6,120.9,818.6,120.8"/>
							<path class="st32" d="M818.6,121l52.5-12c0,0.1,0,0.1-0.1,0.2l-52.5,12C818.6,121.1,818.6,121.1,818.6,121"/>
							<path class="st32" d="M818.5,121.2l52.5-12c0,0.1,0,0.1-0.1,0.2l-52.5,12C818.5,121.4,818.5,121.3,818.5,121.2"/>
							<path class="st31" d="M818.5,121.4l52.5-12c0,0.1,0,0.1-0.1,0.2l-52.5,12C818.5,121.6,818.5,121.5,818.5,121.4"/>
							<path class="st31" d="M818.4,121.6l52.5-12c0,0.1,0,0.1-0.1,0.2l-52.5,12C818.4,121.8,818.4,121.7,818.4,121.6"/>
							<path class="st30" d="M818.4,121.8l52.5-12c0,0.1,0,0.1-0.1,0.2l-52.5,12C818.3,122,818.4,121.9,818.4,121.8"/>
							<path class="st30" d="M818.3,122l52.5-12c0,0.1,0,0.1-0.1,0.2l-52.5,12C818.3,122.2,818.3,122.1,818.3,122"/>
							<path class="st29" d="M818.3,122.3l52.5-12c0,0.1,0,0.1-0.1,0.2l-52.5,12C818.2,122.4,818.2,122.3,818.3,122.3"/>
							<path class="st29" d="M818.2,122.5l52.5-12c0,0.1,0,0.1-0.1,0.2l-52.5,12C818.2,122.6,818.2,122.5,818.2,122.5"/>
							<path class="st29" d="M818.1,122.7l52.5-12c0,0.1-0.1,0.2-0.1,0.2l-52.5,12C818.1,122.8,818.1,122.7,818.1,122.7"/>
							<path class="st28" d="M818.1,122.9l52.5-12c0,0.1-0.1,0.2-0.1,0.2l-52.5,12C818,123.1,818,123,818.1,122.9"/>
							<path class="st28" d="M818,123.1l52.5-12c0,0.1-0.1,0.2-0.1,0.2l-52.5,12C817.9,123.3,818,123.2,818,123.1"/>
							<path class="st27" d="M817.9,123.4l52.5-12c0,0.1-0.1,0.2-0.1,0.2l-52.5,12C817.8,123.5,817.9,123.5,817.9,123.4"/>
							<path class="st27" d="M817.8,123.6l52.5-12c0,0.1-0.1,0.2-0.1,0.2l-52.5,12C817.8,123.8,817.8,123.7,817.8,123.6"/>
							<path class="st26" d="M817.7,123.9l52.5-12c0,0.1-0.1,0.2-0.1,0.2l-52.5,12C817.7,124,817.7,123.9,817.7,123.9"/>
							<path class="st26" d="M817.6,124.1l52.5-12c0,0.1-0.1,0.2-0.1,0.2l-52.5,12C817.6,124.3,817.6,124.2,817.6,124.1"/>
							<path class="st26" d="M817.5,124.3l52.5-12c0,0.1-0.1,0.2-0.1,0.2l-52.5,12C817.5,124.5,817.5,124.4,817.5,124.3"/>
							<path class="st25" d="M817.4,124.6l52.5-12c0,0.1-0.1,0.2-0.1,0.2l-52.5,12C817.4,124.7,817.4,124.7,817.4,124.6"/>
							<path class="st25" d="M817.4,124.8l52.5-12c0,0.1-0.1,0.2-0.1,0.2l-52.5,12C817.3,125,817.3,124.9,817.4,124.8"/>
							<path class="st24" d="M817.3,125.1l52.5-12c0,0.1-0.1,0.2-0.1,0.2l-52.5,12C817.2,125.2,817.2,125.1,817.3,125.1"/>
							<path class="st24" d="M817.2,125.3l52.5-12c0,0.1-0.1,0.2-0.1,0.2l-52.5,12C817.1,125.4,817.1,125.4,817.2,125.3"/>
							<path class="st23" d="M817,125.5l52.5-12c0,0.1-0.1,0.2-0.1,0.2l-52.5,12C817,125.7,817,125.6,817,125.5"/>
							<path class="st23" d="M816.9,125.8l52.5-12c0,0.1-0.1,0.2-0.1,0.2l-52.5,12C816.9,125.9,816.9,125.8,816.9,125.8"/>
							<path class="st22" d="M816.8,126l52.5-12c0,0.1-0.1,0.2-0.1,0.3l-52.5,12C816.7,126.2,816.8,126.1,816.8,126"/>
							<path class="st22" d="M816.7,126.3l52.5-12c-0.1,0.1-0.1,0.2-0.2,0.3l-52.5,12C816.6,126.5,816.6,126.4,816.7,126.3"/>
							<path class="st22" d="M816.5,126.6l52.5-12c-0.1,0.1-0.1,0.2-0.2,0.3l-52.5,12C816.4,126.8,816.5,126.7,816.5,126.6"/>
							<path class="st21" d="M816.4,126.9l52.5-12c-0.1,0.1-0.1,0.2-0.2,0.3l-52.5,12C816.3,127.1,816.3,127,816.4,126.9"/>
							<path class="st21" d="M816.2,127.2l52.5-12c-0.1,0.1-0.1,0.2-0.2,0.3l-52.5,12C816.1,127.4,816.2,127.3,816.2,127.2"/>
							<path class="st20" d="M816,127.5l52.5-12c-0.1,0.1-0.1,0.2-0.2,0.3l-52.5,12C815.9,127.7,816,127.6,816,127.5"/>
							<path class="st20" d="M815.9,127.8l52.5-12c-0.1,0.1-0.1,0.2-0.2,0.3l-52.5,12C815.8,128,815.8,127.9,815.9,127.8"/>
							<path class="st19" d="M815.7,128.1l52.5-12c-0.1,0.1-0.1,0.2-0.2,0.3l-52.5,12C815.6,128.3,815.6,128.2,815.7,128.1"/>
							<path class="st19" d="M815.5,128.4l52.5-12c-0.1,0.1-0.1,0.2-0.2,0.3l-52.5,12C815.4,128.6,815.5,128.5,815.5,128.4"/>
							<path class="st19" d="M815.3,128.7l52.5-12c-0.1,0.1-0.1,0.2-0.2,0.3l-52.5,12C815.2,128.9,815.3,128.8,815.3,128.7"/>
							<path class="st18" d="M815.1,129l52.5-12c-0.1,0.1-0.1,0.2-0.2,0.3l-52.5,12C815,129.3,815.1,129.1,815.1,129"/>
							<path class="st18" d="M814.9,129.4l52.5-12c-0.1,0.2-0.2,0.3-0.3,0.5l-52.5,12C814.7,129.7,814.8,129.5,814.9,129.4"/>
							<path class="st17" d="M814.6,129.8l52.5-12c-0.1,0.2-0.2,0.3-0.3,0.5l-52.5,12C814.4,130.1,814.5,130,814.6,129.8"/>
							<path class="st17" d="M814.3,130.3l52.5-12c-0.1,0.2-0.2,0.3-0.3,0.5l-52.5,12C814.1,130.6,814.2,130.4,814.3,130.3"/>
							<path class="st16" d="M813.9,130.7l52.5-12c-0.1,0.2-0.2,0.3-0.4,0.5l-52.5,12C813.7,131,813.8,130.9,813.9,130.7"/>
							<path class="st16" d="M813.6,131.2l52.5-12c-0.1,0.2-0.2,0.3-0.4,0.5l-52.5,12C813.4,131.5,813.5,131.4,813.6,131.2"/>
							<path class="st16" d="M813.2,131.7l52.5-12c-0.1,0.2-0.2,0.3-0.4,0.4l-52.5,12C813,132,813.1,131.8,813.2,131.7"/>
							<path class="st15" d="M812.9,132.1l52.5-12c-0.2,0.2-0.3,0.4-0.5,0.5l-52.5,12C812.6,132.5,812.7,132.3,812.9,132.1"/>
							<path class="st15" d="M812.4,132.6l52.5-12c-0.3,0.3-0.5,0.6-0.8,0.9l-52.5,12C811.9,133.2,812.1,132.9,812.4,132.6"/>
							<path class="st14" d="M811.6,133.5l52.5-12c-0.3,0.3-0.6,0.6-0.9,0.9l-52.5,12C811,134.1,811.3,133.8,811.6,133.5"/>
							<path class="st14" d="M810.7,134.4l52.5-12c-0.3,0.3-0.6,0.6-0.9,0.8l-52.5,12C810.1,134.9,810.4,134.6,810.7,134.4"/>
							<path class="st13" d="M809.8,135.2l52.5-12c-1.1,1-2.4,2-3.8,2.9l-52.5,12C807.4,137.2,808.7,136.2,809.8,135.2"/>
						</g>
					</g>
				</g>
				<g>
					<polygon class="st11" points="827.8,274.7 880.2,262.7 970.4,278.6 918,290.6 					"/>
				</g>
				<g>
					<path class="st69" d="M827.8,274.7l90.2,15.9l0,120.1l-119.4-21c0-27.2,0-54.4,0-81.7c0-20-12.8-25.8-17.4-26.6
						c-5.1-0.9-17.4,0.3-17.4,20.5c0,27.2,0,54.4,0,81.7l-119.4-21l0-120.1l90.2,15.9l0-89.7l21.7-17.4l0-21.9
						c-25.5-25.9-10.9-55.4,13.6-53.2l-4.6-14.8l5.8-4l2.9-19.4l-0.4-17l7.7-3.1l7.7,5.8l-0.4,16.9l2.9,20.4l5.8,6l-4.6,13.1
						c24.2,6.2,39.3,40.8,13.7,58l0,21.9l21.7,25L827.8,274.7z M798.5,255.7c0-2.2,0-43.5,0-58.7c0-10.2-7.4-22.5-17.3-24.2
						c-0.1,0-0.1,0-0.2,0c-0.1,0-0.2,0-0.3,0c-9.8-1.7-17.1,7.9-17.1,18.1c0,15.1,0,56.5,0,58.7
						C772.4,251.1,789.9,254.1,798.5,255.7"/>
				</g>
				<g>
					<polygon class="st50" points="918,290.6 970.4,278.6 970.5,398.7 918,410.7 					"/>
				</g>
			</g>
		</g>
	</g>
	
		<image style="overflow:visible;opacity:0.5;enable-background:new    ;" width="800" height="1074" xlink:href="kronentor.jpg"  transform="matrix(0.24 6.320000e-02 0 0.24 405.9056 15.9936)">
	</image>
	<line class="st70" x1="501.9" y1="41.3" x2="501.9" y2="299.1"/>
	<line class="st70" x1="405.9" y1="189.9" x2="597.9" y2="240.5"/>
	<circle class="st71" cx="501.9" cy="215.2" r="2.5"/>
	<g>
		<g>
			<line class="st72" x1="192" y1="289.6" x2="193.9" y2="287.3"/>
			<line class="st73" x1="197.5" y1="282.5" x2="402.2" y2="20.7"/>
			<line class="st72" x1="404.1" y1="18.4" x2="405.9" y2="16"/>
		</g>
	</g>
	<g>
		<g>
			<line class="st72" x1="192" y1="289.6" x2="195" y2="289.9"/>
			<line class="st74" x1="201" y1="290.4" x2="591.9" y2="323.9"/>
			<line class="st72" x1="594.9" y1="324.1" x2="597.9" y2="324.4"/>
		</g>
	</g>
	<g>
		<g>
			<line class="st72" x1="192" y1="289.6" x2="195" y2="289.4"/>
			<line class="st75" x1="200.9" y1="289" x2="399.9" y2="274.2"/>
			<line class="st72" x1="402.9" y1="274" x2="405.9" y2="273.8"/>
		</g>
	</g>
	<g>
		<g>
			<line class="st72" x1="192" y1="289.6" x2="194.6" y2="288.2"/>
			<line class="st76" x1="199.8" y1="285.3" x2="592.7" y2="69.5"/>
			<line class="st72" x1="595.3" y1="68.1" x2="597.9" y2="66.6"/>
		</g>
	</g>
	<g>
		<g>
			<g>
				<line class="st77" x1="192" y1="289.6" x2="152.8" y2="298.6"/>
				<g>
					<polygon class="st78" points="153.1,293.4 145.8,300.2 155.4,303.1 					"/>
				</g>
			</g>
		</g>
		<g>
			<g>
				<line class="st79" x1="192" y1="243.8" x2="192" y2="289.6"/>
				<g>
					<polygon class="st80" points="187,245.3 192,236.6 197,245.3 					"/>
				</g>
			</g>
		</g>
		<g>
			<g>
				<line class="st81" x1="192.6" y1="289.6" x2="218.9" y2="307.4"/>
				<g>
					<polygon class="st82" points="214.9,310.7 224.9,311.4 220.5,302.4 					"/>
				</g>
			</g>
		</g>
		<circle cx="192.1" cy="290" r="2.5"/>
	</g>
	<polygon class="st83" points="597.9,324.4 405.9,273.8 405.9,16 597.9,66.6 	"/>
	<g>
		<g>
			<line class="st84" x1="491.4" y1="217.7" x2="192.1" y2="290"/>
			<g>
				<polygon points="487.6,211 501.9,215.2 491.1,225.5 				"/>
			</g>
		</g>
	</g>
	<g>
		<g>
			<g>
				<line class="st81" x1="806.4" y1="404" x2="840.4" y2="397.9"/>
				<g>
					<polygon class="st82" points="839.8,403 847.4,396.6 838,393.2 					"/>
				</g>
			</g>
		</g>
		<g>
			<g>
				<line class="st79" x1="806.4" y1="367.1" x2="806.4" y2="404"/>
				<g>
					<polygon class="st80" points="801.4,368.6 806.4,360 811.4,368.6 					"/>
				</g>
			</g>
		</g>
		<g>
			<g>
				<line class="st77" x1="807" y1="404" x2="835" y2="423.1"/>
				<g>
					<polygon class="st78" points="831,426.4 841,427.1 836.6,418.1 					"/>
				</g>
			</g>
		</g>
		<circle cx="806.4" cy="404.1" r="2.5"/>
	</g>
</g>
</svg>
